89

13
7692325286
0610656821
6371410868
3628446995
2693218314
1366561862
0779095482
4891763921
1904670729
2456363547
9054848981
2570309487
0049695883
10 9 4 12 13 8 6 3 5 11 2 7 1
11 5 4 9 12 2 7 8 1 6 13 3 10
5 11 3 8 2 1 6 9 12 4 13 7 10
5 3 6 2 7 13 12 9 10 11 8 4 1
1 13 4 9 10 6 12 2 11 5 8 7 3
9 2 8 6 10 5 1 13 12 3 11 7 4
12 2 3 4 10 1 8 7 11 5 6 13 9
6 13 10 8 11 3 7 1 9 2 4 5 12
8 7 1 11 10 4 9 12 3 2 5 13 6
2 12 8 3 1 13 10 11 5 7 6 4 9
11 7 4 10 1 5 3 6 12 13 9 8 2
13 11 3 4 8 2 12 10 9 6 1 7 5
13 8 4 11 12 10 2 7 9 3 5 6 1
10 11 4 1 13 12 3 8 5 7 6 9 2
3 8 1 2 10 4 11 7 12 9 5 13 6
5 7 10 6 9 4 12 11 13 1 3 8 2
8 13 2 5 9 6 7 4 10 1 11 12 3
3 7 13 5 9 8 11 1 2 6 4 12 10
13 1 6 11 4 5 7 8 2 9 3 12 10
8 13 3 6 2 7 1 4 10 5 12 11 9
12 5 10 9 11 13 6 4 7 8 2 1 3
7 10 8 4 2 9 6 1 5 12 3 13 11
9 5 10 4 1 11 3 6 2 13 7 8 12
9 2 7 4 1 10 3 13 6 11 12 5 8
7 3 4 13 5 12 6 8 2 1 10 9 11
11 13 12 6 5 8 9 10 2 3 1 4 7
7 12 11 13 2 1 5 10 4 3 6 9 8
8 1 9 3 2 5 6 4 7 13 11 10 12
4 13 5 6 7 11 10 2 8 3 1 12 9
10 1 13 7 4 12 8 11 3 5 6 2 9
2 9 6 1 12 13 5 10 3 4 8 11 7

17
5623228350
5620872258
0063319427
0456152677
3664189659
1009570737
0809299888
3422168629
3252044064
1806655789
1422058184
2723502296
4414609013
0057382324
8744455218
8898998961
8629470181
3 14 7 2 11 9 10 1 13 8 6 4 17 12 5 16 15
12 3 7 10 4 5 16 9 11 15 14 13 8 6 1 17 2
2 17 15 13 8 4 7 5 3 9 14 11 10 12 1 16 6
4 7 3 1 11 9 16 13 15 5 10 17 2 12 14 8 6
15 16 13 4 17 10 5 3 8 11 1 6 12 14 2 9 7
1 17 2 10 6 7 4 11 3 5 8 13 9 12 15 16 14
11 8 2 7 15 3 10 9 1 5 16 4 14 6 12 17 13
7 16 2 12 9 17 1 11 15 13 10 5 8 4 6 14 3
7 5 14 12 13 2 16 4 6 3 8 10 11 9 17 15 1
5 13 11 3 9 1 4 8 16 15 6 14 12 10 2 7 17
2 3 12 1 14 13 17 11 7 5 10 9 6 4 16 8 15
12 10 14 15 5 2 8 13 3 7 1 16 11 17 6 4 9
9 1 12 10 5 2 3 14 17 16 8 7 13 15 11 4 6
11 14 16 1 9 13 5 12 17 10 3 8 15 6 7 2 4
9 17 12 7 15 13 6 1 4 10 3 2 14 8 11 16 5
7 14 11 1 9 15 16 13 10 3 17 4 12 8 6 2 5
12 8 7 13 1 16 4 6 11 9 14 15 17 10 2 5 3
16 15 17 2 11 14 7 10 1 13 12 3 4 6 9 8 5
7 12 4 17 9 6 3 1 5 13 11 8 2 16 14 15 10
1 12 3 5 4 14 9 11 15 17 13 6 7 8 2 10 16
12 2 3 1 5 6 8 16 4 15 17 9 14 7 10 13 11
5 9 16 1 4 8 13 3 6 10 17 11 12 2 15 14 7
16 13 15 1 3 7 2 9 12 5 11 14 4 6 17 10 8
4 13 3 2 12 11 15 5 7 1 14 8 6 9 10 16 17
3 5 7 1 15 4 6 10 17 14 16 11 12 2 9 13 8
6 16 2 9 17 12 8 1 15 5 14 11 4 10 3 7 13

2
5270352684
5193424665
1 2
2 1
1 2
1 2
1 2
1 2
2 1
1 2
1 2
1 2
2 1
1 2
2 1
2 1
1 2
1 2
1 2
1 2
1 2
1 2
1 2
1 2
2 1
1 2
2 1
2 1
1 2
1 2
1 2
1 2
2 1
1 2
2 1

6
7260776800
9746279676
3698894127
4812818130
4174868998
3294538631
6 2 3 1 5 4
3 4 6 1 2 5
1 3 4 5 2 6
5 1 6 4 3 2
3 5 1 6 4 2
6 3 4 5 1 2
4 3 6 2 5 1
3 4 6 5 2 1

17
6056679079
9483464966
7945614807
0491298707
5942844901
0477458131
0938541736
4692706992
0915212114
8763459889
0575292728
3814813780
1526632654
0109366138
7895749870
6947020623
9246740281
1 9 4 17 6 12 16 7 10 14 11 13 3 2 5 15 8
10 17 11 16 2 12 3 9 14 6 8 13 5 1 15 4 7
9 14 16 8 11 1 2 17 10 3 15 4 7 5 13 6 12
3 7 14 17 8 5 2 16 15 1 9 4 13 12 11 10 6
11 5 6 12 4 3 8 14 15 2 1 10 7 17 13 16 9
7 8 17 3 1 4 5 10 2 6 9 13 12 11 14 16 15
11 5 15 13 2 14 1 7 12 9 3 4 16 10 6 17 8
8 6 7 14 4 3 11 5 2 9 13 1 10 12 16 17 15
6 1 16 7 13 3 17 8 5 9 2 10 14 15 11 4 12
10 12 11 8 16 5 4 14 2 9 17 7 13 15 6 1 3
6 4 12 15 10 7 5 14 9 2 11 3 1 16 17 8 13
17 7 1 3 14 9 2 15 4 13 5 11 12 6 16 10 8
5 3 6 1 12 2 8 14 13 17 10 15 11 4 7 16 9
2 9 17 3 15 16 12 8 14 4 1 7 13 5 11 6 10
16 4 8 7 5 3 14 17 1 6 12 9 10 2 13 15 11
12 7 14 11 3 10 16 6 8 17 15 9 4 13 5 2 1
1 16 9 14 7 12 10 3 8 11 13 17 5 15 2 4 6
8 13 2 15 17 1 7 16 5 3 10 14 4 11 6 9 12
13 17 14 3 16 4 5 12 1 2 15 7 6 11 8 9 10
5 17 14 4 7 1 3 12 11 10 15 6 8 13 16 2 9
4 7 1 8 14 6 17 9 10 15 2 5 16 11 3 13 12
2 10 13 16 17 4 15 1 11 14 7 5 6 3 12 9 8
6 7 13 9 12 17 11 8 10 2 5 1 4 14 3 16 15
6 4 14 15 8 12 1 5 2 16 7 10 11 13 9 17 3
6 3 8 4 12 7 13 2 14 17 16 15 9 10 11 5 1
15 4 3 11 13 7 10 8 5 14 12 2 9 17 1 6 16
12 10 14 5 11 2 9 7 13 1 4 16 6 3 15 8 17
13 4 7 9 2 16 14 8 11 5 3 10 17 1 6 15 12
6 9 16 3 11 4 10 2 14 8 7 15 5 12 1 17 13
17 3 5 6 16 2 8 13 14 12 4 7 15 10 11 1 9
16 1 9 15 10 5 11 2 17 6 3 13 7 8 4 12 14
3 9 8 6 15 1 2 17 4 12 7 11 10 5 13 14 16
14 13 11 16 10 7 12 9 8 17 5 4 6 2 1 15 3
13 9 1 14 15 7 16 10 6 8 5 4 12 11 17 3 2
3 1 16 9 17 12 4 10 6 8 11 2 5 14 13 7 15
15 13 11 8 9 2 4 17 16 12 3 6 1 10 7 14 5
4 14 3 5 10 16 8 13 15 2 1 7 12 9 17 6 11
10 9 8 14 15 16 13 12 1 3 7 4 5 11 6 17 2
3 8 5 1 10 17 7 6 2 11 16 15 13 12 9 14 4
3 13 7 1 9 8 11 14 5 15 6 16 2 12 17 10 4
14 11 7 8 16 12 5 4 17 13 9 10 2 6 15 1 3
10 7 1 6 8 16 2 3 14 15 11 17 5 4 9 13 12
7 15 3 6 10 4 5 8 14 17 1 9 11 12 2 16 13
9 1 3 15 5 12 4 6 16 17 7 8 10 11 14 13 2
15 14 6 2 1 7 3 13 4 10 12 9 17 5 11 16 8

17
1897650189
0542468629
8968761836
1598614932
0592841828
5966517419
1501061268
3576839371
1607701474
4926640926
3848866263
0603387788
2578148133
1093031554
8777050490
7942707108
6293777447
6 4 5 7 11 9 2 3 15 14 1 13 10 8 12 16 17
7 11 2 5 9 12 4 17 13 14 8 15 16 3 6 1 10
13 7 15 16 6 11 4 8 3 2 17 9 10 12 14 5 1
1 12 4 6 17 10 9 15 14 3 8 2 7 13 16 5 11

20
0813875159
4146490423
4339475853
1045636135
1011895081
8920656906
0971712535
5480400846
5471149019
0192300293
5665311612
7325890637
6395460806
9216120099
4307670969
3320624458
2040543110
2965638817
0383961136
7009408903
7 4 19 15 20 14 11 1 13 3 17 18 5 16 2 10 9 12 6 8
12 14 6 5 11 20 10 13 2 3 9 1 7 15 18 8 19 16 4 17
8 15 2 12 10 19 11 4 20 18 17 1 13 7 16 6 14 5 9 3
7 19 15 8 14 2 4 17 18 20 1 13 16 10 3 6 9 12 5 11
12 14 20 7 18 13 10 2 1 4 17 9 16 5 11 6 15 8 19 3
4 1 6 16 15 3 2 5 13 8 11 19 18 10 9 14 17 12 7 20
3 1 16 17 4 12 5 14 20 2 18 9 10 19 8 11 13 6 7 15

14
6108800107
4047064690
0725153492
2232976443
3694342294
0848228960
5029252028
0014230897
2748037215
5323230479
0384292246
2835727913
4431815382
7563796951
2 4 14 12 9 6 5 11 1 13 7 8 10 3
5 3 8 6 12 11 9 13 2 4 10 1 7 14
6 3 13 5 2 14 1 12 9 10 11 7 8 4
12 6 11 14 8 1 7 13 5 3 2 9 4 10
14 7 13 12 3 1 4 8 6 2 10 5 11 9
4 8 1 5 13 14 6 3 12 10 2 11 7 9
6 9 5 4 13 11 10 12 7 1 8 3 14 2
1 13 4 12 3 2 9 14 6 5 10 11 7 8
13 5 3 11 4 12 7 9 8 2 14 6 1 10
12 8 10 7 3 14 11 9 5 1 2 13 6 4
5 12 10 6 13 2 3 9 8 11 4 14 1 7
5 14 2 1 6 4 12 11 7 13 9 3 10 8
6 13 9 2 1 14 5 4 7 11 3 8 10 12
10 9 11 2 13 3 4 8 14 1 6 7 12 5
14 11 3 8 2 1 12 4 5 6 13 9 7 10
6 5 9 11 1 4 12 7 10 2 13 8 3 14
9 11 1 5 6 13 10 3 7 12 2 14 8 4
3 2 8 6 1 13 4 14 10 5 11 9 7 12
7 6 10 4 11 9 13 12 5 8 1 14 2 3
11 14 9 13 2 3 12 5 6 4 1 10 7 8
9 3 13 10 2 8 12 6 5 4 14 7 11 1
14 10 9 11 5 8 12 4 13 1 7 6 2 3
1 7 14 6 5 11 13 3 2 8 12 4 10 9
1 11 3 9 10 14 4 5 2 6 12 13 7 8
4 3 13 8 11 12 9 10 2 1 6 5 14 7
14 6 11 3 1 7 12 9 8 2 4 10 13 5
13 14 1 2 4 11 8 5 3 6 7 10 12 9
7 12 3 11 4 6 2 5 1 13 8 9 14 10
1 12 10 3 4 5 8 14 13 2 6 11 7 9
2 13 5 3 8 12 9 11 7 14 6 4 10 1
1 10 7 9 6 2 14 11 5 12 4 3 13 8
8 7 11 10 9 1 6 5 3 2 13 14 4 12

7
9975768630
9188585946
7528311209
7441641517
7748097228
9362948661
1905012992
2 7 3 6 1 4 5
3 1 5 4 2 6 7
5 4 7 2 1 6 3
6 7 5 2 4 1 3
4 2 6 3 7 5 1
6 1 4 5 3 7 2
1 6 2 5 3 7 4
4 3 6 7 2 1 5
4 2 6 1 7 3 5
3 5 4 2 1 7 6
2 5 3 6 7 1 4
6 7 1 3 4 2 5
2 3 4 1 5 7 6
7 1 5 3 6 2 4
5 7 4 1 6 3 2
2 7 6 4 5 1 3
5 1 7 4 3 6 2
6 4 3 2 5 1 7
7 2 6 4 1 5 3
1 4 3 2 5 7 6
6 1 3 2 4 7 5

8
3290048965
3183179763
8361009557
9232689520
1424237007
5880916434
4750053142
3387381345
7 5 8 1 3 4 2 6
6 2 1 3 5 8 7 4
2 6 5 4 3 1 7 8
8 3 5 2 6 4 7 1
6 8 3 1 2 7 5 4
7 3 1 8 5 2 6 4
6 3 2 8 7 4 1 5
1 4 5 7 2 6 8 3
8 7 3 6 1 5 2 4
7 3 1 2 6 4 8 5
8 3 2 4 6 1 7 5
5 7 6 8 4 2 3 1
2 1 8 6 5 3 7 4

4
3952184858
4452217791
9439974444
0637560426
1 2 4 3
4 2 3 1
4 2 1 3

1
1186214779
1
1
1
1
1
1
1
1
1
1
1
1
1
1
1
1
1
1
1
1
1
1

4
9866952733
2500435759
0021458509
9630325906
3 2 1 4
1 4 2 3
2 1 3 4
3 2 1 4
3 1 4 2
3 2 1 4

1
1799074726
1
1
1
1
1
1

12
8526853518
8111028704
4933138119
1106136584
9557735822
8760489867
0255353833
9734292025
6303651603
7523393097
3266142507
0158764360
9 8 7 4 12 2 5 3 10 11 1 6
1 9 2 8 6 4 5 3 11 7 10 12
11 5 12 1 3 10 9 7 6 4 8 2
10 3 8 6 12 7 11 4 1 5 2 9
9 8 7 6 1 3 12 4 11 2 10 5
5 1 12 11 3 6 7 4 2 9 8 10
12 10 3 8 11 1 6 5 7 4 2 9
3 10 4 8 6 1 12 2 9 5 7 11
1 12 3 9 11 6 4 2 10 7 8 5
2 5 12 6 9 1 7 10 8 11 4 3
8 4 1 6 10 9 11 2 12 7 3 5
11 6 4 8 5 2 10 12 9 3 1 7
9 7 8 12 3 2 1 11 10 5 6 4
1 4 10 7 8 5 6 2 12 11 3 9
9 1 5 2 11 4 7 6 10 8 3 12
1 2 10 7 12 4 11 3 8 9 5 6
9 6 11 7 10 2 3 1 8 5 4 12
9 7 4 12 2 5 6 8 3 11 1 10
2 10 6 3 8 4 1 7 12 9 5 11
2 9 4 8 10 5 3 12 11 7 1 6
12 7 9 5 1 3 10 2 6 8 4 11
4 9 11 3 10 5 8 1 6 7 12 2
11 12 5 6 10 9 7 2 4 3 1 8
1 2 11 10 3 8 5 4 12 9 6 7
3 11 8 2 6 4 10 7 9 1 12 5
1 12 4 2 11 6 8 7 10 5 9 3
8 10 2 6 3 7 1 9 12 5 11 4
11 2 4 5 9 12 7 10 1 3 6 8
11 12 10 8 1 5 6 3 4 2 9 7
3 11 7 10 6 12 4 1 8 9 2 5
7 10 8 5 6 4 12 3 9 11 2 1
1 2 6 8 5 11 4 12 3 10 9 7
7 8 5 9 11 3 4 1 2 12 10 6
3 10 4 5 7 2 11 8 1 9 12 6
3 10 4 8 6 9 7 5 12 11 1 2
3 7 10 1 8 6 4 12 5 11 9 2
2 11 7 6 5 1 9 10 8 12 4 3
10 7 12 8 9 1 3 2 11 6 5 4
11 12 3 5 1 2 10 8 4 9 7 6
3 12 5 2 9 7 10 6 8 1 4 11
9 3 10 12 2 1 11 7 5 6 8 4
10 12 1 7 2 6 3 11 8 4 9 5
5 7 12 4 11 3 9 2 8 1 6 10

8
9302759276
3707811792
0044759840
8388496618
0629100662
4839780304
0717046145
0789098428
6 5 1 8 4 7 3 2
4 5 8 7 3 6 1 2
5 2 4 3 7 1 6 8
4 1 2 7 3 5 6 8
8 1 4 6 7 3 2 5
4 7 2 3 6 1 8 5
1 5 8 3 2 7 4 6
6 4 5 1 3 2 8 7

12
0179783540
9051662432
9090047690
2358863474
8845261732
3525944720
4530571920
9111729099
9020637961
9999188480
4910138021
0984930561
5 1 10 9 4 6 12 8 3 11 2 7
5 3 12 10 1 4 6 2 7 11 9 8
2 11 1 4 10 5 8 6 12 3 7 9
9 2 10 5 1 4 7 6 12 11 8 3
11 4 1 2 6 7 12 9 5 3 10 8
6 7 5 10 12 3 11 4 8 1 9 2
2 10 11 3 7 1 5 6 8 4 12 9
5 6 11 3 2 12 10 4 1 9 7 8
4 6 8 9 10 2 11 7 5 1 12 3
5 3 4 7 8 10 11 9 6 1 2 12
6 1 3 4 12 10 2 9 5 7 8 11
3 1 11 10 2 5 12 7 4 8 6 9
2 6 3 8 10 1 5 11 9 4 7 12
5 4 10 7 8 1 2 3 11 6 12 9
11 4 6 7 3 12 8 1 5 10 2 9
3 8 1 4 11 9 2 10 7 6 5 12
6 2 11 1 8 5 7 10 12 3 9 4
5 10 8 2 9 11 1 4 12 6 3 7
7 9 8 12 5 1 10 6 4 2 3 11
11 4 6 1 3 8 2 7 10 5 9 12
7 12 4 2 11 1 9 3 6 5 10 8
10 12 7 4 6 3 2 8 11 5 9 1
4 10 6 5 9 12 8 11 3 2 7 1
6 9 5 12 4 7 10 3 2 1 8 11
2 5 6 3 7 9 11 4 8 10 12 1
5 12 10 4 11 8 7 6 2 3 1 9
1 3 11 7 2 6 10 5 9 12 4 8
4 12 2 5 10 3 9 7 1 6 8 11
1 5 9 6 3 4 2 8 10 7 11 12
2 1 11 5 6 12 10 3 7 8 4 9
1 11 10 2 5 9 4 8 6 7 12 3
2 6 9 12 10 4 7 3 1 5 8 11
5 9 3 4 11 1 8 6 7 10 12 2
12 8 11 4 10 3 7 1 6 9 2 5
3 2 4 6 11 8 12 7 1 10 5 9
2 10 9 8 1 5 3 12 7 4 11 6
2 5 7 6 10 9 12 1 11 4 8 3
11 5 4 2 3 7 1 9 12 6 8 10
6 8 9 10 3 2 12 1 4 7 11 5
11 3 5 9 2 10 8 1 4 12 7 6
4 6 9 7 1 10 2 12 5 8 11 3
4 8 5 12 1 7 6 3 11 10 2 9
8 1 2 11 12 9 3 5 10 4 7 6
11 9 3 12 8 6 5 4 2 1 7 10
2 8 4 6 1 11 5 3 7 9 10 12
4 12 1 5 2 6 10 9 3 11 8 7

12
8536621483
5852112051
0649263287
2015027331
6895125833
7663077804
8877729923
9429293324
1305428897
4257742512
0112860623
6085085863
10 2 9 5 12 4 8 1 11 6 3 7
1 10 5 6 7 9 3 4 11 2 12 8
3 2 7 4 11 10 6 9 1 5 12 8
10 7 11 12 4 2 9 8 1 3 6 5
8 12 11 2 9 6 10 7 3 4 5 1
8 10 5 1 7 3 9 6 11 2 12 4
3 11 4 9 5 10 2 8 6 1 7 12
10 12 5 3 1 2 4 7 8 11 6 9
6 2 8 11 7 1 9 4 12 3 5 10
12 5 11 9 10 1 6 7 3 2 8 4
11 8 7 2 10 6 5 4 9 1 12 3
8 2 1 11 7 12 10 5 4 3 6 9
2 7 8 11 9 3 12 1 10 4 6 5
4 6 10 8 7 3 9 11 2 12 5 1
10 5 11 9 1 2 4 6 3 7 8 12
12 11 9 7 2 5 3 4 6 1 10 8
3 8 11 12 5 6 9 1 4 2 10 7
3 1 6 8 7 5 4 11 10 2 9 12
5 8 6 1 2 10 11 7 3 4 9 12
7 10 2 11 9 1 6 3 8 4 12 5
5 9 11 2 12 6 8 10 1 7 3 4
11 4 10 6 2 7 1 8 3 5 9 12
10 4 7 3 9 11 8 1 2 6 12 5
12 6 11 7 3 1 2 9 10 4 8 5
11 5 3 2 8 9 1 6 10 7 12 4
9 1 2 11 7 8 6 4 3 10 5 12
11 3 5 12 1 10 8 6 2 4 9 7
10 1 12 8 11 7 2 4 9 5 3 6
5 4 11 9 8 7 12 1 2 10 6 3
3 6 7 2 8 12 11 4 9 5 1 10
6 11 9 8 3 10 1 12 2 7 5 4
3 2 12 4 9 1 11 6 10 8 7 5
10 4 9 8 7 11 1 12 3 2 5 6
11 2 8 3 5 12 6 10 1 4 9 7
4 9 6 8 1 12 7 10 5 3 2 11
2 11 8 1 9 6 7 12 4 5 10 3
6 4 8 10 12 7 2 9 11 3 5 1
3 8 11 5 7 4 10 2 12 9 6 1
6 7 11 8 1 12 5 10 3 9 4 2
3 6 8 9 1 12 10 11 4 5 2 7
8 4 3 2 5 1 12 6 9 7 11 10
8 7 12 6 3 4 10 2 1 5 11 9

2
4280952391
7560695839
2 1
2 1
2 1
2 1
2 1
1 2
1 2
2 1
1 2
1 2
1 2
1 2
2 1
1 2
2 1
2 1
1 2
2 1
1 2
2 1
1 2
2 1
2 1
1 2
2 1
1 2
2 1
2 1
2 1
2 1
2 1
1 2
2 1
1 2
2 1
2 1
1 2
1 2
2 1
2 1
2 1
1 2
1 2
1 2
2 1
1 2

3
3434742208
2449569393
0390627708
1 3 2
1 3 2
3 1 2
3 2 1
1 2 3

19
0584253670
2762102888
5892192653
2979046663
2133858024
0083801373
5236340905
6823741845
9823644337
3559734128
3090809248
6069095541
8073237838
9762326158
7265661613
1896522495
0706985035
2264925941
5937159067
12 13 16 11 15 4 10 17 19 7 9 5 8 2 18 3 6 14 1
4 6 15 13 2 17 3 16 1 10 7 5 8 14 19 9 11 18 12
6 15 9 16 18 5 12 10 14 17 4 2 7 3 19 8 13 1 11
1 12 19 16 5 9 14 11 18 10 7 6 2 3 8 15 4 13 17
1 15 9 8 4 13 5 17 7 12 19 3 14 10 16 18 11 2 6
12 14 17 4 9 7 8 1 5 15 6 18 16 13 3 19 10 11 2
17 4 3 1 11 15 14 12 7 18 9 16 2 13 6 19 10 8 5
1 7 5 16 11 12 19 18 4 3 14 13 2 10 17 8 6 15 9
11 15 13 8 19 3 5 2 12 9 4 18 6 14 10 7 17 16 1
1 19 17 4 18 9 16 8 11 13 5 3 2 14 6 12 10 15 7
14 12 6 8 16 1 5 2 10 15 3 9 11 7 18 17 4 19 13
16 4 5 3 6 10 18 8 19 7 13 12 17 1 2 15 11 14 9
18 5 11 8 10 1 14 7 15 3 4 13 12 17 16 2 6 9 19
3 18 9 8 13 5 17 16 10 7 6 19 1 14 11 12 15 4 2
2 5 16 17 9 14 12 18 10 6 4 13 1 15 19 8 7 11 3
14 3 10 15 7 4 16 1 19 2 9 11 6 5 18 17 8 12 13
12 2 6 8 10 3 15 14 11 17 13 5 7 4 1 18 19 9 16
3 19 9 4 8 2 15 14 1 10 7 6 16 17 13 18 11 12 5
11 1 4 13 2 12 14 18 17 9 7 10 6 16 15 8 19 3 5
5 18 1 14 9 12 19 13 17 10 15 6 2 7 11 3 4 8 16
2 11 12 7 15 5 13 19 9 16 17 18 1 3 4 8 10 6 14
18 16 19 9 15 7 8 11 6 12 4 5 17 14 10 3 1 13 2
3 7 1 12 17 19 16 5 14 13 4 15 18 9 2 6 8 11 10
10 16 2 5 17 8 19 12 4 1 3 7 6 13 11 14 9 15 18
17 19 11 13 6 14 7 8 16 5 12 3 9 4 10 1 15 18 2
14 9 2 8 18 16 15 10 11 1 4 19 12 13 3 6 17 5 7
3 16 8 9 14 13 17 11 10 5 1 15 18 4 19 2 7 6 12
5 10 4 19 1 18 7 14 6 17 2 8 3 12 15 16 9 13 11
11 14 15 16 4 8 1 6 3 2 7 10 9 12 5 19 17 13 18
3 17 7 6 4 19 1 12 15 14 5 8 16 18 11 13 9 2 10
7 3 15 2 4 9 18 10 12 1 6 5 8 17 13 11 19 16 14
17 14 13 1 12 10 11 15 5 19 9 16 3 6 18 4 8 7 2
19 1 16 15 17 14 12 10 13 4 6 8 5 2 7 18 9 11 3

20
5819252246
0903405879
9988622564
4071333709
1865145979
8291871139
7835219068
2914889367
2350753698
3765810925
9849036190
0249752951
1220613236
9466291569
6277240883
2681161926
8249514100
8424145555
0907382219
1215129470
11 4 16 18 17 6 1 7 20 13 12 14 3 10 15 5 8 19 9 2
16 10 6 15 14 7 18 13 20 2 9 3 8 5 11 4 19 1 12 17
7 1 11 5 15 17 13 19 6 9 3 2 20 16 14 4 10 8 18 12
3 13 10 17 15 8 2 7 14 1 11 4 20 19 18 12 9 6 5 16
12 20 13 15 9 14 16 1 6 17 4 19 11 3 7 8 2 10 5 18
6 9 4 1 11 5 19 7 10 3 16 14 20 8 12 13 18 15 17 2
14 5 8 15 16 13 1 4 7 6 9 17 2 3 11 18 19 20 10 12
1 19 18 4 13 5 8 6 9 2 11 20 14 3 16 12 10 17 7 15
14 1 10 4 19 7 8 13 2 20 15 12 11 16 6 9 18 5 3 17
12 18 8 20 7 14 11 13 2 6 16 9 5 19 3 10 4 17 15 1
5 8 12 15 10 1 13 14 17 9 7 18 6 20 16 3 19 2 11 4
12 2 6 9 13 3 14 15 11 8 10 19 5 17 7 18 4 16 20 1
4 10 1 18 16 11 8 9 7 13 6 15 12 20 19 17 14 3 5 2
4 11 3 2 17 13 15 16 1 6 8 18 5 14 10 9 20 19 12 7
4 7 8 19 14 1 12 6 18 10 5 16 15 3 2 13 17 9 20 11
11 15 10 3 7 4 16 13 1 20 19 12 8 14 9 6 18 5 17 2
5 9 14 19 15 12 10 3 20 16 7 18 11 13 4 2 17 8 6 1
12 4 6 3 18 20 17 2 13 11 5 7 16 14 15 9 19 10 8 1
8 10 15 14 5 1 2 20 18 13 7 3 16 17 9 19 12 6 11 4
14 13 16 15 12 18 20 4 2 11 9 8 19 1 5 3 17 10 7 6
2 13 18 7 15 8 19 1 12 3 10 4 17 16 11 9 6 20 14 5
16 10 20 19 14 5 4 7 9 11 3 2 12 1 13 8 18 15 17 6

12
3251031445
5519117757
7544182763
6885016126
2135572109
8836871570
4868026670
7463073225
4588845910
8594888821
7136814839
9528571247
7 12 8 5 9 11 10 4 6 1 3 2
4 6 8 1 5 10 3 12 2 7 11 9
12 2 7 5 9 10 1 8 6 11 4 3
4 6 7 12 10 1 9 5 8 2 11 3
4 5 8 7 1 9 2 12 10 11 6 3

1
1069175302
1
1
1
1
1
1
1
1
1
1
1
1
1
1
1
1
1
1
1
1
1
1
1
1
1
1
1
1
1
1
1
1
1
1
1
1
1
1
1
1
1
1

18
0186816817
6361177814
2451190249
9273632780
6112680159
7255002792
7639966328
4218375575
8518169091
9318967312
9367641855
4277435809
3269290932
6951923714
2021043461
7024709433
7603066092
7357286050
1 15 16 18 11 14 4 2 10 3 8 13 6 5 7 17 9 12
16 1 8 12 13 14 15 9 17 18 6 3 11 5 4 10 2 7
17 10 3 16 2 5 8 11 4 13 15 18 14 9 6 1 12 7
17 8 12 14 13 7 6 1 10 15 5 16 11 4 9 2 3 18
11 6 14 5 3 17 8 15 16 9 18 13 4 2 1 7 12 10
17 9 5 6 7 18 4 15 11 10 2 12 8 16 3 13 1 14
4 8 9 3 6 15 7 11 12 2 10 13 18 14 17 5 16 1

18
8762040365
4734642271
7526675856
2460580510
5702385309
5334050630
6156449508
2971434951
2140183854
4794507484
8419264124
1607810497
7549125264
1905226108
1821094629
8155612545
5519290523
5596104814
12 14 3 1 6 15 11 13 10 2 9 4 8 5 18 16 7 17
7 15 17 5 16 12 13 1 18 9 10 3 14 4 11 2 6 8
11 13 7 8 18 5 15 6 3 12 9 2 4 1 14 16 17 10
11 10 6 4 5 13 3 7 2 9 14 18 17 15 1 8 12 16
15 17 4 9 3 11 16 5 10 14 13 8 1 6 2 18 12 7
3 17 14 15 18 16 2 4 7 6 10 9 12 5 1 13 8 11
12 9 10 14 3 1 17 18 8 4 6 16 11 5 15 13 7 2
9 17 18 15 6 1 10 12 13 14 8 7 3 4 16 11 5 2
11 13 1 5 9 12 3 2 17 6 4 18 10 8 14 7 16 15
1 15 10 11 8 18 3 9 5 4 6 7 14 16 2 12 13 17
17 12 9 14 10 3 15 7 6 8 4 13 5 2 11 1 18 16
5 17 3 4 9 18 16 8 2 15 6 1 10 13 12 11 7 14
15 6 4 7 1 3 10 9 2 8 17 13 14 12 18 11 5 16
9 11 8 4 3 17 6 18 1 5 7 14 12 15 10 13 2 16
3 8 11 15 16 4 18 12 2 13 14 17 9 6 5 7 10 1
4 6 14 17 18 16 15 1 11 13 2 8 9 3 5 10 12 7
18 7 8 10 14 3 4 9 17 5 16 12 2 11 15 1 13 6
13 3 7 5 6 1 14 4 9 8 11 12 15 10 2 16 17 18
18 14 9 5 1 8 12 6 13 2 16 10 11 4 7 17 3 15
5 15 16 11 2 9 1 13 12 4 3 6 10 7 17 18 8 14
8 15 2 16 6 18 7 12 14 5 4 3 13 17 1 11 9 10
12 3 1 9 14 10 4 11 13 6 16 8 17 15 2 7 18 5
7 5 1 14 18 3 9 6 10 15 16 17 4 12 13 8 11 2
12 11 14 2 10 16 18 7 5 15 6 3 17 9 4 8 1 13
17 3 9 1 8 2 16 12 5 7 13 15 18 4 14 6 11 10
6 3 10 15 8 12 16 13 14 18 2 11 5 4 1 9 17 7
1 16 4 3 2 10 18 12 15 14 11 7 6 8 9 5 17 13
6 14 13 2 17 3 8 11 10 12 9 15 1 18 5 4 16 7
18 1 4 14 2 13 10 3 7 9 11 12 6 16 8 5 15 17
16 10 2 12 11 14 18 7 9 8 6 15 13 4 1 17 5 3
13 10 18 17 16 4 15 14 1 6 8 2 12 3 7 5 9 11
7 10 16 4 9 13 2 11 14 12 15 3 18 17 6 8 5 1
7 11 6 16 2 3 15 1 18 5 8 13 4 9 17 10 12 14
14 5 10 7 17 16 4 8 9 15 6 11 1 13 18 12 3 2
11 10 9 8 7 17 12 18 3 4 5 2 13 15 14 1 16 6
11 18 3 5 7 9 2 13 4 10 15 12 6 16 14 8 17 1
9 12 8 3 5 14 16 4 1 2 11 7 17 6 13 18 10 15
18 13 6 8 2 14 11 3 4 10 16 7 12 15 9 1 17 5
15 4 7 1 14 17 8 9 12 2 10 13 3 18 16 5 11 6
13 3 4 9 17 18 5 2 1 8 16 6 14 15 11 10 12 7
11 18 14 6 3 7 9 8 12 1 5 16 17 10 13 15 4 2
17 11 13 15 4 14 1 8 7 12 6 3 16 10 9 18 5 2
6 14 1 15 17 11 5 2 13 7 10 9 18 3 12 16 4 8
10 18 9 17 6 13 11 15 8 12 4 7 5 14 3 16 2 1

17
0235367907
2606691229
5665789304
9822753219
3944189411
5888956737
6564563843
0704001247
6831500754
1532979410
2117152345
8065348621
3979630982
6370555457
0884803047
8817357433
0983253502
5 9 3 14 2 10 16 4 13 6 8 11 15 1 17 7 12
3 7 12 5 10 1 15 2 6 4 16 17 13 14 9 11 8
6 2 1 13 4 10 15 3 16 5 9 11 12 17 14 8 7
8 7 4 15 11 1 10 14 3 9 6 12 5 16 13 2 17
14 17 11 10 16 13 4 5 1 9 8 12 2 7 6 3 15
12 14 16 1 5 3 7 6 9 13 10 8 2 4 11 17 15
9 14 11 16 17 1 12 2 13 4 10 15 6 3 7 5 8
5 3 8 7 13 17 16 2 11 9 10 12 4 15 6 14 1
3 15 17 1 9 8 11 6 10 2 4 13 12 14 5 16 7
6 12 8 10 1 9 2 14 7 15 13 4 17 11 3 5 16
11 5 12 13 7 2 10 3 16 1 9 6 14 8 15 17 4
15 16 8 4 12 14 17 3 6 13 11 10 9 5 2 1 7
8 5 11 7 2 14 12 17 4 3 10 16 6 9 1 13 15
13 2 6 16 8 1 4 12 17 11 9 7 15 10 5 3 14
17 15 2 12 6 14 5 16 1 11 3 4 13 7 9 8 10
3 17 2 7 14 12 1 6 8 9 10 5 11 15 13 4 16
4 8 15 3 16 13 11 14 12 1 2 9 10 17 7 6 5
6 14 11 3 8 16 1 10 2 4 12 9 7 5 15 17 13
9 3 5 12 17 10 15 2 4 6 16 14 13 8 11 7 1
13 5 9 15 4 3 1 17 6 10 12 16 2 7 14 11 8
7 2 12 13 10 8 1 14 3 9 16 5 11 4 15 6 17
12 1 5 14 3 11 17 4 2 15 16 13 7 9 6 10 8
11 10 2 6 14 16 9 8 3 4 7 1 17 13 12 5 15
12 1 5 7 16 2 6 3 10 8 11 4 14 9 13 15 17
6 16 15 7 12 2 13 1 4 10 11 3 9 5 14 8 17
17 3 11 15 13 10 7 8 2 12 1 9 5 4 16 6 14
13 4 6 8 12 3 16 14 10 1 11 15 17 9 7 5 2
10 9 5 6 2 1 12 4 16 7 8 13 15 3 11 17 14
14 17 3 9 7 13 10 6 2 4 11 16 5 12 1 8 15
17 15 3 4 16 12 8 9 7 14 11 2 13 10 5 1 6
2 7 9 10 15 17 5 16 1 14 12 3 8 4 11 13 6
3 14 4 8 6 17 1 16 9 2 12 13 15 7 5 11 10
14 10 11 17 12 15 3 9 6 8 1 4 7 5 16 2 13
10 9 5 15 1 12 16 13 3 11 17 2 6 7 4 8 14
15 1 17 9 4 12 13 14 7 3 6 5 10 8 16 11 2
16 2 7 3 11 17 14 6 4 9 12 8 15 5 13 10 1
9 3 14 11 5 15 12 13 8 6 16 17 7 1 4 2 10
3 8 12 7 11 14 5 17 15 6 13 16 1 2 4 10 9
14 17 8 12 3 10 15 1 11 5 6 9 4 16 7 2 13
2 4 3 15 12 17 8 7 9 1 11 5 13 14 6 16 10
14 12 7 2 4 13 3 15 17 16 11 10 5 6 8 1 9
5 7 1 10 11 15 9 13 4 8 12 6 2 3 14 16 17
12 5 13 16 10 9 8 4 7 2 3 11 6 14 17 1 15
1 11 3 7 17 14 13 5 8 12 6 10 16 2 4 15 9

5
2686212068
7882031277
5269514907
7741453907
8126456868
5 1 4 3 2
3 4 5 1 2
2 5 1 3 4
4 3 1 2 5
1 5 4 3 2
5 3 4 1 2
1 2 5 3 4
5 2 3 1 4
3 4 2 5 1
1 3 5 2 4
3 5 2 1 4
1 4 2 5 3
1 2 3 5 4
5 1 2 4 3
5 3 2 4 1
1 3 2 5 4
5 1 3 4 2
5 4 1 3 2
3 4 1 5 2
3 2 1 5 4
1 3 5 2 4
2 1 4 3 5
1 2 4 5 3
4 3 1 5 2
1 3 2 4 5
2 5 3 4 1
3 4 1 5 2
2 1 3 5 4
2 5 3 1 4

9
6016826279
3229973346
1001915185
9934452722
0713165154
2981556078
2365103231
1649266181
2352171119
8 9 3 5 1 2 4 6 7
3 6 9 8 7 5 1 2 4
8 6 3 4 9 7 2 5 1
4 9 1 2 6 3 7 8 5
2 5 1 7 9 6 4 3 8
8 4 5 3 9 1 6 2 7
8 7 4 6 3 2 9 1 5
9 8 6 2 7 3 5 4 1
9 7 5 1 8 6 4 2 3
9 8 5 2 3 4 1 7 6
3 4 6 1 7 5 8 2 9
6 1 7 3 4 2 9 8 5
4 7 1 2 3 8 5 9 6
2 9 5 8 6 4 7 1 3
3 1 4 7 6 2 5 9 8
9 8 1 6 2 3 7 4 5
2 3 6 1 9 8 5 7 4
3 8 4 2 7 9 6 5 1
3 7 2 1 9 5 8 6 4
4 7 1 3 8 2 6 9 5
2 9 7 5 1 6 3 4 8
3 1 5 7 6 4 2 9 8
4 3 8 2 5 1 6 7 9
3 6 9 5 1 4 8 7 2
5 4 6 9 1 8 7 2 3
3 6 1 8 7 2 9 4 5
7 5 8 9 6 4 2 1 3
2 9 6 5 1 4 7 3 8
6 8 1 4 5 3 9 7 2
7 5 9 1 6 3 8 2 4
1 6 9 3 2 7 8 4 5
7 4 8 1 3 6 9 5 2
1 2 8 6 4 3 5 7 9
3 2 7 4 5 9 6 8 1
6 7 5 2 9 4 1 3 8
2 7 8 4 9 1 5 6 3
7 1 9 8 5 6 3 2 4
9 4 1 5 7 3 8 6 2
9 7 1 4 8 6 5 3 2
5 8 1 9 2 3 7 6 4
3 7 5 2 6 9 8 1 4

9
4606276484
4312642103
8186721948
1309754876
0437746073
5809400319
6073802822
5194642628
5139986481
1 2 4 6 9 3 8 5 7
3 7 6 8 4 9 1 2 5
8 3 1 7 4 6 9 5 2
2 7 6 4 1 3 8 5 9
5 2 3 7 8 6 4 1 9
1 5 2 4 3 8 7 6 9
1 4 5 9 7 3 8 2 6
6 9 2 7 3 5 4 8 1
7 8 9 4 3 1 6 2 5
2 9 8 1 3 4 5 6 7
1 3 6 5 4 9 8 7 2
5 3 2 8 1 9 6 7 4
8 6 2 3 7 5 1 9 4
2 5 6 9 7 3 1 4 8
5 4 9 8 6 7 3 2 1
9 3 8 5 2 6 7 4 1
3 8 2 6 7 4 5 9 1
2 4 8 9 3 7 1 6 5
2 6 3 4 1 8 5 9 7
8 7 2 1 5 9 3 4 6
4 6 9 1 2 3 7 5 8
6 1 5 7 8 2 9 3 4

2
3124987117
1889353107
1 2
1 2
2 1
1 2
1 2
1 2
2 1
2 1
1 2
1 2
1 2
2 1
2 1
1 2
2 1
2 1
2 1
2 1
2 1
2 1
2 1
2 1
2 1
2 1
1 2
1 2
2 1
1 2
2 1
2 1
1 2
2 1
1 2
2 1
2 1
2 1
1 2
2 1
2 1
2 1
2 1
2 1
2 1

15
1425366998
4326598149
6031531355
7398203268
5794750875
8993384178
1205863716
4551952573
5294111881
9319132730
8661391805
0641298411
2201658287
6265538114
3949310672
1 13 4 12 6 10 8 2 7 5 11 15 3 14 9
1 5 6 13 2 8 4 12 7 11 10 15 9 14 3
13 8 7 15 3 2 5 12 11 4 9 6 14 10 1
1 7 12 5 6 11 3 15 4 2 13 8 14 9 10
10 7 4 5 2 3 15 12 9 14 11 6 8 1 13
10 8 9 2 7 15 12 6 5 13 11 3 14 1 4
11 2 4 12 7 3 15 10 9 6 14 13 5 8 1
1 15 14 8 12 5 3 13 2 11 4 9 7 6 10
10 12 2 4 5 7 13 8 6 3 1 9 11 14 15
11 4 15 9 8 2 3 1 5 12 10 6 14 13 7

20
0037646365
2694873356
9856313544
6560792389
9883699457
8673753724
6055535412
5999539978
9836257288
6524890393
0469834041
9005297019
7791997342
8570507673
0881480134
4359388225
2188442948
6663087307
4907385305
0105644437
16 17 9 15 7 3 5 12 6 10 13 1 18 11 19 2 8 4 20 14
15 13 19 16 6 3 12 11 7 14 17 9 2 8 1 4 20 5 18 10
6 8 18 15 4 11 17 7 20 19 10 5 2 12 9 14 3 16 1 13
12 18 19 1 9 11 4 7 15 14 2 13 20 6 8 10 17 16 5 3
15 6 17 19 10 7 11 13 3 14 1 2 20 18 5 8 16 9 12 4
9 4 11 16 8 10 20 1 15 18 5 19 6 7 12 17 3 13 14 2
2 1 18 8 14 3 4 13 9 16 5 6 15 17 11 20 7 12 10 19
19 18 11 5 17 20 3 8 10 7 4 13 15 12 16 14 2 9 1 6
1 16 13 15 2 9 5 6 10 12 20 7 17 11 8 19 18 3 14 4
18 3 12 13 9 6 7 4 19 14 20 15 16 10 2 5 8 1 11 17
18 13 17 1 19 11 14 6 7 2 5 15 10 12 20 4 16 9 8 3

10
6611077299
2336799942
4594285599
3456624741
0352242084
1409197542
0827857527
5539495858
3738414134
9169538777
2 8 9 6 5 1 10 4 3 7
9 6 2 10 1 8 5 7 4 3
2 5 3 10 8 9 1 4 6 7
6 2 7 9 5 1 10 8 3 4
3 4 9 6 7 10 2 1 8 5
8 6 3 4 7 1 10 2 9 5
2 10 1 6 8 9 7 3 5 4
10 8 5 4 1 3 7 9 2 6
9 7 6 1 10 2 4 5 3 8
7 8 3 9 1 10 6 4 5 2
2 8 3 10 5 9 4 1 7 6
8 9 4 6 10 2 1 7 3 5
10 5 2 4 1 7 3 6 8 9

18
1479230147
8804462046
0307547018
3828218403
4502591520
4414228149
4217519372
9600479004
1969734737
2725075358
3976915402
2904309710
8083295435
5610583638
1103030744
5604960435
0099359443
7135208865
10 14 2 13 9 17 8 18 15 16 3 1 11 12 7 6 5 4
10 15 7 6 16 3 11 8 12 13 9 1 17 4 14 5 18 2
3 17 6 18 2 1 5 4 10 14 16 8 12 9 11 15 13 7
13 10 7 2 5 15 17 14 1 9 3 18 11 16 6 8 12 4
14 13 2 3 11 4 5 10 6 7 17 18 15 1 9 12 16 8
3 18 5 10 17 13 6 2 1 4 11 12 14 16 15 9 8 7
15 17 6 11 12 10 9 3 8 14 16 7 1 4 2 18 5 13
8 4 10 1 13 15 5 6 3 12 18 2 17 14 7 11 9 16
9 13 8 3 17 5 18 10 4 16 6 14 2 1 7 12 15 11

12
8211947915
2699988162
7283827269
3440586105
5583728162
9323154096
9608712249
4821704334
5149917696
9206826401
6830970410
4548197124
8 7 11 12 1 5 4 2 9 6 10 3
1 2 10 3 12 7 11 8 6 5 4 9
3 5 4 8 12 7 6 10 9 2 1 11
1 3 11 5 8 4 6 12 9 7 2 10
1 3 2 6 7 11 10 4 12 9 8 5
1 2 7 4 11 5 10 9 6 8 12 3
11 1 6 8 4 7 2 9 10 5 12 3
4 10 9 11 3 5 12 6 8 7 2 1
1 8 4 5 12 6 9 10 3 7 11 2
8 6 12 11 2 10 4 9 5 3 1 7
3 6 4 8 12 5 11 10 7 2 9 1
4 5 1 3 11 12 2 7 8 6 9 10
2 3 11 6 7 1 10 4 9 5 8 12

20
1835642214
2355752574
6777576688
6173330874
3158705234
2476402110
0147985320
2763159959
2823744873
8392490708
9945200809
7735660559
7997564203
9038311989
2039413491
0723321852
6049596825
6604613585
9936831425
3519254816
8 15 14 6 16 2 1 3 13 10 12 7 9 5 19 4 18 20 17 11
14 18 9 19 2 20 10 12 7 15 5 16 1 17 4 11 13 3 8 6
9 3 16 8 17 12 10 7 5 6 14 15 4 13 18 2 20 19 11 1
9 12 10 5 16 19 1 17 8 15 13 2 7 11 20 14 4 3 18 6

20
6087255673
7099196165
3009539540
2239896440
4455430823
5298834366
1683750487
6331570155
0512201092
5824806858
2450027115
1347225725
6295525042
0240908040
9167098517
2903446122
3224471711
7422919388
2682210092
3074271760
20 17 3 19 13 5 14 8 2 4 15 11 18 7 10 9 16 12 6 1
4 19 14 10 13 18 7 17 8 15 6 5 11 1 2 3 9 12 16 20
1 16 11 6 5 2 12 9 18 13 8 20 4 10 19 7 17 15 3 14
15 9 10 12 1 8 11 7 2 17 3 19 6 13 16 14 4 5 20 18
10 5 20 11 18 6 8 12 9 2 4 14 16 3 17 7 15 13 19 1
14 15 11 8 3 7 19 10 5 6 17 18 4 20 9 13 16 1 12 2
18 4 15 12 2 7 9 13 5 3 1 6 10 11 14 20 17 16 19 8
11 12 20 13 17 18 19 3 15 10 14 4 9 5 8 7 16 2 1 6
19 18 15 11 4 17 5 3 12 14 16 1 9 13 20 10 8 7 6 2
4 11 13 8 1 17 10 6 2 3 9 20 16 5 14 19 18 12 7 15
12 7 9 4 10 6 1 13 16 15 14 19 18 5 17 2 11 3 20 8
8 17 16 14 3 7 13 9 19 15 20 6 18 10 11 2 5 4 1 12
8 18 16 3 15 10 6 9 1 14 20 19 5 13 2 4 11 7 17 12
12 14 20 16 6 10 8 7 15 18 5 1 3 4 13 2 11 9 19 17
12 18 6 15 19 7 11 2 9 17 3 20 10 13 14 8 5 16 1 4
13 4 16 3 5 2 12 19 1 6 9 7 14 18 8 17 10 15 20 11
14 16 15 3 13 20 5 17 8 11 12 7 1 10 9 6 2 18 19 4
5 11 20 10 7 18 8 3 2 16 4 1 6 15 12 19 9 14 17 13
11 1 17 14 16 19 13 8 9 2 20 4 6 10 5 12 7 3 15 18
8 9 10 5 20 17 18 12 13 14 7 1 3 4 6 16 2 19 15 11
5 7 19 3 12 18 11 17 13 10 4 20 2 6 1 15 16 8 14 9
17 10 16 5 19 11 13 6 9 3 15 4 14 8 2 18 1 7 12 20
18 20 8 13 16 14 9 17 1 11 7 3 2 6 12 10 4 19 15 5
17 1 7 3 12 10 9 15 20 16 14 19 5 4 6 8 11 13 2 18
10 14 11 7 2 17 13 20 15 16 9 4 19 18 8 3 12 5 6 1
16 9 11 17 3 4 1 18 2 6 14 8 10 20 7 15 5 13 12 19
4 16 14 6 3 12 7 18 10 17 13 1 2 20 9 8 15 5 19 11
19 1 4 18 20 16 15 13 10 5 6 8 7 2 11 3 14 9 12 17
13 1 14 19 15 7 11 9 17 3 18 6 10 2 8 16 12 4 20 5
14 20 13 7 11 3 15 8 16 6 19 2 9 10 12 17 18 5 4 1
16 12 15 1 4 13 5 19 10 6 8 11 7 9 3 2 17 14 20 18
15 8 16 5 11 18 2 17 10 3 12 6 7 14 9 19 1 4 13 20
6 9 16 2 5 15 11 4 3 8 13 12 14 10 1 20 7 18 17 19
7 5 15 16 14 13 12 18 10 1 17 20 4 8 2 19 11 9 3 6
10 4 12 9 19 20 13 6 15 18 11 2 16 1 17 5 8 3 14 7
6 16 12 8 19 1 2 3 17 11 20 15 7 4 13 10 5 14 9 18
12 20 8 7 17 19 15 1 18 16 6 11 9 2 5 13 10 4 3 14
18 9 8 10 6 2 17 19 16 1 4 11 20 14 12 15 5 13 7 3
7 3 13 12 16 9 18 5 2 4 14 17 20 19 10 15 1 11 8 6
1 17 5 7 19 3 4 18 16 8 2 11 14 13 9 6 20 12 15 10
2 16 5 18 15 9 3 4 12 20 6 13 17 11 14 10 1 7 8 19
13 5 6 19 8 14 2 9 11 18 15 20 16 17 3 4 10 1 7 12
8 20 10 3 12 18 7 2 16 19 17 4 1 5 15 11 6 13 14 9
1 17 6 8 4 11 12 20 10 16 18 15 3 5 13 14 19 7 9 2
11 17 19 10 14 13 1 3 7 9 2 12 6 8 20 16 5 18 15 4

4
6396075490
0199426053
1740854798
8401204684
2 1 3 4
4 1 3 2
4 1 3 2
2 4 1 3
4 3 1 2
2 4 3 1
3 2 4 1
1 3 2 4
3 2 1 4
4 2 3 1
3 2 1 4
1 3 4 2
1 4 3 2
2 1 3 4
1 3 4 2
2 4 1 3
1 4 3 2
1 2 3 4
3 2 1 4
1 4 2 3
1 4 2 3
3 1 4 2

4
2207566212
9623622629
0349440739
5573865015
4 2 1 3
4 1 3 2
2 4 1 3
2 4 3 1
4 3 1 2
2 3 4 1
4 3 1 2
4 1 3 2
4 3 2 1
1 4 2 3
4 1 3 2
1 4 3 2
3 2 1 4
2 4 3 1
1 3 4 2
1 3 4 2
4 3 1 2
3 2 1 4
1 3 2 4
1 2 3 4
2 4 3 1
2 4 1 3
1 2 4 3
2 1 4 3
2 4 1 3
2 3 1 4
4 2 1 3
4 1 3 2
4 2 1 3
4 2 3 1
4 2 3 1
2 1 3 4
2 1 3 4
1 4 3 2
1 4 2 3
4 3 2 1
1 3 2 4
2 3 4 1
1 2 4 3
3 1 4 2

4
0446155952
0608438920
2665286486
3122718306
2 4 1 3
1 4 3 2
3 4 2 1
2 4 1 3
4 2 1 3
2 4 1 3
3 1 4 2
4 1 2 3
1 3 4 2
1 4 3 2
3 4 1 2
1 2 4 3
2 1 4 3
1 2 3 4
3 2 1 4
4 3 1 2
4 2 1 3
1 2 4 3
1 3 4 2
1 2 4 3
3 2 4 1
1 4 2 3
1 2 4 3
1 2 4 3
3 4 1 2
1 2 4 3
2 3 1 4
4 2 1 3
4 1 2 3
3 1 2 4
4 1 2 3
2 3 4 1

18
8853722172
2225645031
8925145296
0321960122
9200252018
2050990273
4359237995
5593037726
3936996802
6649992635
6216430487
5082703336
7884042372
0572873680
8521679303
5471205772
7873860071
6017616788
1 12 4 17 2 6 18 14 10 15 9 11 3 5 16 7 13 8
8 15 10 4 7 3 5 14 2 9 18 11 17 16 12 6 13 1
8 13 16 18 6 4 10 5 3 9 15 7 14 17 1 12 2 11
3 10 15 18 13 11 17 6 2 5 4 12 14 1 8 7 9 16

12
7053059659
6825345399
0332447732
5281264617
7331117428
3502116668
0975941614
5484856810
7921135948
0646347076
3862760508
0036969664
1 2 5 11 9 4 12 8 7 6 3 10
2 5 1 12 9 8 7 4 6 3 10 11
12 2 1 7 11 8 3 6 10 5 9 4
3 11 7 4 8 6 5 10 2 12 1 9
5 9 7 2 4 3 8 6 12 1 11 10
5 10 3 8 4 2 12 9 7 1 6 11
11 5 8 1 2 6 7 12 3 10 4 9
2 5 10 4 1 6 9 3 12 7 11 8
2 11 4 6 10 8 9 3 12 7 1 5
9 10 5 1 7 3 2 4 12 6 11 8
8 1 6 9 4 12 5 7 3 10 11 2
1 10 3 9 7 11 8 6 12 5 2 4
12 11 9 4 2 8 10 3 6 5 7 1

6
8662623812
0910897992
5552446349
7229826104
4973151972
7953150316
4 5 3 2 6 1
6 2 3 4 1 5
4 5 6 1 2 3
5 2 3 6 1 4
5 2 6 4 1 3
6 2 4 3 1 5
3 1 2 6 4 5
1 2 4 6 3 5
4 2 3 6 1 5
5 4 3 2 1 6
3 4 5 2 6 1
2 1 5 4 3 6
4 2 1 5 3 6
4 3 1 5 2 6
3 1 2 6 5 4
5 6 4 1 2 3
1 5 3 4 2 6
1 4 5 3 2 6
2 3 4 1 6 5
5 3 4 6 1 2
3 2 4 1 5 6
6 1 2 5 4 3
5 1 3 4 2 6
2 4 3 1 6 5
3 1 6 4 5 2
1 4 3 2 5 6
3 6 2 5 4 1
6 1 3 2 4 5

7
7704305967
2207153025
3382781585
2295263011
0727328614
3159101124
0501101663
5 1 4 7 3 2 6
5 6 4 3 7 2 1
4 5 1 6 3 7 2
2 7 6 3 1 5 4
7 3 2 6 4 1 5
7 5 6 4 2 3 1
4 5 2 7 3 1 6
4 2 7 6 1 5 3
7 5 6 4 2 1 3
5 6 3 4 1 2 7
7 4 2 1 3 5 6
2 4 6 7 1 3 5
5 1 7 4 3 6 2
2 5 4 3 1 6 7
3 5 4 7 1 2 6
2 3 6 7 5 1 4
1 5 3 6 2 4 7
5 1 7 2 3 6 4
4 6 5 7 2 3 1
1 3 7 6 4 2 5
1 6 4 5 2 3 7

10
7841886443
6534265035
6201788436
6008301162
8861805267
9029052447
1028228774
5746063934
0216365291
9701094968
7 3 10 1 6 2 5 4 9 8
5 8 7 6 1 4 3 9 2 10
8 2 9 7 5 3 4 6 10 1
4 10 2 7 6 3 8 5 1 9
2 3 4 9 8 10 7 5 1 6
5 2 7 9 8 1 3 10 6 4
3 10 6 1 5 9 8 4 2 7
1 3 6 8 10 2 4 7 5 9
5 6 4 9 10 8 3 2 7 1
6 4 2 1 8 10 7 3 9 5
5 4 9 7 8 1 6 3 2 10
5 10 9 3 1 7 8 4 2 6
7 8 6 9 10 4 3 5 2 1
2 7 9 5 3 1 10 4 6 8
7 2 4 6 9 8 5 10 1 3
3 1 9 5 8 6 2 4 7 10
2 1 9 7 8 3 10 4 6 5
8 9 4 10 1 7 3 6 5 2
4 2 6 7 10 8 5 3 1 9
10 9 7 1 5 2 8 3 6 4
3 2 8 1 5 4 10 9 6 7
6 1 5 2 3 8 4 7 9 10
6 1 3 8 9 4 7 5 10 2
9 1 3 7 6 10 4 5 8 2
1 10 9 3 7 4 5 8 6 2
8 9 10 6 1 2 4 7 3 5
1 2 8 3 4 7 10 5 9 6
9 8 2 10 3 6 1 4 5 7
7 2 3 9 6 4 1 5 10 8
3 2 5 1 8 9 4 7 10 6
2 1 3 7 10 6 9 5 4 8
9 5 7 6 10 1 2 4 8 3
6 5 8 2 10 7 9 3 1 4
5 3 9 4 10 7 8 1 2 6
7 1 5 4 8 10 3 6 2 9
8 4 7 1 5 9 6 10 2 3
9 6 1 3 5 7 4 10 8 2
3 5 6 8 7 1 9 4 10 2
7 2 5 9 8 3 10 6 4 1
6 7 5 9 8 2 4 10 3 1
9 6 1 3 8 5 2 4 7 10
3 7 10 5 4 8 6 1 2 9
1 4 2 6 10 3 7 9 5 8
6 4 2 7 9 5 8 10 1 3
7 5 1 3 10 8 2 6 4 9
3 1 10 7 9 8 4 6 2 5
6 3 7 10 5 8 2 1 9 4

14
3693845112
1426046673
2821632539
7351694210
7098136332
8829866032
9452178501
7969352365
9657919564
1690971854
8776526842
1067754825
9712413883
8066743107
1 11 3 9 2 7 5 10 8 4 12 6 14 13
5 7 14 10 4 8 12 3 6 2 11 9 13 1
7 11 4 3 6 5 2 13 10 12 8 14 1 9
1 6 8 14 2 10 5 9 11 12 3 13 7 4

9
1813310347
4000808946
8087431009
4347634400
6115624740
0843750688
9777032114
8073142594
3250919820
6 8 7 9 3 4 5 2 1
4 3 7 1 6 8 2 9 5
1 3 7 5 9 6 4 8 2
9 3 5 8 7 4 1 6 2
6 3 9 1 2 7 8 5 4
8 6 2 1 3 5 9 4 7
6 7 8 5 2 1 4 9 3
9 4 6 3 8 7 2 1 5
4 3 9 5 6 8 1 2 7
1 4 6 2 5 8 3 7 9
6 7 2 8 9 1 4 5 3
4 9 3 5 6 2 7 1 8
2 5 4 6 1 8 7 3 9
7 1 4 8 6 2 3 9 5
7 5 3 9 4 8 6 2 1
8 2 4 7 3 5 1 9 6

5
2187244927
1631405497
5998162958
6112303211
3014289054
5 2 1 3 4
3 5 1 4 2
5 2 3 1 4
2 4 1 5 3
5 4 2 3 1
3 5 1 2 4
2 4 5 1 3
4 1 5 2 3
3 2 1 4 5
1 2 4 5 3
3 5 2 4 1
3 1 4 5 2
1 4 5 3 2
2 1 3 5 4
4 2 5 1 3

12
4414744755
2322928637
2231125675
6024910240
9485301247
5311767872
5138892561
4048824218
9359530400
8944574617
0845923956
7998666774
3 8 6 7 11 4 9 5 1 2 10 12
10 8 4 12 7 11 2 3 1 6 5 9
12 4 1 5 10 6 9 7 11 3 8 2
7 9 11 10 12 4 8 1 6 3 5 2
11 10 5 1 9 12 8 4 2 3 7 6
11 12 3 4 7 1 5 9 10 6 8 2
5 3 2 11 9 7 12 6 10 8 1 4
5 9 12 1 6 8 10 4 11 7 3 2
7 12 4 8 9 6 3 10 5 11 2 1
2 3 6 12 11 9 5 10 1 4 8 7
7 5 1 2 3 8 10 4 6 9 11 12
7 5 2 11 1 9 4 8 12 3 10 6
12 3 4 9 2 5 8 10 1 7 6 11

19
2101072717
0553769245
6977715438
5869131366
3235105599
7544461107
6119558174
1320775101
0278262721
2345219520
4109831924
2481794374
0829916752
6644229795
4148872427
7913506950
4332931773
1490101002
4098792358
15 1 8 19 9 5 11 12 13 17 16 2 18 14 4 6 3 7 10
8 17 1 2 11 12 9 15 18 3 10 14 7 19 6 4 16 13 5
18 6 13 7 10 4 1 15 9 12 11 2 19 8 14 16 17 3 5
1 2 15 17 6 7 4 10 16 13 11 5 14 18 8 19 12 9 3
8 19 4 3 9 5 13 14 6 17 16 12 7 11 1 10 2 15 18
17 11 3 4 5 9 19 6 8 1 15 14 12 13 16 2 7 18 10
11 19 16 14 4 2 15 5 13 3 6 12 10 8 9 18 1 7 17
4 14 8 11 10 1 5 13 18 17 15 3 16 19 2 12 7 6 9
15 12 14 3 6 16 18 5 19 17 1 9 4 7 10 2 13 8 11
5 4 6 11 3 7 16 19 13 18 8 1 15 9 10 17 14 2 12
6 11 5 3 9 10 14 4 18 12 17 2 7 15 1 19 13 16 8
15 5 12 10 1 4 13 19 2 16 9 6 18 11 8 3 7 17 14
13 12 6 10 2 17 4 16 19 9 1 5 14 15 8 7 11 18 3
9 12 8 2 16 7 15 1 17 11 6 13 19 10 3 5 4 18 14
11 17 12 4 14 18 10 6 9 15 13 19 16 7 3 2 5 1 8
5 16 19 18 3 12 6 11 4 8 1 17 14 13 2 7 10 15 9
11 17 9 3 4 10 8 7 12 5 6 15 14 13 2 16 18 1 19
16 8 17 14 15 9 5 1 6 12 4 19 3 18 11 13 10 2 7
12 16 4 3 13 7 8 10 6 2 14 19 15 1 9 11 5 18 17
8 14 11 13 12 2 9 18 15 17 19 3 4 7 6 5 1 16 10
19 3 5 12 14 11 18 4 1 6 9 13 15 2 7 17 8 10 16
3 12 8 6 16 11 10 9 17 13 2 4 7 1 15 19 14 5 18
9 14 11 17 2 6 12 18 7 4 8 15 19 5 3 1 16 10 13
6 16 18 4 2 12 10 5 11 3 1 17 8 9 13 7 19 14 15
12 17 15 7 13 4 18 2 5 14 1 11 8 19 3 10 16 9 6
4 19 14 12 10 1 13 11 16 17 5 18 6 3 7 8 2 9 15
18 4 9 11 2 7 6 17 16 5 13 15 3 8 14 12 10 19 1
10 17 13 14 15 11 9 1 5 18 4 7 16 19 2 3 6 8 12
3 8 19 6 14 9 4 7 17 11 1 18 13 16 2 12 15 10 5
1 15 19 6 5 4 18 2 12 16 9 3 17 14 11 8 7 10 13
13 3 19 7 16 10 9 14 2 6 8 17 15 1 11 18 4 12 5
16 12 5 2 11 8 13 10 7 1 19 6 9 15 14 18 3 4 17
12 1 6 2 3 16 17 18 13 19 4 8 11 14 7 5 10 9 15
8 3 7 6 10 2 17 1 19 15 9 14 18 11 4 12 5 16 13
9 12 11 13 17 3 16 14 2 18 4 6 10 19 5 15 7 1 8
3 6 10 16 5 17 15 4 19 1 13 11 9 14 7 2 18 8 12
14 7 16 5 2 15 6 13 8 19 18 3 4 17 1 12 11 9 10
14 16 5 18 8 17 19 6 10 7 2 4 1 3 13 11 15 12 9
18 5 14 13 10 2 8 4 11 9 16 7 1 3 6 12 17 15 19
8 18 17 7 13 9 4 12 11 16 5 15 3 2 1 19 6 14 10
5 12 10 3 7 14 16 17 6 11 1 4 9 13 2 19 15 8 18
7 15 3 4 17 1 12 11 19 2 13 10 6 14 8 18 16 9 5
3 11 8 12 5 1 14 13 17 10 4 9 16 19 6 15 7 18 2
10 1 5 13 8 9 4 3 6 19 7 17 2 11 18 14 15 12 16
5 17 4 14 9 13 18 10 11 7 8 15 3 6 19 1 2 12 16
4 7 5 19 13 3 2 12 9 10 11 16 18 14 6 15 17 1 8

20
9856779011
2387426975
5714672979
1111415398
6287747345
0123880990
8706587190
0179192118
9820062413
5577784128
5384425591
5487074964
8157160474
9443588782
9600145317
6923120288
8027323932
5978262876
4702795195
1771183474
1 10 4 18 19 12 11 3 20 6 17 16 15 14 7 2 8 13 5 9
11 10 19 6 3 12 18 15 17 16 13 4 7 9 2 14 1 20 8 5
18 9 7 14 20 19 10 4 12 1 17 15 5 6 8 11 16 2 13 3
19 4 2 18 20 3 17 15 14 1 13 6 9 7 12 16 10 11 5 8
9 20 7 1 16 6 15 14 2 17 4 13 12 5 3 8 18 19 11 10
5 2 8 18 10 16 7 15 11 3 6 19 9 17 20 12 14 13 1 4
3 6 11 8 14 12 7 17 13 20 19 5 4 2 18 9 1 16 15 10
14 2 5 1 16 18 9 10 3 20 7 11 12 4 13 15 8 17 6 19
18 1 5 7 12 20 17 14 10 8 13 2 3 16 11 19 6 4 9 15
17 15 11 10 20 19 4 18 5 3 13 16 1 9 14 7 2 12 8 6
12 14 20 8 4 11 5 2 7 13 3 19 16 18 6 9 1 15 10 17
11 8 17 16 20 5 1 12 13 10 18 3 15 2 9 4 19 7 6 14
4 9 16 5 17 1 3 20 11 6 8 10 18 12 13 14 2 19 7 15
19 9 16 8 15 10 11 20 6 14 7 13 5 18 12 1 4 3 17 2
7 4 14 15 1 3 17 13 9 11 10 6 2 18 5 19 8 16 12 20
5 8 4 10 17 7 6 15 20 19 13 3 12 14 18 11 1 9 2 16
10 7 11 3 6 9 13 19 5 12 14 2 17 18 1 4 15 20 16 8
15 11 4 8 10 20 7 2 18 6 16 19 17 9 13 5 14 1 12 3
4 6 16 20 8 7 18 10 2 17 9 1 3 13 19 15 5 12 14 11
19 9 2 12 15 5 3 11 20 8 4 7 13 14 6 18 1 17 16 10
4 7 16 6 3 17 20 2 10 18 13 15 8 19 1 14 11 12 5 9
1 18 14 5 17 12 4 8 20 6 15 16 11 10 7 3 13 9 2 19
12 9 3 5 8 7 1 19 2 10 13 15 4 18 16 6 20 11 17 14
4 5 12 11 2 18 15 20 8 7 6 9 3 17 14 1 10 16 19 13
8 15 16 9 20 3 12 2 17 6 5 18 11 13 14 7 10 4 1 19
14 9 10 17 5 4 11 6 13 12 3 20 16 1 15 19 2 18 7 8
20 6 9 3 14 13 10 2 18 12 16 11 17 5 15 8 1 4 19 7
1 16 6 15 11 14 19 8 5 10 3 18 7 20 2 9 13 17 12 4
2 8 5 3 1 15 11 16 13 19 10 6 14 12 4 18 9 7 17 20
7 16 20 9 3 10 18 1 13 4 12 2 17 8 11 15 14 6 19 5
13 10 2 6 1 19 7 17 4 3 9 11 20 8 16 18 5 14 15 12
15 19 14 9 18 13 12 20 2 3 11 6 17 7 10 8 5 1 4 16
1 13 19 18 10 8 9 15 5 12 11 2 20 6 16 3 17 14 7 4
7 16 3 19 15 4 5 12 17 11 13 9 2 14 10 20 18 6 8 1
18 10 4 1 5 11 14 9 13 8 16 20 6 3 15 2 19 12 7 17
4 5 6 16 14 7 3 2 18 13 20 11 15 17 10 8 9 1 19 12
19 13 18 6 2 20 11 1 8 9 15 7 14 3 4 10 5 17 12 16
16 18 19 12 17 9 8 20 14 5 15 1 13 10 4 11 6 3 7 2
8 3 20 11 14 13 19 18 12 1 15 2 10 16 9 5 4 17 6 7
16 10 19 7 18 15 8 4 14 9 2 12 6 13 3 17 11 1 5 20
6 7 19 2 5 18 10 11 15 20 12 4 3 13 16 8 14 17 1 9
14 18 2 15 17 20 3 7 9 8 4 5 19 6 12 10 11 13 1 16
20 13 8 1 16 4 15 11 2 9 14 3 18 6 12 19 5 10 17 7
11 14 7 6 12 13 3 20 19 9 8 2 1 17 10 16 5 18 4 15
9 7 19 11 2 12 16 18 4 1 8 17 13 15 14 5 20 3 6 10
5 12 18 15 8 4 3 7 6 9 20 13 17 1 14 2 10 11 19 16
6 4 2 12 13 9 7 14 1 20 17 16 15 8 5 19 3 11 10 18
1 4 6 15 13 8 2 18 12 16 11 19 7 5 14 3 20 10 9 17
6 4 13 18 14 12 10 16 20 5 15 19 9 17 1 11 3 2 7 8

7
3595846382
9722531848
3253046823
8078317965
8197447356
2856674340
9047808128
7 3 2 4 1 6 5
3 2 4 6 1 5 7
4 6 5 3 2 1 7
6 2 3 5 7 4 1
3 1 5 7 4 6 2
6 1 4 2 7 3 5
5 7 4 1 3 2 6
4 5 2 6 1 3 7

11
5144062161
1843499716
0212741383
1200428283
1525078383
6541004038
6632799546
6417562090
7224896419
5316891199
2842442768
10 1 9 6 8 2 5 4 7 3 11
2 9 11 10 5 4 7 3 6 1 8
7 1 3 6 2 10 9 4 8 5 11
3 10 6 11 5 1 8 9 7 2 4
2 4 9 1 5 3 8 10 7 11 6
3 6 11 10 4 1 2 7 8 5 9
3 8 7 6 5 9 4 1 10 11 2
6 11 2 8 9 1 10 4 7 5 3
1 11 4 7 2 10 6 5 3 9 8
10 1 7 4 3 2 11 6 8 5 9
4 7 2 10 1 6 9 8 5 3 11
8 9 3 5 2 6 1 11 4 7 10
2 9 10 4 1 11 7 6 5 3 8
11 2 3 9 4 5 6 7 8 10 1
7 10 11 5 3 1 6 4 2 8 9
2 7 5 9 8 4 10 6 3 11 1
10 9 1 11 2 4 5 6 3 8 7
5 10 7 8 9 3 1 4 2 6 11
1 10 5 7 11 6 4 8 3 2 9

13
5245463834
1528884472
1172460129
7046836028
5709406890
1007117894
5281921338
1666880888
6485692374
0732202360
1789275337
7400972235
9861031942
8 2 11 4 6 5 1 7 13 9 12 10 3
2 8 7 11 5 12 10 3 13 4 1 9 6
7 1 4 3 8 2 9 13 5 12 6 11 10
13 5 7 9 1 4 12 8 10 3 2 6 11
8 13 11 10 6 12 4 7 1 9 5 3 2
13 3 12 6 8 9 11 7 5 10 2 4 1
12 10 5 7 9 4 13 6 3 2 11 1 8
12 9 3 10 2 7 8 13 1 6 4 11 5
11 13 12 1 6 8 4 9 7 2 3 5 10
13 11 9 6 4 7 5 3 2 10 8 1 12
7 2 5 4 11 10 12 8 13 9 1 6 3
2 12 8 1 6 11 4 3 13 10 9 7 5
3 11 10 5 7 6 4 1 8 9 12 13 2
9 8 5 6 2 1 13 11 12 4 3 7 10
13 7 8 4 10 3 5 1 6 12 11 2 9
10 3 2 7 4 6 8 12 5 11 13 9 1
6 12 7 5 1 11 8 2 9 13 3 4 10
6 10 5 9 1 3 2 4 7 11 13 8 12
1 5 4 9 7 12 6 11 13 10 8 3 2
8 3 12 7 9 13 4 11 5 6 1 2 10
13 12 4 9 5 6 8 7 11 3 10 1 2
7 4 6 8 12 3 1 11 9 5 10 13 2
1 2 3 8 11 5 7 10 6 12 4 13 9
13 8 12 5 11 4 9 3 1 10 6 2 7
3 2 4 5 1 7 6 8 10 9 12 13 11
11 6 3 9 7 5 13 8 10 1 4 2 12
9 12 13 4 7 8 10 5 11 3 2 1 6
5 2 10 9 12 1 8 6 7 3 4 11 13
3 5 12 1 13 9 11 4 7 6 8 10 2
6 2 1 8 12 9 11 10 3 5 13 4 7
13 2 3 8 6 12 11 4 7 10 5 1 9
7 4 13 1 10 2 6 8 11 5 9 3 12
2 8 5 11 1 13 9 12 6 3 7 10 4
4 5 2 7 9 11 12 1 10 8 13 3 6
7 6 5 9 12 4 10 3 1 11 8 13 2
9 4 12 6 3 10 5 13 7 2 11 8 1
11 4 2 8 12 5 10 6 3 1 7 9 13
2 10 3 4 5 12 13 7 1 6 8 9 11
2 11 8 7 1 12 5 3 9 6 13 10 4
4 7 11 12 10 3 1 13 9 6 5 2 8
5 8 9 12 10 4 2 13 11 3 6 7 1
1 4 6 2 9 12 8 5 11 10 3 7 13
6 8 1 13 2 11 3 10 12 7 4 9 5
10 4 6 8 9 3 11 13 2 5 12 1 7
12 1 10 2 11 6 13 3 4 7 5 8 9
8 9 5 4 12 3 6 10 13 1 2 11 7
11 6 1 8 13 10 3 12 4 7 2 5 9
12 8 13 4 6 7 9 2 1 3 11 10 5

11
7608176302
5662406344
6751170073
0879352852
0283293028
8791501914
3792577906
3883662670
7160675543
1580852560
0685528550
4 2 6 5 8 7 9 11 3 1 10
9 2 11 6 7 1 8 10 4 3 5
9 2 10 3 4 8 7 5 6 11 1
7 3 9 1 4 10 6 2 8 5 11
3 1 5 6 2 4 7 9 11 8 10
3 4 2 8 6 9 11 7 10 1 5
1 8 11 3 6 9 2 4 10 5 7
10 2 9 1 3 5 7 4 6 11 8
6 8 1 11 10 9 3 7 2 5 4
4 9 8 2 3 6 11 10 1 5 7
1 7 5 8 11 10 3 6 9 4 2
6 11 3 2 10 8 4 9 1 5 7
11 1 6 4 8 3 5 10 7 2 9
6 11 7 4 10 1 5 2 3 9 8
2 5 9 8 6 7 4 10 11 3 1
1 8 7 10 3 5 4 11 9 6 2
5 3 6 4 8 9 2 1 7 10 11
11 8 7 6 9 4 3 5 10 2 1
6 7 9 4 5 8 2 3 10 11 1
1 10 6 3 4 11 7 9 8 2 5
7 1 3 8 10 11 5 9 4 2 6
7 6 4 5 11 1 2 9 8 10 3
6 10 9 8 11 3 7 5 1 4 2
3 4 6 9 8 1 2 7 10 5 11
6 7 10 3 5 11 9 4 2 1 8
5 6 7 10 2 1 3 9 8 11 4
3 5 8 2 11 7 6 10 1 9 4
9 8 5 1 10 11 6 3 2 4 7
7 10 6 8 3 5 1 11 4 9 2
5 2 9 1 4 8 11 7 6 10 3
9 10 2 7 4 5 11 1 6 8 3
3 8 11 1 10 6 7 9 5 4 2
1 3 9 8 11 7 10 6 2 5 4
6 1 2 4 7 8 10 5 3 9 11
3 5 10 2 11 1 8 6 4 7 9
6 3 4 11 9 8 1 5 2 10 7

7
9324052462
9628847138
3087367800
3149441794
0155637768
2899465477
7185422833
4 3 1 2 5 6 7
7 5 2 6 1 3 4
4 6 1 2 3 5 7
7 4 3 6 2 1 5
3 2 4 6 7 5 1
2 1 7 3 4 5 6
2 7 5 1 6 3 4
2 1 6 4 7 3 5
2 5 3 7 4 6 1
5 1 6 7 3 2 4
2 5 7 6 4 3 1
1 6 5 2 4 7 3
2 7 4 3 1 6 5
1 2 4 5 6 3 7
4 7 1 5 6 2 3
2 4 3 7 5 1 6
6 4 1 3 7 5 2
6 7 2 4 3 1 5
3 6 2 4 7 5 1
5 3 2 7 4 1 6
6 5 2 7 4 3 1
4 5 7 1 6 3 2
2 6 5 1 7 4 3
7 3 6 1 5 4 2
1 2 4 3 5 7 6
1 5 4 7 2 6 3
7 4 6 3 2 1 5
6 7 1 4 5 2 3
1 3 4 7 6 5 2
5 4 3 6 2 1 7
6 5 1 3 7 4 2
2 3 6 5 7 4 1
6 4 5 7 2 1 3
7 6 3 5 1 4 2
5 3 4 2 1 6 7
4 2 3 5 1 7 6
3 2 5 1 4 6 7
6 4 7 3 5 1 2
5 4 7 1 3 2 6
1 2 5 6 3 7 4
6 1 4 3 2 7 5
6 5 3 2 7 1 4
4 1 3 7 5 2 6
6 2 5 3 7 1 4
7 1 5 6 2 4 3

8
7007970593
3996056104
2964193780
4739513357
5666508199
0510483753
6988570886
9115707888
1 3 6 4 7 8 5 2
1 4 2 5 8 7 6 3
4 7 5 6 1 2 3 8
8 4 1 3 5 7 6 2
7 8 1 6 5 2 3 4
2 8 1 6 3 4 7 5
5 1 8 2 6 3 7 4
8 6 1 5 2 7 3 4
6 1 4 7 8 3 5 2
5 7 8 6 1 4 3 2
2 6 1 7 4 3 5 8
3 6 8 7 2 1 5 4
8 7 3 1 6 5 2 4
7 2 6 5 1 8 3 4
6 2 1 8 7 5 3 4
5 4 1 3 6 2 7 8
5 2 7 8 4 3 6 1
4 5 8 6 2 3 7 1
4 3 8 7 2 6 5 1
6 8 5 7 2 4 1 3
3 4 1 6 2 8 7 5
6 1 3 5 2 4 7 8
5 6 1 7 4 8 2 3
2 8 6 4 7 3 1 5
4 7 5 8 2 3 1 6
4 1 6 7 2 8 5 3
4 5 8 2 6 3 1 7
8 1 3 5 4 2 7 6
1 8 2 7 4 3 6 5
3 6 2 1 5 7 4 8
4 7 1 6 2 5 3 8
8 6 7 1 3 5 4 2
4 5 6 7 1 2 3 8
3 2 8 7 5 4 6 1
3 8 1 6 7 4 5 2
1 2 8 3 6 4 5 7
3 5 8 2 6 1 7 4
1 4 5 7 3 2 8 6
8 1 3 4 7 6 5 2
4 3 8 1 6 7 2 5
1 6 4 2 5 8 3 7
2 3 4 1 5 7 6 8
2 7 3 5 1 4 8 6
1 2 3 6 7 4 5 8

18
1741115067
7108607399
8368777533
0593535297
0373134538
4437037799
3144849713
4223315233
0870062464
7389457086
5606993477
5212369032
3440768553
0539982048
4932153925
9804844747
5986137391
9711617057
11 17 7 18 16 10 12 15 1 6 4 13 2 3 9 5 8 14
15 2 12 6 4 3 10 7 11 17 8 9 18 13 5 16 14 1
18 2 9 1 16 12 10 17 11 8 6 7 15 3 14 4 13 5
17 13 1 18 9 2 8 12 5 7 10 3 16 4 14 6 15 11
7 8 13 16 14 9 18 2 6 5 3 10 1 15 11 4 12 17
16 18 2 11 12 1 7 6 3 14 15 17 13 8 10 9 4 5
18 13 12 8 16 5 11 9 4 6 17 1 15 7 14 2 10 3
5 15 6 7 3 12 14 9 8 1 16 4 18 2 10 11 13 17
16 8 17 3 9 6 7 12 15 13 2 14 11 4 10 1 18 5
11 14 10 4 7 12 3 2 15 16 9 13 5 18 1 17 6 8
13 15 3 9 1 12 18 8 6 16 14 11 10 7 17 2 4 5
13 3 10 2 15 16 12 7 6 9 18 14 4 5 11 8 17 1
15 13 6 3 11 5 4 10 14 8 1 17 18 12 2 16 9 7
12 8 4 6 3 10 15 14 7 11 5 16 9 2 13 18 17 1
17 8 1 4 12 16 9 6 13 11 2 15 18 14 10 7 3 5
16 18 8 14 12 17 11 6 4 10 13 15 3 5 1 9 7 2
11 14 4 13 1 7 2 3 6 8 18 16 5 9 17 15 12 10
17 9 11 2 13 3 18 14 5 8 10 1 7 4 6 12 15 16
8 14 6 5 1 12 10 18 9 2 15 4 7 11 3 13 16 17
9 12 10 16 2 3 15 8 5 17 14 11 1 4 18 6 13 7
4 7 12 10 2 17 1 11 3 5 13 8 15 18 6 9 14 16
1 10 16 15 17 2 4 9 14 7 11 8 5 3 18 13 12 6
9 11 2 10 5 4 1 16 17 12 8 13 6 7 14 15 3 18
17 12 10 4 3 9 7 1 13 2 6 5 16 11 14 15 18 8
10 9 6 16 12 15 14 2 17 7 4 13 8 3 11 5 18 1
9 16 18 5 14 3 11 1 10 6 8 4 2 15 13 12 7 17
6 3 17 5 8 10 11 14 13 16 2 9 12 1 15 7 4 18
1 11 3 13 18 14 9 2 15 6 10 12 4 8 17 16 7 5
3 4 2 10 1 9 11 12 14 13 7 6 16 17 5 8 15 18
16 10 13 8 1 18 3 12 4 9 15 14 2 6 11 5 7 17
10 4 1 16 12 13 2 17 14 3 11 5 9 8 6 15 18 7
7 2 9 12 15 11 13 18 10 4 8 1 16 6 14 5 17 3
3 7 11 4 2 10 13 9 8 14 15 17 12 1 6 16 18 5
2 8 17 7 3 4 6 15 14 10 1 13 11 9 12 16 5 18
13 4 7 2 17 12 3 9 18 15 6 16 8 5 11 10 1 14
4 14 11 3 10 1 13 18 8 7 12 16 9 15 6 5 17 2
11 12 4 16 2 10 14 17 6 5 15 13 18 1 8 9 7 3
9 12 7 2 18 6 5 8 3 16 11 14 1 17 10 4 15 13
8 2 11 7 12 17 1 3 5 15 14 9 16 18 6 13 10 4
2 10 16 8 1 12 7 15 3 5 4 6 9 11 14 17 13 18
10 14 3 13 17 1 8 2 6 4 18 15 11 5 9 7 12 16
8 11 6 7 16 9 12 14 17 1 18 3 15 2 4 13 10 5
12 16 9 7 13 10 17 5 18 2 14 6 3 4 15 11 1 8

10
1930655100
6644372718
8296744407
6206308032
1130471353
7503615586
0296915947
1674507685
4811536119
5428656065
1 8 6 5 3 9 7 4 2 10
10 9 3 6 5 7 2 1 4 8
5 1 9 6 8 10 4 7 2 3
10 7 9 8 1 2 4 3 5 6
4 8 3 6 5 1 2 9 7 10
7 9 5 10 3 1 4 2 8 6

15
4804825929
4010703507
9240337293
3510183768
5883168572
8131789243
9120480857
2986415273
9409007203
5321477904
9584822073
2513478170
5865573034
7728476696
5576969378
10 4 5 11 13 6 9 3 15 12 1 7 14 2 8
3 15 5 13 8 12 14 10 2 6 9 11 4 7 1
7 11 13 5 10 12 14 6 3 1 2 4 15 9 8
13 7 14 15 6 3 5 2 9 8 12 1 10 4 11
7 14 15 11 2 8 13 10 5 4 6 12 3 9 1
8 15 12 2 9 14 5 6 11 7 10 3 1 13 4
11 5 10 9 15 2 3 13 1 8 6 7 12 4 14
9 6 3 13 15 4 12 10 14 1 7 2 5 11 8
5 9 13 10 15 3 8 2 4 7 14 1 6 12 11
4 1 12 13 10 14 9 2 5 6 7 11 15 8 3
15 9 10 5 11 1 8 4 2 12 3 6 13 7 14
4 10 1 7 5 3 11 13 2 12 8 15 9 14 6
8 6 1 12 9 15 13 11 7 2 4 14 10 3 5
10 13 5 3 7 6 4 1 9 12 2 8 11 15 14
6 2 13 4 11 3 15 1 14 5 7 10 12 8 9
2 15 10 9 1 3 8 7 4 5 14 11 13 6 12
6 9 14 10 5 3 4 11 2 12 7 13 8 15 1
14 9 11 15 1 4 3 13 6 8 5 2 12 10 7
14 9 4 10 13 15 12 11 6 1 3 8 2 7 5
13 3 2 14 4 7 5 12 9 1 6 11 15 10 8
6 1 11 5 7 2 14 13 9 15 3 4 8 12 10
2 6 7 1 5 12 4 14 8 10 15 9 13 3 11
8 12 6 9 11 2 5 4 13 7 14 3 15 1 10
8 1 4 11 15 13 3 6 14 12 7 9 2 10 5
4 6 11 9 14 10 7 2 1 5 12 13 3 15 8
7 9 10 5 6 14 11 1 2 4 13 15 8 12 3
7 6 11 14 3 13 12 4 15 5 2 10 9 1 8
3 7 9 8 12 6 2 14 4 10 5 15 1 13 11
9 11 1 14 10 2 8 12 5 15 7 13 4 6 3

7
4229417014
1622102272
9099483913
1814922232
4218969504
4975611096
0830131369
3 7 1 5 4 2 6
4 6 1 7 2 3 5
2 5 7 6 4 3 1
1 4 5 6 3 7 2
6 1 3 4 5 7 2
6 7 5 2 1 4 3
7 5 1 2 3 6 4

3
3884944425
0477510257
1988560684
3 1 2
2 1 3
1 2 3
1 2 3
3 1 2
3 1 2
1 2 3
2 3 1
2 3 1
2 3 1
1 3 2
1 3 2
3 2 1
3 1 2
1 2 3
1 3 2
2 1 3
3 2 1
3 1 2
1 2 3
1 2 3
2 3 1
3 2 1
2 3 1
2 1 3
1 3 2

8
8149700073
0100104218
7897939833
0761120312
6678727343
2608274679
5413301307
4309043385
1 6 3 7 4 2 8 5
3 6 5 1 4 2 8 7
1 7 8 6 2 4 3 5
7 1 6 2 5 3 4 8
7 4 3 6 5 2 8 1
2 5 4 7 3 6 1 8
6 5 2 8 7 1 3 4
3 4 5 6 8 7 1 2
4 7 6 5 8 2 3 1
4 7 3 1 2 5 8 6
6 1 5 2 8 3 7 4
6 3 8 7 2 1 4 5
1 2 3 7 6 5 8 4
3 6 5 7 1 8 2 4
1 8 7 6 4 3 5 2
8 5 2 4 3 1 7 6
6 2 8 5 3 7 4 1
8 2 5 1 6 4 7 3
5 7 1 4 6 2 3 8
8 6 4 3 7 1 2 5
1 6 2 7 5 3 4 8
6 1 4 8 5 7 3 2
6 5 8 2 1 3 4 7
1 2 7 4 3 8 5 6
8 6 2 1 3 5 4 7
5 4 6 8 2 7 1 3
2 7 1 3 6 5 8 4
8 4 5 7 3 6 1 2
1 5 8 6 2 3 4 7
1 3 8 4 2 6 5 7
1 4 8 5 2 6 3 7
4 7 8 2 3 5 6 1
6 2 8 4 7 5 1 3
8 6 5 1 2 7 3 4
6 7 1 3 8 4 2 5
2 1 8 4 5 3 7 6
2 6 4 8 3 7 1 5
2 7 8 4 3 6 5 1
1 6 2 8 4 7 5 3
7 4 5 8 1 2 6 3
1 4 2 5 3 6 8 7
4 6 7 5 3 1 8 2
4 5 8 3 2 6 1 7
5 2 4 6 1 7 3 8
7 5 2 6 3 8 4 1

13
3489158369
6287550024
4916242256
5557284055
9880383916
6415202136
5574149355
5322901433
6358357677
3301995285
2147737688
2285318890
2932725406
9 13 6 1 11 12 3 4 5 10 2 8 7
10 6 7 13 12 9 11 8 1 5 3 4 2
6 5 8 9 12 13 7 2 4 10 1 11 3
12 5 10 4 13 1 8 3 11 7 9 6 2
5 6 3 9 13 1 7 8 10 12 11 4 2
12 3 5 8 1 9 13 11 4 7 6 2 10

13
5603206957
8537185941
4621186941
4120855935
9824969455
9486749635
7291846526
2473922355
7304084549
8252803394
1693568903
0702756401
3997881532
6 8 4 11 13 12 5 3 10 1 2 7 9
11 12 6 4 2 5 9 10 8 3 13 1 7
8 3 9 13 1 12 4 11 10 2 5 7 6
13 10 2 6 11 1 12 5 9 7 4 8 3
12 2 5 1 4 10 8 7 9 3 6 13 11
5 12 13 4 8 1 11 6 7 2 10 3 9
12 7 13 8 9 5 11 3 10 2 4 1 6
9 3 11 8 1 12 2 4 7 6 13 5 10
12 1 9 7 5 6 13 11 2 4 10 3 8
13 6 4 7 1 8 3 10 9 12 2 5 11
7 12 3 6 1 8 9 13 11 4 2 5 10
8 2 5 6 12 3 9 11 13 4 1 10 7
2 9 3 1 5 4 6 13 10 12 7 11 8
1 13 7 2 12 4 6 5 3 8 9 11 10
9 12 3 6 13 5 10 2 1 4 7 11 8

7
6641600306
9441939922
7775413969
0852920498
0405245127
0744106331
3397198148
1 4 6 7 2 5 3
5 4 2 6 7 3 1
7 1 4 3 6 5 2
7 5 4 1 2 3 6
4 1 7 2 3 6 5
6 2 3 4 7 1 5
3 7 4 2 6 5 1
4 1 2 5 7 6 3
5 2 7 3 6 1 4
2 6 7 3 1 5 4
2 7 1 6 4 5 3
7 2 6 3 4 5 1
6 4 1 3 5 2 7
4 7 2 1 3 6 5
1 6 5 7 3 4 2
4 6 7 2 3 1 5
1 6 5 2 4 3 7
1 5 2 6 3 4 7
1 4 2 3 5 7 6
6 4 3 2 5 1 7
3 7 2 5 6 1 4
1 3 2 6 7 4 5

3
7433255697
9964768898
8557162449
2 1 3
2 1 3
1 2 3
3 1 2
1 2 3
2 3 1
1 2 3
2 3 1
2 3 1
2 1 3
2 3 1
2 3 1
1 2 3
2 3 1

5
8020548599
5381219177
5637975999
5296592602
8883109690
5 2 1 3 4
5 1 4 3 2
5 4 1 2 3
4 2 5 3 1
2 5 3 1 4
1 4 5 2 3
2 3 4 5 1
5 3 4 2 1
5 3 1 2 4
5 3 2 4 1
4 2 3 1 5
3 5 4 2 1
4 5 2 1 3
1 4 5 2 3

2
7014608144
7394295021
1 2
1 2
2 1
1 2
1 2
1 2
2 1
2 1
1 2
1 2
1 2
1 2
1 2
1 2
1 2
1 2
1 2
2 1
2 1
2 1
2 1
2 1
1 2
2 1
2 1
2 1
2 1
2 1
2 1
2 1
1 2
1 2

1
4917669803
1
1
1
1
1
1
1
1
1
1
1
1
1
1
1

6
5880102538
7110911959
8039768513
1851177696
5351526012
6212228426
3 6 5 4 1 2
4 6 1 5 3 2
5 1 2 6 4 3
5 4 2 6 1 3
4 3 1 5 6 2
2 5 1 4 6 3
5 1 4 6 3 2
5 6 3 4 2 1
5 3 1 2 4 6
2 5 3 4 6 1
3 2 4 6 1 5
2 1 4 5 6 3
2 3 6 4 5 1

4
0021430840
9702361180
1180009925
7294223366
1 3 2 4
2 3 1 4
2 4 1 3
1 2 3 4
1 2 3 4
4 2 1 3
4 2 1 3
2 1 3 4
2 4 1 3
1 4 2 3
3 1 2 4
2 3 1 4
4 3 2 1
4 3 1 2
1 2 3 4
4 2 1 3
1 2 3 4
2 3 1 4
3 4 2 1
3 2 1 4
3 4 2 1
2 1 4 3
3 2 1 4
2 3 4 1
3 4 1 2
4 1 2 3
4 2 3 1
4 3 2 1
3 4 1 2
4 2 1 3
1 3 2 4
4 2 3 1
3 2 1 4
4 3 1 2
2 3 1 4
2 4 1 3
4 1 3 2
3 2 1 4
3 2 1 4
4 2 1 3
4 1 2 3
4 2 3 1
1 4 2 3

16
8887393738
3610557749
0246998117
7713285509
6894356422
6298776044
4903143426
7768536181
1602221186
8945717263
7228590613
0954091206
5067963493
4631936976
8913726990
3715524681
2 5 15 14 3 8 16 7 13 6 12 10 9 11 1 4
9 2 5 12 14 16 1 10 13 3 11 15 8 7 4 6
15 2 10 1 4 5 12 16 13 11 9 6 7 8 14 3
2 3 1 6 11 16 8 7 13 14 10 5 9 15 4 12
11 1 12 4 5 9 2 14 3 8 6 15 7 13 16 10
14 7 4 12 5 11 3 8 15 16 9 2 13 6 10 1

10
4776799296
6850103036
0391865517
6699840756
0568096850
9706008377
5502312676
0405264367
5006704651
0491192836
3 10 9 6 8 7 2 1 4 5
9 2 1 10 4 3 8 7 5 6
2 6 1 7 10 4 5 8 3 9
3 9 8 2 6 5 4 7 10 1
10 6 2 7 1 8 3 9 4 5
10 5 4 3 1 8 7 2 9 6
1 9 2 6 5 10 3 7 4 8
9 3 10 5 2 8 1 7 4 6
1 10 9 6 3 5 4 8 2 7
10 7 6 8 9 1 2 5 4 3
2 8 4 7 10 6 1 9 5 3
5 2 10 1 9 3 4 7 8 6
5 10 1 2 3 4 6 8 9 7
4 2 5 3 6 10 9 1 8 7
3 8 9 2 1 10 7 4 5 6
8 2 5 3 1 6 9 4 10 7
5 1 2 6 10 9 7 4 3 8
2 10 8 5 9 4 1 3 6 7
10 2 9 4 5 8 1 6 3 7
9 2 5 8 1 10 6 4 3 7
7 2 4 8 9 10 5 6 3 1
2 5 3 6 7 4 1 8 10 9
10 5 1 4 3 6 9 8 2 7
10 2 9 4 8 5 6 7 3 1
5 8 4 10 6 2 3 9 1 7
6 8 9 7 10 4 2 3 1 5
8 3 6 9 10 4 5 1 7 2
7 3 2 4 10 8 6 1 9 5
1 8 6 2 3 5 4 10 9 7
10 4 7 2 3 9 1 5 8 6
5 10 1 6 7 4 9 2 8 3
8 10 4 5 7 1 9 2 3 6
6 2 8 5 9 1 4 7 3 10
4 5 7 1 6 10 8 9 3 2

11
4750945154
0716580573
4529489365
9026024225
9741382375
5574484942
0263820337
3971006106
0551454267
2128424117
5380326426
7 5 1 4 11 2 3 6 8 9 10
2 9 11 3 5 7 6 4 1 8 10
5 4 3 9 8 6 11 7 2 10 1
3 5 8 9 7 4 6 11 10 1 2
3 7 4 10 9 11 1 2 6 5 8
4 1 8 11 5 3 10 6 7 9 2
10 6 3 8 11 2 5 7 1 4 9
2 9 3 6 7 11 8 10 1 4 5
4 5 9 11 3 1 2 10 7 8 6
3 8 9 10 7 4 5 2 11 1 6
4 2 3 5 11 7 6 9 10 1 8
3 6 1 4 5 7 11 2 8 9 10
6 11 7 9 1 4 2 3 8 5 10
3 2 11 7 5 6 8 1 4 9 10
2 3 4 1 11 7 9 8 5 6 10
2 5 7 9 6 1 4 3 11 10 8
11 3 9 7 6 10 5 2 8 4 1
3 5 4 6 10 7 2 11 9 8 1
8 7 6 3 5 2 9 11 10 1 4
5 10 7 2 4 1 11 8 6 9 3
7 5 10 1 11 6 9 3 2 8 4
11 2 7 6 10 8 3 4 5 1 9
10 11 6 4 9 5 2 3 7 8 1
7 2 8 6 10 5 11 9 3 4 1

19
5710608631
3134966702
5448452024
9659128524
4607218557
3060812799
4997130088
7814296035
0938318952
7527158625
0881346482
2686661718
8156348964
5084478153
2720287978
6844910754
5905902693
1023358965
6172696965
13 8 12 16 17 1 2 10 19 4 5 7 14 18 15 11 6 3 9
2 4 18 5 6 10 8 1 7 17 19 13 16 3 12 15 11 14 9
6 7 10 8 5 11 14 2 16 12 15 4 13 17 19 3 18 9 1
6 4 1 13 10 7 18 11 15 3 8 5 14 17 19 16 9 2 12
1 19 9 16 7 5 3 17 4 10 8 13 14 2 6 18 15 11 12
14 17 13 8 7 2 11 9 19 4 18 10 15 3 5 16 12 1 6
10 7 19 4 13 2 6 18 15 16 12 11 17 14 3 1 9 8 5
7 9 6 17 16 2 1 15 4 10 12 13 19 8 3 14 5 18 11
6 16 14 9 3 10 17 15 4 12 1 8 2 7 13 18 11 19 5
16 17 14 8 5 15 10 11 4 2 12 13 19 1 9 18 7 3 6
11 18 4 19 15 6 14 17 9 10 16 8 1 7 2 5 13 3 12
14 19 18 4 10 9 17 1 6 11 15 16 12 3 2 8 5 7 13
7 1 8 11 9 2 14 10 13 15 6 12 16 19 18 3 4 5 17
15 12 9 4 2 11 14 17 3 8 19 7 16 1 5 18 13 10 6
18 16 15 2 13 14 4 10 17 8 9 1 12 11 5 7 3 19 6
1 7 19 15 17 4 13 14 16 2 8 10 12 18 3 11 5 9 6
13 10 6 12 8 2 16 4 7 18 1 19 9 14 17 15 3 5 11
17 1 2 6 4 5 10 14 8 11 3 16 7 13 19 18 15 9 12
2 19 8 14 3 12 6 17 16 18 4 11 10 9 5 7 15 13 1
13 4 14 16 5 3 6 15 19 11 9 10 8 7 17 1 12 18 2
1 6 15 17 16 8 12 10 2 4 13 5 9 3 18 11 19 7 14
19 11 15 6 1 12 3 8 4 7 10 18 13 17 14 16 9 2 5
12 7 10 11 9 13 17 6 5 3 18 4 8 1 15 19 2 14 16
9 3 1 19 8 4 18 7 17 6 12 11 13 16 5 15 2 14 10
8 11 3 1 10 13 2 17 19 18 7 4 16 9 6 12 14 15 5
12 9 14 18 17 19 7 10 1 2 5 3 8 15 16 4 11 6 13
9 6 7 13 2 15 10 4 18 16 17 14 11 1 5 12 3 19 8
19 17 13 5 10 14 1 9 12 6 4 2 18 16 3 8 7 15 11
3 14 8 19 13 5 17 6 18 9 10 7 1 2 4 12 16 15 11
9 1 3 15 14 6 12 8 16 17 4 19 2 11 5 7 18 13 10
5 10 1 7 19 4 12 16 6 14 8 18 2 13 9 17 3 11 15
10 14 7 17 8 4 6 15 13 2 3 9 18 12 19 1 5 16 11
10 5 17 3 8 2 15 14 6 18 7 13 11 1 12 16 9 4 19
3 4 19 6 9 10 18 16 7 8 15 1 11 14 5 2 12 17 13
8 12 10 5 11 16 4 17 9 13 7 14 15 3 18 19 1 6 2

12
2580977360
0816027289
3431707713
3193802879
0327503051
1242356986
1222968544
6531222425
6770501391
0507278879
0242207591
6388853783
2 1 6 9 11 8 12 7 4 5 3 10
1 9 4 7 10 5 12 8 6 11 3 2
6 5 10 9 1 7 4 11 3 8 12 2
3 5 12 2 11 10 6 9 1 4 7 8
10 3 11 5 1 9 6 12 4 8 7 2
7 11 4 6 5 2 8 12 9 1 10 3
4 11 7 2 6 1 9 12 5 10 3 8
8 10 11 4 2 3 7 1 5 6 12 9
12 1 3 5 9 8 7 11 4 6 2 10
7 6 11 8 5 9 2 3 1 10 4 12
8 9 10 1 3 2 4 7 5 11 6 12
2 7 3 6 9 12 11 4 8 10 1 5
1 11 12 9 2 6 4 8 7 5 10 3
12 3 9 6 5 2 8 4 10 1 7 11
5 8 9 7 4 12 3 10 11 6 1 2
12 8 5 10 7 4 2 9 1 6 3 11
10 5 4 3 9 12 11 1 7 8 2 6
3 7 1 11 2 10 8 5 9 12 6 4
1 4 12 5 6 8 7 3 9 11 2 10
7 2 12 8 6 4 11 1 3 10 5 9
4 7 11 8 5 10 3 6 1 12 9 2
6 1 11 8 4 12 2 10 9 3 5 7
7 6 2 5 8 1 3 12 9 10 4 11
10 9 2 4 11 7 1 5 3 12 8 6
11 4 7 1 6 5 2 10 3 8 12 9
7 4 11 5 3 10 1 8 6 2 12 9
11 9 2 12 1 4 7 3 10 5 8 6
6 5 9 7 4 11 1 8 3 12 10 2
12 10 8 2 4 9 6 3 1 11 5 7
2 7 6 1 5 4 9 10 12 3 11 8
1 10 7 4 8 6 2 3 9 11 5 12
9 3 11 10 5 8 4 2 1 6 7 12
8 9 2 7 1 10 4 3 11 6 5 12

1
1196680648
1
1
1
1
1
1
1
1
1
1
1
1
1
1
1
1
1
1
1
1
1
1
1
1
1
1
1
1
1
1
1
1
1
1
1
1
1
1
1
1
1
1
1

1
5934767445
1
1
1
1
1
1
1
1
1
1
1
1
1
1
1
1
1
1
1
1
1
1
1
1
1
1
1
1
1
1
1
1
1
1
1
1
1
1
1
1
1
1
1
1
1
1
1

10
2782954714
3841858968
3102373163
0684427096
7849609139
1634261736
1269455082
7697608840
9421948970
2913611167
10 9 2 1 8 4 3 7 5 6
4 3 6 5 2 7 10 1 8 9
8 5 9 3 4 10 2 1 6 7
2 6 5 7 1 9 8 3 10 4
2 5 7 8 9 10 4 3 1 6
6 2 7 4 8 5 3 1 9 10
8 10 3 9 1 6 5 4 2 7
7 3 1 2 8 10 9 4 5 6
2 9 8 4 10 7 1 6 5 3
1 6 9 3 5 8 10 2 4 7
1 5 6 3 2 9 8 4 7 10
1 6 8 3 10 7 9 5 4 2
5 6 8 4 3 7 9 10 2 1
3 2 7 5 1 8 4 9 6 10
6 8 3 10 7 5 4 1 2 9
4 10 2 7 9 6 5 8 1 3
5 7 6 9 8 2 10 4 3 1
1 4 9 8 2 10 5 6 7 3
9 8 1 10 2 5 3 4 7 6
7 9 10 3 2 5 6 1 4 8
8 2 10 3 6 9 5 7 4 1
1 4 7 10 6 8 3 5 2 9
10 3 8 5 2 4 7 1 9 6
2 7 10 4 5 6 1 8 3 9
9 4 7 1 5 10 6 8 3 2
7 9 3 5 1 8 4 6 10 2
1 4 6 2 5 8 7 3 10 9
8 3 4 5 2 10 9 7 1 6
7 10 2 3 9 8 1 4 6 5
3 4 8 2 10 1 7 6 9 5
8 3 4 7 1 2 10 5 6 9
7 6 4 8 2 9 3 1 5 10
6 5 7 1 2 9 8 10 4 3
9 1 10 5 7 2 4 3 8 6
9 10 2 1 5 4 8 3 7 6
7 8 9 2 1 5 3 4 10 6
6 3 4 10 9 1 2 5 8 7
9 4 10 8 2 5 6 7 1 3
6 1 8 10 7 2 4 5 9 3
5 4 3 8 6 9 1 10 7 2
8 7 1 10 2 3 4 9 5 6
8 9 10 4 2 6 5 3 7 1
5 10 8 6 4 1 9 2 7 3
8 9 7 3 2 1 6 4 10 5
2 1 4 10 5 9 3 8 6 7
2 7 6 5 1 3 4 10 9 8
2 10 8 5 4 1 6 9 3 7
9 7 2 6 3 5 1 4 8 10
2 10 1 5 3 6 7 9 8 4

15
0447556789
1771526648
4562522633
8454273153
5465450831
2113340142
6349026702
7557437445
8166221573
2042513268
9101663367
3823038658
2995091084
3745744451
1050980566
7 14 9 3 6 13 11 8 1 12 15 10 2 4 5
5 4 1 12 2 7 3 15 13 8 11 10 14 9 6
1 9 11 5 14 10 2 15 4 7 3 6 12 8 13
7 15 14 10 11 2 4 5 12 13 1 3 6 9 8
3 13 11 2 15 10 14 12 8 9 7 4 1 6 5
10 5 15 1 12 11 7 13 3 14 8 9 4 2 6
12 11 10 1 9 6 14 8 4 7 15 2 3 13 5
13 9 10 12 11 8 15 1 6 7 3 14 4 5 2
12 3 4 8 14 7 6 5 15 10 1 2 9 13 11
15 14 3 8 13 9 11 12 7 2 6 1 4 5 10
12 5 9 6 4 14 1 15 10 7 11 2 13 3 8
3 8 10 1 14 4 9 6 12 15 7 2 13 11 5
13 1 8 11 3 14 10 4 7 2 15 12 5 6 9
3 1 13 8 5 7 11 4 10 2 6 9 15 12 14
10 14 6 4 2 8 11 9 3 5 1 7 12 13 15
4 5 12 8 2 3 11 10 13 1 14 15 9 6 7
13 1 3 7 10 14 6 15 2 8 11 9 5 4 12
11 6 2 10 8 14 7 13 1 9 15 4 5 3 12
10 13 12 7 6 15 8 9 4 3 14 1 11 5 2
9 10 14 11 1 8 2 12 4 15 6 13 5 7 3
7 5 10 1 14 9 4 12 11 15 6 8 3 2 13
9 10 7 4 12 6 13 8 1 15 2 3 5 11 14

18
7084058843
9387742639
3456501931
2878410667
0917258868
8374754562
3448638371
6371101415
9336270286
2942539760
0395473894
7096031448
1407862325
9138872647
3599724212
5329763738
1529352567
0386868749
10 14 1 2 15 18 9 11 13 12 5 8 4 3 7 17 16 6
10 14 11 15 9 2 17 18 6 1 8 4 7 5 3 13 12 16
7 18 11 16 1 10 6 8 9 12 3 13 5 2 4 17 14 15
1 7 4 12 3 11 15 2 5 14 18 13 16 10 9 17 8 6
6 11 16 18 7 17 14 4 10 9 3 13 5 8 12 2 1 15
4 7 5 2 12 15 17 10 9 11 18 16 14 13 3 1 8 6
12 6 5 18 3 2 4 13 10 8 9 1 15 16 11 7 17 14
15 6 8 1 3 11 12 13 10 16 5 4 14 18 2 7 9 17
8 13 11 6 18 2 14 10 1 3 17 16 4 9 12 15 5 7
1 17 4 14 15 5 10 11 3 16 2 8 12 7 9 18 13 6
9 12 2 16 3 13 7 5 14 6 11 10 18 1 17 8 15 4
9 3 2 11 1 5 13 14 12 6 4 10 8 17 15 7 18 16
13 18 15 5 10 7 16 11 8 17 12 9 3 1 4 6 14 2
16 14 7 6 12 2 18 13 8 17 9 15 4 3 1 11 5 10
17 18 11 3 10 8 13 2 16 4 6 9 14 5 12 7 1 15
3 2 15 10 1 17 18 5 11 6 12 14 8 13 16 7 4 9
15 7 17 8 1 13 6 5 16 9 2 10 4 14 18 12 11 3
13 8 14 3 5 7 4 17 10 12 15 11 9 1 6 16 2 18
14 1 10 5 13 18 2 4 3 16 15 11 17 6 9 7 8 12
10 17 14 8 12 9 3 4 18 13 11 5 16 2 7 15 6 1
2 17 10 13 5 1 7 11 9 16 3 14 6 8 12 15 4 18
15 17 6 4 2 7 12 18 5 8 11 10 1 13 16 14 9 3
12 2 11 1 7 10 14 18 3 9 5 13 15 16 17 8 4 6
8 15 5 4 3 2 10 6 17 14 9 13 16 11 18 1 7 12
10 13 15 8 12 6 16 14 5 11 3 1 7 2 9 17 4 18
13 1 7 18 9 11 15 2 4 5 3 6 16 10 8 12 14 17
16 15 1 5 17 7 14 12 10 6 13 3 18 4 11 2 9 8
1 5 7 11 3 4 17 8 14 10 18 16 12 2 9 13 15 6
5 1 16 15 3 18 17 7 6 4 12 14 2 10 9 11 8 13
9 5 14 12 13 11 1 18 15 8 16 4 10 7 6 17 3 2

5
7031753695
1967794053
4386637866
4433133624
2115437125
3 4 5 1 2
5 4 3 2 1
3 4 5 2 1
5 1 2 3 4
3 2 5 1 4
4 2 1 5 3
4 5 3 1 2
5 2 3 1 4
4 5 3 2 1
4 3 2 1 5
3 1 2 4 5
2 5 1 4 3
1 2 5 3 4

11
8178624119
2222364494
5509288294
6893124092
2535378204
2994252768
8388517697
8657915816
1452887214
6440919777
8597898627
11 10 4 6 1 9 8 2 3 5 7
5 4 11 9 2 10 7 6 1 3 8
11 1 4 9 7 5 2 8 3 6 10
3 5 2 1 6 10 9 8 7 4 11
9 1 7 4 3 8 11 10 2 6 5
2 7 4 5 6 11 3 1 9 8 10
3 4 8 11 2 7 10 9 1 5 6
6 1 8 2 7 3 9 11 10 4 5
11 9 6 1 3 10 4 8 5 7 2

10
2081536667
2550307598
2704749916
9260121076
2590473167
2986591826
0041090044
0472329555
4859165547
3692816905
8 4 6 9 7 3 1 10 5 2
10 4 6 3 1 5 8 7 9 2
9 8 4 5 6 2 10 7 3 1
4 2 6 1 8 3 5 9 7 10
1 4 8 7 6 5 2 9 3 10
7 4 5 2 6 8 1 9 3 10
9 2 7 10 3 4 8 6 1 5
3 9 6 7 8 4 10 2 1 5
9 3 10 2 5 4 7 8 1 6
9 3 10 7 5 6 4 1 8 2
4 6 9 10 2 8 3 5 7 1
7 10 3 8 9 6 5 4 2 1
9 2 4 3 6 5 8 10 7 1
1 6 5 8 2 9 3 7 4 10
5 4 3 10 7 6 2 1 8 9
2 4 1 8 6 5 9 7 10 3
7 6 3 2 5 4 8 1 9 10
10 5 4 8 9 3 2 7 1 6
10 8 7 1 9 3 4 2 6 5
8 6 2 4 1 10 9 5 7 3
9 1 10 2 8 7 3 4 5 6
9 6 7 8 2 1 10 4 5 3
7 8 9 1 6 4 10 3 5 2
2 7 4 3 8 1 10 6 5 9
4 6 5 8 7 1 10 9 3 2
8 7 2 1 5 10 4 9 6 3
5 4 8 1 10 9 7 2 3 6
9 4 6 1 5 8 10 7 3 2
8 9 10 4 5 7 6 1 3 2
7 5 6 3 8 9 2 4 10 1
9 3 4 1 2 7 6 10 8 5
1 6 10 2 3 5 4 8 9 7
2 1 10 5 6 9 3 4 7 8
5 4 2 10 9 1 7 3 6 8
2 9 6 4 8 7 10 3 5 1

5
1756680337
7236586973
5180103156
5793155150
3090332928
1 3 2 5 4
4 2 5 3 1
1 3 2 4 5

12
1346223958
2133805604
1123109928
3323228945
0760742630
6872706825
6255414555
4509315919
9192715556
8904801096
7893993552
7159725126
4 1 6 10 9 11 2 12 3 7 5 8
7 10 11 9 12 5 2 8 6 3 1 4
11 10 5 8 6 4 1 2 3 12 7 9
5 8 2 11 3 4 9 6 1 10 12 7
4 10 5 1 8 6 9 7 2 3 12 11
5 6 11 3 1 7 8 4 2 9 12 10
11 8 3 1 10 4 9 2 12 6 7 5
6 7 2 1 11 3 12 4 10 5 9 8
8 10 6 11 9 4 1 3 12 2 5 7
3 4 6 12 8 2 11 1 7 9 5 10
12 2 11 3 9 1 6 4 10 7 8 5
7 6 8 2 3 1 10 9 5 11 12 4
12 2 6 5 3 1 8 10 9 7 4 11
1 11 4 2 5 3 8 10 6 7 12 9
8 4 3 10 1 6 7 5 9 11 12 2
9 7 4 5 12 3 10 6 8 11 1 2
1 6 12 3 7 8 5 9 2 10 11 4
12 1 3 9 10 7 8 2 5 6 4 11
5 3 12 2 1 6 8 9 7 11 10 4
11 1 4 5 7 2 9 6 12 3 10 8
7 11 4 1 10 8 2 3 5 9 12 6
8 2 6 10 5 4 1 12 11 3 7 9
6 12 7 11 1 4 2 10 9 3 8 5
3 8 2 9 7 12 4 6 1 5 10 11
8 5 2 9 12 10 11 4 3 6 7 1
12 7 1 9 2 5 3 10 6 4 8 11
7 2 4 5 10 12 9 8 1 11 3 6
9 7 6 10 11 4 12 3 8 1 5 2
3 8 1 6 10 9 2 11 4 5 7 12
9 3 6 8 4 1 2 12 5 7 10 11
8 11 10 9 5 12 6 4 2 1 3 7
3 5 8 10 4 12 6 1 9 2 11 7
10 7 6 3 2 8 4 1 9 12 11 5
7 8 9 6 11 4 3 1 2 10 12 5
10 6 7 2 12 4 5 3 9 8 1 11
8 10 1 3 5 4 6 12 9 7 11 2
12 7 4 2 3 8 9 6 1 10 5 11
7 8 5 4 9 3 10 11 12 1 6 2
11 3 10 12 5 8 6 7 4 1 9 2
11 7 8 1 3 5 10 6 12 4 9 2
11 7 9 3 2 10 5 6 1 12 4 8
8 1 11 2 5 7 4 3 10 9 12 6
4 3 8 5 12 7 10 6 11 2 9 1
2 3 1 5 9 10 11 7 12 6 8 4
9 3 12 1 2 7 11 8 5 4 10 6
6 5 7 11 10 9 1 4 12 2 8 3
6 10 9 11 7 8 12 2 4 5 3 1
3 2 8 4 12 10 11 5 9 6 1 7
6 10 9 11 12 5 4 8 3 7 2 1
1 12 9 2 4 5 3 7 6 10 8 11

8
3833933589
3823520686
0485496495
0547422163
7428237213
3672588072
1277317337
9667214554
3 1 2 6 4 8 5 7
6 1 3 7 2 4 8 5
4 8 1 5 3 2 7 6
8 3 6 1 4 2 7 5
8 7 1 4 5 2 3 6
4 6 5 1 8 2 7 3
7 4 8 6 5 1 3 2
5 3 2 6 4 7 1 8
7 5 1 4 2 6 8 3
7 1 2 8 5 3 6 4
6 3 4 2 8 1 5 7
2 3 5 7 8 4 1 6
8 2 3 4 7 5 6 1
6 7 8 4 2 5 3 1
1 8 6 2 7 4 3 5
1 7 8 2 4 5 3 6
2 6 3 1 4 8 5 7
7 8 2 5 4 6 3 1
3 5 2 6 7 1 4 8
5 8 7 6 3 2 1 4
5 1 2 4 8 7 6 3
3 6 7 1 4 8 2 5
