90

7
ggnuq1
smpys2
wuijn3
buclt4
xcnzv5
optmz6
ffvns7
5 1 4 3 7 6 2
5 7 4 3 1 6 2
7 4 1 2 5 6 3
4 1 2 6 3 7 5
2 7 6 3 4 5 1
3 2 6 5 1 4 7
5 4 2 1 7 3 6
3 5 6 1 7 2 4
1 7 3 2 5 6 4
1 6 7 3 4 2 5
4 5 7 1 6 3 2
1 6 5 4 3 2 7
2 3 7 6 4 1 5
4 5 7 6 2 3 1
4 5 3 1 6 2 7
7 4 5 6 1 3 2
2 3 4 7 1 6 5
7 1 6 3 2 5 4
5 2 6 1 4 7 3
4 1 7 5 6 2 3
7 5 4 2 3 1 6
5 7 2 6 4 3 1
1 7 3 2 6 4 5
3 5 6 4 7 1 2
6 7 1 2 3 5 4
4 5 1 2 3 6 7
3 7 1 5 6 4 2
4 3 7 5 2 1 6
7 3 5 6 1 2 4
3 6 1 5 2 7 4
7 6 2 1 3 5 4
7 1 4 5 6 3 2
2 7 3 4 1 5 6
3 2 5 7 6 1 4
7 6 1 2 4 3 5
2 6 7 4 3 1 5
1 3 7 5 4 2 6
6 5 7 2 3 1 4
4 7 6 5 3 2 1
1 3 5 7 4 6 2
7 6 3 4 5 2 1
4 1 7 6 2 3 5

13
fpmmg1
ukytu2
hliit3
dkupx4
idpkd5
bliax6
ypftc7
ownmh8
fsjhm9
mblwz10
mlndk11
hlmsv12
cyodi13
6 1 12 7 10 11 5 8 13 2 9 3 4
12 7 8 2 6 5 1 11 10 3 13 4 9
11 1 5 8 6 3 12 13 10 7 2 4 9
13 5 11 3 8 6 7 2 10 9 4 12 1
3 10 12 8 2 9 13 5 6 1 7 11 4
5 12 4 7 1 10 2 11 9 3 8 13 6
11 6 12 5 4 8 10 3 9 13 1 7 2
13 10 4 3 12 11 9 5 8 1 7 2 6
11 6 8 4 13 2 3 10 1 7 12 5 9
2 12 6 7 9 10 11 8 1 4 3 13 5
4 10 6 3 5 2 11 8 13 12 7 1 9
6 1 7 8 4 2 9 12 11 13 3 10 5
6 8 13 1 7 12 9 4 10 3 2 5 11
1 13 9 2 7 4 10 12 6 5 3 8 11
11 7 10 3 9 8 6 4 5 13 12 2 1
2 3 5 9 10 6 12 11 8 13 7 1 4
5 12 6 1 7 3 10 11 8 9 13 2 4
11 13 2 8 9 12 3 4 6 5 7 10 1
1 4 7 11 8 13 10 5 3 2 12 9 6
2 8 7 1 3 6 9 5 13 12 10 4 11
5 9 10 3 1 4 2 7 13 11 8 12 6
9 7 13 2 6 11 1 12 10 5 8 4 3
8 5 11 3 9 4 1 7 13 12 6 2 10
9 7 1 5 4 11 3 8 13 6 12 10 2
13 11 7 4 10 3 5 2 8 1 9 6 12
2 13 12 5 3 6 1 9 4 11 10 8 7
9 11 4 10 8 6 13 12 7 1 2 3 5
3 8 10 2 13 12 1 5 4 11 9 7 6
13 2 4 8 9 6 5 1 10 12 7 11 3
13 11 12 6 9 5 8 3 7 10 4 2 1
6 12 7 10 4 3 5 9 13 2 8 1 11
4 1 13 7 2 10 12 9 6 3 5 8 11
6 12 10 5 8 7 9 3 4 2 13 1 11
9 12 1 2 6 10 5 4 11 7 8 3 13
4 13 5 7 12 8 11 2 9 10 6 3 1
13 3 10 7 9 6 5 11 4 8 12 2 1
4 12 8 10 5 3 9 2 11 7 1 6 13
2 12 10 6 5 3 1 13 7 9 11 4 8

4
xupmg1
yzthu2
nkcdn3
cpxll4
2 1 4 3
3 2 4 1
3 1 2 4
2 4 1 3
1 2 4 3
2 4 3 1
4 2 3 1
1 3 4 2
2 3 4 1
3 1 2 4
1 4 2 3
1 4 3 2

13
etzxp1
skvdy2
jmlqv3
ibhaj4
fetla5
qdagd6
gykys7
gqdss8
yxdep9
exsxc10
yaowz11
vwmon12
qzbla13
13 4 7 9 11 8 1 10 6 3 12 2 5
4 8 9 7 5 6 1 3 2 12 13 11 10
6 1 8 2 9 4 13 5 10 3 12 7 11
2 4 1 7 10 11 9 13 12 3 5 8 6
9 2 13 7 3 8 1 5 10 6 4 12 11
1 5 4 10 2 7 6 3 12 13 9 11 8
2 8 12 1 6 4 5 9 10 7 11 13 3
11 10 6 7 2 4 13 8 12 9 3 1 5
10 3 8 4 5 12 6 9 11 1 2 7 13
9 8 3 11 2 10 4 13 7 12 5 1 6
8 5 11 13 3 7 10 2 6 4 9 1 12
8 6 10 5 3 7 1 13 12 9 2 11 4
12 10 6 3 7 4 1 13 2 11 9 5 8
11 7 10 5 9 6 13 2 12 8 4 1 3
12 4 8 11 10 3 6 7 5 1 2 13 9
9 12 11 3 7 4 13 5 2 6 1 10 8
12 7 3 1 8 13 9 4 6 5 10 2 11
9 11 7 3 1 13 8 4 6 10 2 5 12
11 1 8 12 7 3 13 9 4 5 6 10 2
12 11 5 7 9 4 10 13 3 8 6 2 1
5 2 12 6 1 4 8 13 11 3 9 7 10
1 12 13 7 8 9 5 3 10 2 11 4 6
11 4 12 10 7 9 8 5 13 2 6 1 3
7 11 6 5 9 1 8 10 13 12 2 4 3
4 6 2 7 5 10 13 9 3 12 8 1 11
8 3 9 13 7 4 2 11 5 6 12 1 10
3 6 13 5 10 8 1 12 9 4 7 11 2
8 2 9 1 11 10 5 12 7 6 13 3 4
11 4 2 7 9 13 3 5 1 10 6 12 8
7 9 5 11 4 6 3 12 13 8 2 1 10
7 3 10 4 13 12 1 2 5 8 6 11 9
6 13 4 11 9 1 5 3 2 7 10 8 12
7 10 12 5 4 3 9 8 11 2 1 13 6
13 9 7 6 8 5 1 12 4 3 10 11 2
5 7 9 6 12 10 4 3 2 13 11 1 8

2
kbqfi1
xdhrl2
1 2
1 2
1 2
1 2
1 2
2 1
2 1
1 2
1 2
1 2
2 1
2 1
1 2
2 1
1 2
1 2
1 2
1 2
1 2
2 1
2 1
1 2
2 1
1 2
2 1
2 1
2 1
2 1
2 1
1 2
1 2
1 2
1 2
1 2
1 2
2 1
1 2
1 2
1 2
1 2

6
bgozq1
ojpzm2
ghcky3
iwren4
hhqza5
xoail6
2 1 4 5 3 6
4 2 3 6 1 5
5 3 1 6 4 2
4 1 5 2 3 6
5 6 1 4 2 3
5 2 3 1 6 4
6 2 3 1 4 5
2 3 6 1 5 4
3 6 2 5 4 1
1 4 6 5 2 3
3 6 1 4 5 2
3 5 6 1 4 2
3 1 6 4 2 5
4 6 5 2 1 3
1 4 2 5 6 3
2 1 3 5 6 4
5 4 1 6 3 2
5 4 3 1 2 6
5 2 6 4 3 1
3 4 2 1 6 5
2 5 6 3 4 1
3 4 5 2 1 6
3 4 2 1 6 5
1 3 6 5 4 2
3 4 1 5 2 6
1 6 5 2 3 4
4 2 1 6 3 5
5 4 1 6 3 2
5 2 4 3 6 1
5 3 6 2 4 1
6 5 3 2 1 4
2 6 1 5 4 3
5 1 6 2 3 4
3 1 2 6 5 4
3 4 1 6 2 5
4 3 2 1 6 5
4 2 6 1 3 5
5 6 3 4 1 2
4 2 6 1 5 3
4 5 1 6 2 3
5 2 1 6 4 3
4 2 1 3 6 5
6 2 5 3 1 4
6 4 3 1 2 5
5 2 4 3 1 6

7
ijcer1
xrcok2
iycpl3
ottks4
kmjdt5
uyqbr6
jznzo7
2 5 3 4 6 1 7
1 6 7 5 4 2 3
7 4 2 1 6 3 5
7 5 1 4 6 3 2
4 1 6 7 2 3 5
6 7 5 1 3 4 2
5 3 2 7 6 1 4
1 6 3 4 7 5 2
1 5 2 7 4 6 3
2 6 5 4 7 3 1
5 7 4 2 1 6 3
6 3 4 7 2 1 5
6 5 4 7 2 1 3
5 3 4 6 2 7 1
5 3 1 6 2 4 7
4 3 1 6 7 2 5
6 4 7 3 1 5 2
7 6 3 4 2 1 5
2 3 5 6 1 7 4
2 6 5 4 1 3 7
5 6 4 7 2 1 3
3 4 6 1 7 2 5
1 4 3 7 2 5 6
5 7 3 2 4 6 1
7 4 5 3 2 6 1
1 4 6 2 7 3 5
2 6 1 4 3 5 7
2 4 1 5 6 3 7

8
eqpva1
rtbyw2
ynyfi3
katgt4
jxdvh5
haqbm6
xisiq7
zxqdv8
3 2 5 1 8 6 7 4
3 4 2 5 6 7 8 1
7 8 6 4 1 5 3 2
8 6 2 4 1 7 3 5
7 1 4 2 3 6 8 5
8 2 7 5 3 4 6 1
2 8 3 1 6 5 4 7
1 5 4 2 3 7 8 6
6 3 8 7 1 4 2 5
4 7 6 2 3 8 5 1
3 2 6 8 7 4 1 5
4 5 6 8 2 3 7 1
5 2 7 3 6 8 1 4
5 2 8 6 7 3 4 1
1 6 7 2 5 4 8 3
7 3 2 1 4 8 6 5
7 5 2 8 3 6 1 4
1 4 7 5 3 8 2 6
8 3 1 2 5 7 4 6
3 8 4 6 5 7 2 1

12
dtjnn1
gzcyw2
qgoxl3
nfili4
mwrbf5
yihod6
fpahp7
bbpdx8
iecmz9
klgsh10
eaogr11
eryvo12
1 10 11 4 9 2 8 5 12 6 3 7
11 12 1 4 7 10 6 9 5 8 3 2
12 7 1 2 3 11 5 8 9 4 6 10
10 1 3 8 7 4 12 11 9 5 6 2
2 9 7 5 11 4 10 12 3 8 1 6
8 9 4 1 7 2 5 12 10 11 3 6
3 2 11 5 7 8 12 10 1 4 6 9
9 11 6 5 2 3 4 10 8 12 1 7
11 12 7 9 4 6 8 5 10 3 1 2
10 1 2 9 12 5 6 7 11 8 3 4
11 1 12 7 4 5 3 8 10 9 6 2
10 3 11 6 8 12 9 2 7 5 1 4
8 7 3 9 1 6 11 4 10 5 2 12
12 10 7 11 6 1 8 5 4 9 3 2
5 7 10 1 3 4 8 11 2 6 9 12
3 7 4 10 5 12 1 2 9 11 6 8
9 6 1 12 10 2 3 11 4 7 8 5
9 10 5 11 4 3 7 1 2 6 12 8

13
diplv1
ucxqn2
ifjrg3
zmmgq4
bwtqf5
xbdqs6
ezrve7
sudxt8
pownw9
itvvr10
sizmd11
dxzoj12
ewali13
12 2 5 8 6 10 4 3 1 11 7 9 13
10 7 1 13 12 2 9 6 8 4 5 11 3
5 13 7 11 1 6 10 2 4 12 8 9 3
5 3 7 13 2 4 11 6 8 9 10 12 1
3 2 9 7 12 1 4 13 5 6 10 11 8
11 8 9 1 6 10 7 5 12 2 13 3 4
12 2 11 6 3 7 13 4 10 9 8 1 5
12 10 13 3 2 5 11 8 9 1 7 4 6
7 6 1 4 2 3 5 11 8 10 12 9 13
5 4 12 1 2 7 10 8 9 13 6 11 3
3 6 7 13 1 12 9 11 2 4 5 8 10
2 8 13 4 10 3 5 1 12 11 9 7 6
9 13 7 6 3 2 11 5 1 12 10 8 4
2 6 1 5 10 11 9 12 7 4 13 8 3
5 12 3 2 1 6 7 11 13 8 4 10 9
6 1 2 13 5 12 8 9 10 11 3 4 7
7 6 4 11 3 1 2 9 13 10 5 8 12
7 5 12 2 6 9 3 4 10 1 8 11 13
7 13 5 12 3 10 2 8 9 6 1 11 4
4 2 8 6 12 13 9 5 7 3 10 1 11
9 1 2 11 12 10 4 8 5 3 7 6 13

10
ltafy1
qgccj2
fcamm3
btsez4
awbpc5
iorxn6
bpjvf7
wdofy8
tbmsw9
bptbh10
4 9 8 5 10 2 1 7 6 3
1 8 2 9 10 4 3 7 6 5
9 4 2 8 7 5 6 3 1 10
2 7 3 4 9 10 5 8 6 1
1 8 10 6 7 9 4 2 5 3
10 4 8 5 7 3 6 2 1 9
2 7 9 6 4 8 3 1 5 10
2 6 9 4 10 1 8 5 7 3
4 5 2 10 7 9 1 8 3 6
5 1 2 9 10 4 3 7 6 8
1 6 2 3 10 4 5 9 8 7
3 6 7 9 1 8 2 4 5 10
3 8 7 10 5 4 6 9 2 1
8 1 7 4 10 6 5 9 2 3
8 5 6 10 4 9 7 3 1 2
4 10 6 5 3 9 1 2 8 7
10 6 9 8 4 5 3 2 7 1
6 10 5 4 8 1 2 9 7 3
4 8 2 7 3 1 6 9 5 10
2 10 6 5 3 1 4 7 8 9
4 3 10 6 8 9 5 7 1 2
9 10 5 3 7 2 1 6 8 4
6 7 1 2 5 8 9 3 4 10
8 3 1 7 5 2 10 4 9 6
1 3 2 7 6 8 9 5 4 10
5 2 8 9 3 6 7 4 10 1
8 3 10 2 7 1 9 4 6 5
5 8 6 3 9 1 4 2 10 7

7
opgbx1
rvqkx2
qehfy3
rjprp4
ecevj5
pdmwb6
mmavz7
5 4 3 1 7 2 6
3 4 2 6 7 5 1
7 4 1 2 3 5 6
7 1 4 3 6 2 5
7 5 6 1 2 3 4
1 6 7 3 4 5 2
2 5 1 4 6 7 3
2 3 1 4 7 6 5
1 3 4 7 5 2 6
7 4 2 3 6 5 1
6 2 5 4 7 1 3
4 1 6 7 3 2 5
2 3 4 5 7 1 6
6 4 1 3 7 2 5
2 1 3 4 7 6 5
2 3 7 1 4 6 5
2 6 3 5 7 1 4
2 4 1 7 5 3 6
5 1 6 2 4 7 3
6 1 7 5 4 3 2
6 7 1 3 2 5 4
4 5 1 2 3 6 7
4 1 5 7 3 6 2
2 7 4 5 6 3 1
6 1 2 4 5 7 3
1 2 3 4 7 5 6
5 6 2 3 1 4 7

5
rfcei1
cpbfx2
kzlzo3
dprqk4
ohrim5
2 3 1 4 5
2 3 4 1 5
1 3 4 2 5
1 5 4 2 3
5 1 2 4 3
3 2 1 4 5
2 1 3 5 4
1 2 5 4 3
2 4 1 3 5
5 4 2 3 1
2 3 4 1 5
4 5 1 3 2
4 2 1 3 5
3 1 4 2 5
1 3 4 2 5
2 3 5 4 1
1 4 2 3 5
2 5 1 3 4
5 2 1 4 3
1 3 2 4 5
5 2 4 3 1
5 2 4 3 1
2 4 5 1 3
5 3 2 4 1
5 4 3 2 1
1 5 4 2 3
5 4 1 2 3
4 2 1 3 5
4 2 1 3 5
2 1 3 5 4
1 5 4 3 2
1 2 4 3 5
4 5 1 3 2
5 3 4 1 2
3 4 5 1 2
1 4 2 5 3
4 2 3 5 1
3 4 5 2 1
2 5 3 4 1
2 5 3 4 1
4 5 2 1 3
5 2 3 1 4
5 2 4 1 3

12
yssiy1
kkaxh2
kjkpc3
hkpms4
cnxww5
wbmzk6
mfhbd7
feehz8
khkrv9
ebmaj10
minpd11
guppn12
6 3 1 7 8 9 4 2 12 11 10 5
1 9 6 12 5 3 10 2 11 7 4 8
10 9 7 4 12 3 5 1 11 8 2 6
6 4 2 7 12 11 10 8 9 3 1 5
2 1 5 3 9 11 4 10 6 8 7 12
4 1 9 2 5 6 11 3 12 7 10 8
5 12 6 1 2 8 4 11 9 3 7 10
10 1 2 9 4 5 12 3 6 7 8 11
12 9 10 2 4 5 11 7 1 8 3 6
3 6 1 11 10 12 5 2 7 9 4 8
4 1 12 3 6 10 8 9 11 2 5 7
2 3 10 12 9 5 4 1 7 6 8 11
7 5 2 10 11 3 6 9 4 12 8 1
6 3 1 12 8 2 9 10 5 11 7 4
1 8 4 5 2 12 11 7 3 6 9 10
9 1 10 7 11 5 3 6 12 2 8 4
8 12 11 1 5 2 9 3 6 7 10 4
2 12 10 1 7 8 4 3 9 6 5 11
6 10 7 8 11 3 2 5 4 9 12 1
3 2 6 10 8 7 11 4 12 5 9 1
4 12 6 10 9 11 5 2 7 3 1 8
8 10 4 7 12 6 1 3 2 9 5 11
11 2 7 3 10 6 9 1 4 8 5 12
8 3 11 1 10 5 4 12 2 9 7 6
8 2 3 5 9 7 1 12 11 4 10 6
8 6 7 1 11 12 3 4 2 10 9 5

14
tkoqc1
gxrhl2
mggzb3
klnzm4
xsacl5
cuygn6
qlgdd7
tuhjl8
xikph9
dlkzf10
jdwev11
efkxd12
ioyrh13
rtfxa14
8 6 10 3 2 11 9 13 5 14 12 1 7 4
13 9 10 3 1 11 7 12 14 4 5 6 8 2
7 8 10 1 13 4 3 14 2 6 12 5 9 11
11 7 4 13 9 10 3 8 12 5 2 1 14 6
5 8 9 2 13 7 6 11 4 3 1 10 14 12
3 2 9 6 13 5 10 11 7 4 14 12 1 8
1 6 2 10 13 11 14 7 8 5 4 3 9 12
1 2 9 6 5 7 10 8 13 14 11 12 4 3
8 11 1 7 10 4 3 13 12 6 9 2 14 5
8 7 12 11 5 3 9 2 10 4 6 14 1 13
1 10 14 5 3 4 9 6 13 11 8 2 7 12
2 8 5 9 10 11 12 1 6 4 7 3 14 13
14 10 9 1 8 11 3 5 7 13 2 6 12 4
14 1 10 11 3 12 2 13 8 7 4 6 5 9
11 14 3 13 12 8 6 2 9 10 4 5 7 1
14 10 6 4 13 9 2 1 7 5 3 8 12 11
13 4 12 14 5 7 1 8 2 11 6 10 9 3
5 12 10 2 11 13 9 1 14 7 4 8 3 6
11 4 13 7 10 12 14 6 2 5 8 9 1 3
11 3 7 9 2 6 4 8 13 14 12 1 5 10
1 13 9 14 8 5 12 2 6 4 10 11 3 7

13
qqgki1
txdkh2
bvimw3
irzvk4
alhel5
gnvnu6
pdmuu7
nfysn8
gcwou9
qukml10
apcad11
hcumz12
cfbbm13
3 10 2 7 13 5 8 12 1 9 11 6 4
4 13 2 12 9 8 3 10 5 6 1 7 11
10 11 6 13 8 1 12 5 3 9 2 4 7
13 6 1 3 10 9 11 8 12 4 2 5 7
3 10 5 8 9 7 6 2 4 1 11 13 12
2 13 1 10 4 12 3 11 7 9 8 6 5
3 12 7 9 10 6 5 1 2 11 13 8 4
12 11 13 8 1 4 10 9 6 2 3 7 5
12 7 9 6 13 11 5 10 4 3 8 2 1
8 11 3 12 2 9 4 13 7 6 5 1 10
4 5 1 3 12 13 9 11 8 10 6 7 2
10 9 3 7 13 11 2 8 4 1 6 12 5
11 3 6 4 10 2 1 9 7 12 8 5 13
6 13 10 8 3 9 5 11 2 4 1 7 12
12 4 6 8 3 9 7 5 1 11 2 13 10
10 13 4 6 8 11 1 2 9 7 5 3 12
9 6 7 3 12 8 5 2 11 1 4 13 10
4 9 8 7 12 1 10 3 13 11 6 2 5
4 8 2 9 10 6 11 3 5 7 12 13 1
4 11 9 8 13 2 12 7 5 10 1 3 6
5 10 11 9 8 6 13 3 1 12 7 4 2
9 8 6 3 10 7 2 5 12 11 13 4 1
8 11 9 7 13 6 5 12 2 1 3 10 4
5 2 8 12 7 9 3 11 6 1 4 13 10

5
ysxrj1
sefoi2
oelts3
kxmuv4
cvfdy5
3 2 4 5 1
3 5 4 1 2
3 1 4 2 5
4 5 2 1 3
3 2 4 1 5
1 4 5 3 2
3 4 2 1 5
1 3 2 5 4
4 2 5 3 1
5 2 3 4 1
2 4 1 3 5
5 1 3 4 2
5 1 4 3 2
2 5 3 1 4
4 2 3 1 5
2 3 4 5 1
4 5 3 1 2
5 3 2 1 4
3 2 1 5 4
5 4 1 3 2
4 5 3 1 2
2 3 4 1 5
3 4 2 5 1
3 4 5 2 1
4 3 5 1 2
5 4 2 1 3
3 4 5 2 1
5 4 2 1 3
3 4 1 5 2
1 2 5 4 3
3 2 4 5 1
3 2 1 4 5
2 1 5 4 3
3 4 2 5 1
5 1 3 4 2
1 3 2 5 4
1 4 5 2 3
5 4 3 2 1
1 4 5 2 3
5 2 3 4 1
3 4 2 1 5
2 5 3 4 1
5 4 3 2 1
1 2 5 4 3
3 4 2 5 1
5 2 4 3 1
5 4 3 2 1

7
chawk1
zxuvj2
ltygm3
ozxbj4
ibdac5
xdlmt6
dutic7
1 5 4 6 7 3 2
1 7 5 4 6 2 3
4 1 7 5 3 2 6
1 2 4 6 3 7 5
1 6 7 3 5 2 4
4 2 1 3 7 6 5
1 3 6 4 7 5 2
7 2 1 5 3 4 6
3 1 7 2 4 6 5
6 1 3 5 4 2 7
6 5 3 7 1 4 2
4 2 1 3 5 7 6
7 2 5 1 3 6 4
1 6 5 3 7 4 2
1 3 7 6 5 2 4
2 3 4 7 1 5 6
2 4 1 7 5 6 3
3 6 7 5 4 1 2
2 3 1 4 6 7 5
6 5 2 7 1 4 3
5 4 6 2 7 1 3
6 2 4 1 7 3 5
6 3 7 2 1 4 5
7 3 5 6 1 2 4
7 1 4 6 2 3 5
1 3 5 4 7 2 6
5 1 3 6 7 4 2
7 5 4 2 3 1 6
7 4 1 3 2 6 5
2 6 4 3 1 5 7
2 7 3 4 5 1 6
6 7 3 4 2 1 5
4 5 1 7 2 6 3
4 1 7 5 6 2 3
2 5 3 6 4 7 1
2 6 3 5 4 1 7
7 2 6 4 3 5 1
5 6 1 7 2 3 4
7 4 2 6 1 5 3
6 3 5 4 1 2 7
6 3 1 2 5 7 4
4 3 5 2 6 1 7
5 6 3 7 4 1 2
4 1 2 7 6 5 3
1 5 2 6 7 3 4

14
ohaec1
aaiit2
nhxib3
spsyc4
edzgz5
skhew6
rjslv7
amukl8
hkihn9
okrqe10
xffoj11
kdeps12
dmxmd13
zlyyz14
10 14 3 12 1 5 6 11 4 9 2 13 7 8
1 7 4 6 2 10 14 8 13 11 5 3 9 12
12 10 6 1 3 11 2 13 5 7 9 4 14 8
3 9 11 4 14 2 12 6 1 7 8 5 10 13
3 6 10 2 12 1 13 4 8 11 7 9 5 14
9 8 11 14 3 6 2 1 7 4 13 10 5 12
1 8 6 14 10 13 3 2 5 11 4 7 12 9
1 13 10 3 8 5 11 2 12 7 6 4 9 14
3 2 10 13 12 4 5 9 8 14 1 6 11 7
4 2 6 11 13 10 1 3 9 5 12 8 14 7
12 1 14 10 9 11 13 4 6 8 5 3 7 2
3 11 10 2 12 9 6 14 1 13 7 8 4 5
1 9 11 2 13 10 6 14 5 12 7 4 3 8
5 10 2 8 7 13 1 3 12 14 6 9 4 11
2 1 14 7 10 9 6 4 13 12 11 5 3 8
1 3 8 11 10 13 2 14 12 7 6 9 5 4
4 14 10 8 2 5 7 1 11 12 9 6 13 3
5 6 14 9 13 8 7 12 4 1 10 3 2 11
12 1 8 2 14 3 6 4 7 10 9 11 5 13
7 11 3 10 12 9 5 6 2 1 8 4 14 13
2 6 12 1 11 5 3 7 8 10 14 4 9 13
8 5 4 1 12 14 10 3 13 11 6 7 2 9
3 11 2 1 12 9 4 7 13 10 5 8 14 6
3 11 2 13 10 8 6 14 1 4 9 5 7 12
4 8 5 1 6 14 10 9 3 13 2 12 11 7
8 14 13 4 2 12 6 7 11 9 10 1 5 3
10 9 13 3 2 14 5 4 7 8 6 12 1 11
10 4 7 3 11 14 9 13 1 2 12 5 8 6
11 14 3 5 8 9 12 7 2 6 1 4 13 10
8 9 2 6 4 11 3 5 13 7 10 14 1 12
8 6 3 13 10 4 11 1 7 2 9 12 14 5
9 3 2 5 13 4 6 1 10 11 14 8 7 12
11 13 6 12 5 2 14 7 4 3 9 8 1 10
14 10 4 11 8 1 6 12 7 13 9 3 5 2
7 8 13 3 2 10 14 12 6 5 9 4 11 1
11 2 6 3 7 9 13 4 1 14 12 5 10 8
7 11 4 12 9 14 5 13 3 2 1 10 6 8
3 14 10 5 7 1 8 4 6 11 9 12 2 13
6 10 11 2 5 12 4 13 1 7 9 14 8 3
13 14 9 12 6 4 11 5 1 8 7 10 2 3
5 10 4 11 7 8 9 3 1 12 2 6 13 14
1 11 8 14 13 3 9 2 7 4 6 10 5 12
4 12 7 10 13 11 5 14 3 1 8 6 2 9
13 11 6 2 4 3 12 1 5 8 7 10 9 14
6 14 7 4 13 11 12 2 9 1 8 3 5 10

8
ctpur1
lysfx2
jagpn3
pgyoj4
ckooo5
qiwwl6
qztwq7
vbugy8
6 7 1 2 3 5 4 8
2 8 7 4 6 3 1 5
6 7 2 4 3 8 5 1
4 2 7 8 1 6 3 5
3 1 7 4 8 5 2 6
1 7 5 4 2 3 8 6
7 4 1 5 3 2 8 6
2 4 5 7 6 1 8 3
2 8 3 7 5 6 4 1
7 8 2 5 6 1 3 4
5 2 6 4 1 7 3 8
2 6 3 7 5 1 4 8
7 5 4 8 3 6 2 1
8 3 7 6 5 2 1 4
2 5 8 1 4 6 7 3
8 3 6 1 2 7 4 5
4 3 5 2 6 8 1 7
3 1 4 7 6 8 2 5
1 8 2 6 3 7 5 4
2 7 4 1 3 6 5 8
4 8 1 6 7 3 2 5
4 6 1 5 2 3 7 8
5 8 6 4 1 3 7 2
5 8 7 2 4 3 6 1
4 7 8 3 5 1 6 2
7 3 8 4 2 6 1 5

3
ceads1
zupaq2
ardar3
2 3 1
1 2 3
1 3 2
2 3 1
1 3 2
1 2 3
1 2 3
3 2 1
3 1 2
2 1 3
1 3 2
1 2 3
1 3 2
2 3 1
3 1 2
3 1 2
1 2 3
1 2 3
2 1 3

2
cnzlc1
bxevb2
2 1
1 2
1 2
2 1
1 2

10
nxzbr1
qjylt2
jxynp3
tfexn4
oarfx5
jteas6
urczs7
wllbt8
motch9
xwjvq10
2 8 1 5 6 3 10 9 4 7
7 3 9 6 8 4 10 1 5 2
8 4 10 7 3 1 6 9 2 5
2 6 10 1 4 3 5 7 8 9
8 9 3 1 7 6 5 10 2 4
9 8 6 4 1 3 10 2 5 7
5 6 8 9 10 4 7 3 2 1
7 4 2 1 9 8 6 10 5 3
10 5 4 2 9 1 7 6 3 8
3 2 9 7 5 4 10 8 6 1
2 10 5 9 4 1 3 7 6 8
2 1 6 4 7 8 9 3 5 10
9 6 10 2 7 4 1 3 8 5
4 8 2 10 5 7 9 1 6 3
7 5 3 9 6 2 8 1 10 4
5 8 6 3 10 7 4 1 2 9
1 9 5 6 2 10 7 4 3 8
4 10 1 5 9 6 2 8 3 7
2 9 6 1 10 8 4 5 7 3
6 10 1 9 2 8 5 3 4 7
7 8 3 6 5 9 1 2 4 10
4 7 6 10 1 5 9 8 2 3
4 5 1 9 8 7 10 3 2 6
3 8 6 4 2 1 10 9 5 7
8 1 4 7 6 5 3 9 2 10
3 9 1 5 10 7 2 4 8 6
2 1 3 7 10 5 8 9 4 6
1 9 2 6 7 5 4 3 8 10
1 2 3 7 5 6 9 8 4 10
2 8 4 10 6 5 1 7 3 9
6 10 4 2 5 9 3 1 8 7
6 4 1 10 9 2 7 5 3 8
10 5 1 6 7 4 2 9 3 8

3
voxmt1
dkzzc2
swdqn3
2 3 1
3 1 2
3 2 1
1 3 2
3 2 1
2 1 3
2 3 1
2 3 1
3 2 1
1 2 3
3 1 2
2 3 1
2 1 3
2 3 1
2 3 1
2 3 1
3 1 2
3 1 2
2 3 1
2 3 1
3 1 2
1 3 2
2 3 1
3 1 2
3 1 2
2 3 1
2 1 3
3 2 1
2 1 3

8
nxvhk1
cbpwc2
fhjdl3
wxfhw4
mvlwj5
crplg6
zdnxc7
twair8
8 6 1 2 3 4 7 5
4 7 2 8 3 5 1 6
1 3 8 6 4 7 5 2
7 2 6 5 3 4 8 1
4 7 6 1 8 2 5 3
4 7 5 2 6 1 3 8
2 8 3 5 4 6 1 7
3 7 1 6 5 2 8 4
6 1 4 5 2 3 8 7
4 8 7 5 1 6 3 2
4 7 1 5 2 3 8 6
4 1 3 7 8 5 6 2
8 5 7 4 6 3 2 1
6 1 3 8 4 2 5 7
2 5 3 7 1 4 6 8
1 5 8 2 3 7 4 6
2 1 4 8 6 5 7 3
3 6 4 1 5 2 8 7
4 2 5 1 6 7 8 3
8 3 4 6 7 2 5 1
2 5 3 1 4 7 6 8
5 4 2 6 8 1 7 3
7 5 6 1 2 3 8 4
4 8 3 1 5 2 7 6
8 4 3 1 2 7 6 5
2 7 6 5 3 1 4 8
1 2 5 8 7 3 4 6
3 4 6 1 2 5 7 8
1 2 3 6 8 5 4 7
3 6 5 7 8 1 2 4

6
btptv1
lgczq2
cpelc3
paqor4
vdmlw5
ebsvq6
5 1 4 3 2 6
6 3 1 2 4 5
3 6 1 4 5 2
1 3 4 6 5 2
1 6 4 2 3 5
1 6 4 5 3 2
5 6 2 3 4 1
2 3 1 6 4 5
1 6 4 2 5 3

8
ehkrh1
paorc2
uzinv3
umlzd4
ajuxr5
dtigw6
dcpqt7
lilkh8
5 3 8 6 1 7 2 4
4 5 7 3 2 6 1 8
8 1 3 4 5 2 6 7
7 5 1 3 6 8 2 4
8 2 7 1 3 6 4 5
1 5 7 3 6 2 8 4
1 3 8 7 4 2 6 5
6 8 4 2 7 3 1 5
5 2 4 3 1 6 8 7
5 2 7 6 1 3 4 8
4 3 5 7 1 8 2 6
2 7 6 8 3 4 5 1
4 2 3 5 8 6 7 1
2 4 7 6 5 1 8 3
4 8 1 7 2 5 3 6
1 6 3 5 2 4 7 8
8 4 1 3 7 2 5 6
1 8 4 3 5 2 7 6
1 2 8 4 7 3 6 5
4 7 6 1 3 5 2 8
6 2 1 3 8 4 5 7
1 7 5 8 6 2 4 3
1 5 7 3 8 4 2 6
5 3 7 8 2 6 4 1
2 7 4 1 3 5 6 8
8 4 3 6 7 1 5 2
6 8 3 7 4 1 5 2
8 2 4 7 3 1 5 6
4 5 2 3 8 1 7 6
2 1 4 5 3 8 7 6
7 1 3 5 6 8 4 2
3 4 1 6 7 5 2 8
1 2 7 5 3 6 8 4
8 6 3 7 2 4 5 1
1 3 5 6 7 8 2 4
2 5 1 4 8 3 7 6
2 7 1 3 5 8 6 4
3 7 2 6 4 1 8 5
5 8 6 2 3 1 4 7

8
kmsun1
foghg2
wxmmk3
clcbn4
kaxxg5
wzbrc6
tivxx7
wabgi8
3 1 8 6 5 2 7 4
8 2 6 5 3 7 4 1
4 2 6 8 3 1 5 7
8 7 3 6 5 2 1 4
4 7 6 8 5 3 2 1
2 6 1 4 3 7 8 5
6 8 7 1 2 5 4 3
3 1 6 7 2 4 8 5
4 5 8 6 7 3 1 2
6 4 1 2 5 3 7 8
6 1 5 7 2 4 8 3
8 2 6 4 7 3 5 1
5 3 2 1 7 8 6 4

15
mcdst1
haowp2
ulqin3
qfblf4
yireg5
yylip6
fsxxa7
dzxxv8
csoed9
lruck10
qmrqt11
celyv12
fgcgq13
vuhvt14
mrppu15
10 11 6 14 5 8 7 15 3 4 2 13 12 9 1
10 5 6 7 13 11 2 3 9 15 12 14 4 8 1
11 10 2 15 6 3 14 1 8 9 7 5 4 12 13
11 2 14 10 13 9 15 7 5 3 6 8 1 4 12
2 11 9 8 13 15 3 6 14 4 7 1 5 12 10
14 7 5 4 3 6 13 15 11 2 8 12 9 10 1
1 8 10 3 14 4 13 15 12 7 5 2 9 6 11
14 12 13 6 8 15 5 7 4 3 9 11 2 10 1
3 7 11 5 12 13 1 15 10 2 8 14 4 9 6
9 2 6 15 14 12 8 11 5 4 3 10 13 1 7
11 5 1 7 14 15 4 2 12 9 3 6 8 10 13
7 9 14 6 5 15 12 13 10 4 11 1 2 3 8
12 5 10 6 14 11 2 7 13 8 4 3 1 9 15
15 12 2 10 3 5 11 14 7 4 13 8 1 9 6
4 10 12 9 14 11 5 7 3 2 15 13 1 6 8
3 5 9 10 13 14 4 7 2 6 1 15 8 12 11
13 9 10 2 1 12 4 3 7 5 15 8 6 14 11
12 7 11 4 6 8 15 5 1 14 3 13 10 2 9
8 9 1 3 6 15 2 7 4 10 5 14 11 13 12
5 11 6 7 3 9 8 14 2 1 10 12 13 4 15
13 6 10 7 3 15 14 2 1 11 9 12 4 8 5
8 15 6 11 4 2 14 10 12 9 5 7 1 13 3
9 10 7 5 8 14 11 15 6 13 4 3 1 2 12
13 9 1 7 6 8 2 12 11 10 3 14 15 4 5
7 14 15 1 10 4 5 2 12 9 8 13 6 3 11
15 2 11 9 5 6 12 10 4 3 14 1 13 7 8
11 13 14 10 6 15 7 4 8 9 1 5 2 3 12
10 13 8 9 14 12 11 5 7 15 2 1 4 3 6

2
bsluf1
ceypd2
1 2
1 2
1 2
2 1
1 2
2 1

4
ddpkd1
dvmgy2
fktrm3
akejt4
1 2 4 3
2 3 4 1
4 3 2 1
1 2 4 3
1 2 4 3
4 3 1 2
3 2 4 1
4 3 1 2
2 4 1 3
3 1 2 4
3 2 4 1
4 1 3 2
3 1 4 2
4 1 3 2
2 4 1 3
4 2 1 3
2 1 4 3
3 1 2 4
3 2 4 1
2 3 4 1
4 1 2 3
3 1 2 4
4 1 3 2
1 4 2 3
1 2 4 3
4 2 3 1
2 1 3 4
2 3 4 1
3 2 1 4
1 2 3 4
4 1 3 2
4 2 1 3
3 1 2 4
3 2 1 4
4 2 1 3
4 2 3 1
4 3 1 2
2 4 1 3
2 3 1 4
4 3 2 1
3 1 2 4
1 4 2 3
1 2 4 3
2 4 1 3

2
pqnlp1
ttouc2
1 2
2 1
1 2
2 1
2 1
2 1
2 1
2 1
1 2
2 1
1 2
1 2
2 1

8
kasqp1
kiohh2
uzztc3
fxqxc4
qwwpd5
hirsi6
lgyff7
lfgji8
4 6 2 3 7 5 8 1
4 1 3 8 2 5 7 6
4 1 3 2 5 6 8 7
3 2 1 5 6 4 7 8
1 6 4 8 7 3 2 5
4 5 7 3 1 2 6 8
2 7 3 8 5 1 4 6
1 8 5 6 3 4 2 7
3 2 4 1 7 8 6 5
4 6 7 1 5 3 2 8
5 2 3 6 7 4 8 1
2 5 7 4 3 6 1 8
5 2 8 3 6 4 7 1
4 8 2 3 6 5 1 7
1 5 3 6 8 7 4 2
1 8 3 2 6 7 4 5
8 4 5 7 3 6 1 2
3 6 8 2 5 1 4 7
2 1 5 3 6 4 8 7
3 7 8 4 5 2 1 6
7 8 1 5 3 4 6 2
2 6 3 1 4 7 5 8
5 8 3 6 2 7 1 4
3 2 7 6 1 5 4 8
1 3 2 4 6 5 8 7
1 7 6 8 3 5 4 2
5 3 4 6 8 7 2 1
1 5 8 7 3 6 4 2
1 7 5 3 2 4 8 6
5 3 8 2 1 4 7 6
2 6 4 5 8 3 1 7
6 4 8 2 5 1 7 3
1 5 6 2 4 8 3 7
5 8 7 2 4 6 1 3
2 6 8 4 7 1 5 3
7 8 1 3 5 2 6 4
1 7 4 8 6 5 3 2
5 4 7 1 8 3 2 6
8 6 7 5 1 2 3 4
3 5 4 2 6 1 8 7

9
cfluj1
jigba2
zxeyc3
ahzwl4
doqvt5
uvxwb6
qbcxg7
knqiz8
cuoua9
1 5 2 8 4 7 3 9 6
4 9 3 2 8 7 1 6 5
5 1 8 7 4 6 9 2 3
3 1 7 8 5 4 2 9 6
7 2 9 5 6 1 4 3 8
9 3 1 8 5 4 2 7 6
1 6 4 2 7 5 3 9 8
2 6 1 8 9 3 5 7 4
3 4 2 8 9 7 5 1 6
4 1 9 8 5 2 7 3 6
6 2 8 5 4 9 1 3 7
4 5 7 3 1 8 9 6 2
2 6 4 7 5 9 3 8 1
6 8 5 3 9 2 4 7 1
7 8 5 3 6 1 2 4 9
5 6 2 9 7 8 4 1 3
4 8 6 5 7 9 1 2 3
3 7 1 8 4 6 2 5 9
2 5 3 6 8 4 9 7 1
8 2 6 1 7 3 9 5 4
7 8 6 1 5 9 3 2 4
2 1 6 3 8 7 4 5 9
3 9 1 6 7 8 5 4 2
9 4 8 5 7 3 1 6 2
7 2 4 1 9 6 5 3 8
3 6 5 9 1 8 7 4 2
4 9 2 5 3 8 6 1 7
4 1 7 2 5 3 8 6 9
7 2 4 5 8 3 6 9 1
8 3 1 5 4 9 7 2 6
1 3 6 2 8 4 7 9 5
1 4 6 2 8 7 3 9 5
7 5 3 4 9 6 1 2 8

13
kygqf1
zrucz2
whinl3
fzxnf4
jxhaw5
fsala6
ibrtv7
fwdjh8
rkmtb9
uehfb10
llved11
faeua12
vbklx13
10 4 7 8 11 13 3 9 5 6 12 1 2
1 5 4 3 8 11 13 6 2 10 12 7 9
11 8 10 1 5 3 9 13 6 12 4 7 2
3 6 12 8 9 1 2 13 10 4 11 7 5
9 7 8 11 6 10 2 1 12 3 4 13 5
2 9 1 10 7 4 12 11 3 5 8 6 13
5 6 4 13 3 8 9 2 7 10 11 12 1
12 9 3 2 6 1 10 4 13 7 11 5 8
9 10 2 1 11 13 7 8 3 12 4 6 5
5 10 7 2 3 1 12 11 8 6 4 9 13
1 6 3 4 9 5 2 10 12 8 13 7 11
3 12 8 7 13 4 1 2 10 5 9 11 6
6 7 1 2 9 3 13 5 12 4 8 11 10
2 9 4 1 13 5 7 8 12 11 6 10 3
3 10 4 9 5 8 1 6 13 12 11 2 7
9 3 2 8 12 10 7 1 13 6 4 5 11
7 4 10 3 1 11 8 6 5 2 12 9 13
9 11 12 7 2 4 3 8 6 10 1 5 13
3 11 5 8 2 13 7 10 4 1 9 12 6

1
doyni1
1
1
1
1
1
1
1
1
1
1
1
1
1
1
1
1
1
1
1
1
1
1
1
1

12
aytzh1
nohho2
pdmaq3
iatvg4
okhbz5
hhdji6
kserp7
ncjct8
txoso9
etaan10
qhkty11
tgvma12
8 6 5 12 10 2 4 7 1 9 11 3
12 7 9 11 1 8 2 4 6 10 3 5
9 12 10 4 2 1 7 5 3 8 6 11
10 6 9 11 5 4 8 7 12 3 1 2
9 7 6 8 1 10 4 3 11 12 2 5
1 3 10 4 8 9 6 7 5 2 11 12
7 3 2 5 12 8 9 4 1 11 10 6
7 9 6 10 8 2 12 4 11 1 5 3
7 8 3 6 12 11 5 10 2 1 4 9
2 3 8 5 7 10 4 6 11 12 9 1
6 11 7 12 9 8 1 4 5 3 10 2
10 6 9 8 4 2 3 7 5 12 1 11
6 4 10 8 9 5 12 1 2 11 3 7
7 1 8 4 6 3 12 5 10 9 11 2
12 6 10 1 11 8 7 9 4 5 3 2
11 9 3 1 5 4 12 2 7 10 6 8
10 9 11 12 1 3 5 2 4 7 6 8
9 7 12 2 6 11 1 4 5 10 3 8
8 5 7 1 12 9 2 4 6 11 3 10
9 11 5 3 12 6 1 10 2 8 7 4
10 12 4 8 1 3 6 7 2 9 11 5
12 5 6 9 1 8 3 2 11 4 7 10
12 8 4 2 11 7 3 6 1 10 5 9
12 9 10 11 2 4 3 7 6 5 1 8
1 7 9 8 11 10 4 2 5 12 3 6
6 5 10 4 8 1 12 7 9 11 2 3
5 1 12 9 4 7 6 11 10 3 8 2
2 5 9 1 3 10 6 8 7 11 12 4
8 6 11 1 10 9 7 5 4 12 2 3
12 1 3 7 6 8 10 11 9 2 5 4
5 9 8 2 12 4 11 3 7 1 6 10

15
uqbgq1
kfyja2
ylvzo3
yanbd4
ykjek5
bhvkg6
hhorj7
qiulh8
ecvxs9
zvdai10
cdwaf11
ipzpu12
uimrb13
uoaaw14
jsivc15
14 1 8 13 10 7 11 5 4 9 3 12 6 15 2
3 15 2 6 14 1 10 7 9 12 13 4 5 11 8
4 12 6 14 3 5 11 8 2 7 13 10 9 15 1
1 11 5 15 10 3 9 12 8 4 2 7 14 13 6
1 13 14 7 4 15 11 8 2 10 3 9 5 12 6
10 3 15 4 5 9 11 12 6 14 1 7 13 8 2
11 6 4 12 15 5 13 14 2 9 1 3 7 8 10
12 15 8 2 6 7 1 5 11 10 13 4 14 3 9
11 9 14 4 15 3 2 6 5 10 1 7 13 12 8
2 14 1 9 15 12 7 8 6 10 11 4 3 5 13
10 7 6 1 5 14 12 11 13 4 8 2 3 9 15
14 7 5 12 9 10 1 13 8 15 11 2 3 6 4
15 13 5 8 1 7 4 6 12 2 9 3 10 14 11
15 11 10 5 4 8 1 14 3 2 7 6 13 9 12
8 11 7 12 6 14 13 1 9 15 4 10 2 3 5
5 4 11 7 9 12 6 3 15 1 10 2 8 13 14
1 8 7 2 6 10 15 5 12 3 13 11 9 14 4
7 1 5 13 11 8 10 6 4 9 14 2 15 12 3
9 4 5 11 3 12 13 7 10 15 2 14 1 8 6
11 7 3 9 10 12 6 13 4 2 5 14 15 8 1
13 2 9 15 6 8 10 11 7 5 3 12 14 4 1
6 3 8 14 1 11 15 5 4 12 7 2 10 13 9
14 4 13 6 3 9 15 10 5 12 1 11 8 2 7
9 3 4 12 11 2 7 5 14 13 8 10 15 6 1
13 7 9 15 1 11 8 10 2 4 12 14 6 5 3
3 10 1 5 2 9 7 4 11 8 15 13 12 14 6
14 3 12 13 4 7 15 11 8 1 6 5 9 10 2
15 5 3 11 1 4 7 14 12 10 2 8 6 9 13
7 4 2 8 5 9 10 13 12 3 14 6 15 11 1
11 12 2 14 13 9 15 7 1 3 5 8 6 10 4
8 14 13 10 7 5 11 2 4 12 15 6 3 9 1
13 7 1 3 11 15 6 14 9 4 8 5 12 2 10
14 13 12 11 2 3 7 1 8 6 10 5 15 4 9
14 1 11 5 10 4 15 9 13 3 12 2 7 8 6
15 9 3 8 13 5 2 14 6 7 10 12 1 11 4
10 15 11 1 9 3 13 6 8 4 5 14 12 7 2
15 14 8 2 11 12 9 6 5 7 4 10 3 13 1
11 14 10 3 8 5 2 1 12 4 6 9 7 13 15
15 9 12 4 2 5 10 7 8 11 14 6 3 13 1
15 2 5 4 8 12 10 3 9 7 11 6 13 14 1
10 6 2 8 15 3 14 1 9 4 11 12 13 7 5
3 13 6 8 4 2 11 9 1 7 5 15 12 14 10
12 5 1 13 6 3 10 11 2 7 9 8 15 14 4

9
jfipw1
ubxhu2
edigd3
sivcd4
uzoti5
paeql6
vxynu7
kwvdn8
podxg9
6 1 8 5 2 4 9 7 3
7 9 8 2 3 4 5 1 6
2 9 8 6 7 1 4 3 5
8 6 9 4 7 5 2 1 3
6 9 8 3 2 1 7 5 4
1 3 8 4 7 2 6 9 5
2 6 9 4 3 1 7 8 5
9 4 2 8 6 3 7 5 1
1 8 6 7 4 9 5 2 3
5 1 9 2 7 8 4 3 6
1 7 3 4 9 8 2 6 5
9 3 4 7 1 8 6 2 5
5 9 1 7 6 8 3 4 2
2 8 5 3 7 1 9 4 6
2 3 6 9 8 4 7 1 5
5 6 8 1 2 4 3 7 9
8 5 3 9 2 7 4 6 1
7 3 5 2 9 1 8 4 6
3 7 6 2 1 5 8 4 9
3 7 2 4 8 5 1 6 9
8 6 2 1 9 5 3 7 4
5 3 1 8 9 4 7 2 6
4 2 5 7 3 9 6 8 1
9 1 3 7 2 8 6 5 4
3 8 7 1 6 2 9 5 4

7
rfxot1
xikwk2
iaczx3
wrgdt4
cjfbp5
imlhv6
sbrdq7
7 2 1 3 4 5 6
7 4 2 3 5 6 1
5 7 1 4 6 2 3
2 4 6 3 5 1 7
7 2 6 3 5 4 1
6 4 7 3 2 1 5
3 6 7 1 4 2 5
3 2 7 1 5 6 4
2 4 5 1 7 3 6
1 6 5 7 2 3 4
7 5 1 2 6 3 4
1 5 7 2 6 3 4
3 2 4 7 1 5 6
4 6 7 2 3 5 1
7 6 1 3 2 5 4
6 3 7 4 1 5 2
7 6 1 3 2 4 5
6 2 3 7 4 1 5
2 5 6 1 7 4 3
4 3 7 2 1 5 6
3 5 4 6 1 2 7
6 5 4 1 2 7 3
3 2 1 4 6 7 5
6 5 3 1 4 7 2
3 2 4 7 1 6 5
3 5 1 7 4 6 2
1 5 2 6 7 4 3
6 3 5 7 2 4 1
6 7 2 5 1 4 3
3 4 5 2 1 6 7
2 6 4 1 7 5 3
1 5 3 4 2 7 6
6 5 7 3 1 2 4
3 1 2 7 4 6 5
4 5 6 7 1 2 3
3 7 6 2 1 5 4
6 4 1 2 5 7 3
4 5 2 7 6 1 3
6 3 1 2 4 7 5
7 6 1 5 2 3 4
6 4 5 3 1 7 2
3 6 1 5 7 2 4

9
rivjz1
ybhnn2
stgdo3
hytdg4
tiamr5
nnnwn6
pyjgr7
mncqg8
ldicy9
3 8 9 6 1 7 4 5 2
3 4 8 2 9 5 7 6 1
1 4 7 8 9 5 2 3 6
9 2 1 3 6 5 7 4 8
7 5 4 3 1 2 6 9 8
5 3 7 1 2 4 8 6 9
4 8 6 1 9 7 2 3 5
3 9 8 5 4 1 2 7 6
7 3 8 4 6 9 2 1 5
8 6 2 1 3 4 5 9 7
1 6 9 2 4 8 7 3 5
6 3 5 9 8 7 2 1 4
9 7 2 1 3 5 6 8 4
2 5 7 8 3 1 9 4 6
1 6 5 7 2 8 3 4 9
1 7 5 6 4 9 3 2 8
4 5 3 7 9 6 8 2 1
7 1 5 3 2 9 6 4 8
5 7 2 3 1 9 8 6 4
2 3 4 1 7 5 6 9 8
3 7 9 2 5 8 6 1 4
4 3 1 9 5 2 7 8 6
1 7 2 8 4 6 9 5 3
9 4 2 5 6 8 3 1 7
4 5 8 3 7 9 6 1 2
8 4 3 1 2 6 7 5 9
5 7 2 8 6 4 3 9 1
6 8 3 5 9 2 4 1 7
9 2 6 3 7 1 4 5 8
4 6 3 1 9 2 5 7 8
5 8 6 2 1 7 9 3 4
5 2 6 7 3 4 8 9 1

13
owmai1
ajnxp2
dalif3
bvxpi4
gmrcf5
vlqda6
vxrgd7
ybjkk8
jlqhn9
yofrs10
ygiqq11
xepta12
svodf13
3 7 4 13 11 1 5 6 8 12 2 9 10
3 11 6 9 2 5 10 1 4 12 7 13 8
13 2 1 4 8 7 3 9 6 10 11 12 5
2 1 3 8 6 10 7 11 4 5 12 9 13
9 4 11 6 10 5 2 1 8 13 7 3 12
1 4 10 7 3 11 13 2 8 5 12 6 9
1 3 13 9 12 8 7 2 6 5 11 10 4
10 6 12 1 11 4 2 8 7 9 13 5 3
1 7 11 12 13 4 5 3 10 6 9 2 8
1 9 6 12 2 3 4 7 10 5 13 11 8
12 4 9 2 13 3 11 10 5 8 1 6 7
6 13 10 3 11 12 9 1 7 4 5 2 8
13 1 2 6 3 5 12 9 11 8 4 7 10
10 11 5 1 8 12 7 9 13 6 3 2 4
1 13 5 4 12 11 7 2 8 9 3 6 10
2 9 1 8 13 7 3 12 11 6 5 10 4
6 5 8 11 13 10 12 1 2 3 7 4 9
1 8 10 2 5 4 3 13 12 7 9 11 6
9 13 1 6 7 3 12 4 8 5 11 10 2
2 8 1 12 3 7 6 10 11 9 13 5 4
8 13 10 5 4 1 11 2 3 12 7 6 9
3 10 12 11 5 2 4 13 1 6 9 7 8
9 12 1 10 3 11 4 6 7 13 5 8 2
3 9 6 4 1 12 10 13 8 2 11 7 5
6 1 12 5 4 2 7 13 3 9 10 11 8
11 10 6 8 1 3 5 13 9 12 2 7 4
11 2 3 1 4 7 10 13 8 6 12 5 9
7 8 13 10 1 11 2 5 3 9 12 6 4
13 11 2 5 1 9 7 10 12 3 6 8 4
3 4 5 11 1 13 9 6 8 10 7 12 2
4 7 9 12 13 10 5 3 1 11 2 6 8
5 13 6 11 10 1 2 8 3 4 7 9 12
5 1 12 2 8 6 7 13 9 11 3 4 10
7 11 10 3 4 2 1 8 13 12 6 9 5
10 5 2 11 9 12 13 4 8 3 6 7 1
1 10 3 12 6 4 2 8 13 7 9 5 11
7 2 11 1 9 10 12 4 13 6 8 3 5
11 1 12 7 3 9 13 5 4 10 2 8 6
3 1 8 9 7 12 13 6 11 10 5 2 4
7 10 8 11 5 3 2 1 12 9 6 4 13
3 11 4 6 1 8 9 7 2 10 5 13 12
3 11 13 4 8 10 1 7 12 9 6 5 2
12 5 10 3 7 2 11 1 6 4 8 9 13
1 13 7 4 11 3 12 6 9 2 10 5 8

6
xmjlj1
oaxsp2
rfkna3
zzrhd4
wmxgd5
dashw6
2 1 3 4 5 6
5 1 4 2 6 3
5 2 6 4 1 3
6 5 2 3 4 1
4 3 2 1 5 6
4 2 6 1 3 5
5 3 6 4 1 2
5 4 6 3 2 1
5 3 1 4 2 6
2 4 5 1 3 6
2 3 5 1 4 6
5 1 4 3 6 2
6 3 1 5 4 2
4 3 6 5 1 2
6 2 3 1 5 4
1 5 2 6 4 3
4 2 1 5 3 6
6 3 5 2 4 1
4 6 3 1 2 5
3 2 1 6 4 5
3 1 6 4 2 5
1 6 4 5 3 2
3 1 4 5 6 2
2 5 6 3 4 1
4 6 3 5 1 2
3 6 4 2 1 5
4 5 3 2 6 1
5 4 2 3 1 6
3 4 6 1 5 2
6 2 3 1 4 5
4 2 1 5 6 3
1 6 5 2 3 4
2 3 4 6 1 5
2 1 6 3 4 5
2 4 3 6 1 5
3 5 1 6 4 2
1 2 5 4 3 6
2 4 6 3 1 5

8
lvtmz1
yzoli2
gqrjv3
djpnc4
qwwhs5
quzrr6
qohhh7
rwpqg8
1 8 3 7 6 2 5 4
2 5 8 1 4 6 7 3
5 7 2 6 3 1 8 4
6 1 8 3 4 5 7 2
8 1 7 4 6 5 3 2
4 7 1 2 3 6 8 5
7 4 1 5 3 2 6 8
3 8 1 6 7 5 4 2
1 3 5 2 6 4 7 8
6 1 7 2 5 4 8 3
1 2 3 4 7 8 6 5
1 5 3 7 8 2 6 4
7 5 4 6 3 2 1 8
5 6 2 4 3 8 7 1
1 7 3 2 4 6 5 8
5 1 6 4 7 8 3 2
6 5 1 4 3 2 7 8
3 2 1 4 8 5 7 6
5 4 3 7 2 1 6 8
7 1 8 3 4 2 5 6
7 3 4 2 1 5 6 8
4 1 2 5 7 3 8 6
1 5 6 7 8 2 3 4
3 4 2 1 7 8 6 5
5 6 8 4 1 7 2 3
5 2 6 7 3 8 4 1
6 1 4 5 7 8 3 2
6 2 1 7 8 3 4 5
5 1 2 4 6 7 8 3
5 8 6 3 7 2 1 4
2 8 4 1 6 3 5 7
1 6 2 3 5 8 7 4

8
yqdgl1
rceks2
jysvx3
nhihj4
onpee5
hxqxm6
ryxda7
yhsxr8
4 7 8 2 1 6 3 5
6 7 2 1 3 8 5 4
4 2 1 5 3 8 6 7
1 3 2 4 5 8 6 7
1 4 8 2 5 6 7 3
4 8 5 7 2 6 3 1
5 8 7 3 1 4 6 2
3 4 8 7 1 6 2 5
7 6 2 8 1 4 3 5

7
kvptq1
lqnpw2
cgiwq3
ocbse4
yorcw5
disvb6
biryb7
3 6 7 1 5 2 4
6 1 2 3 7 5 4
7 1 4 6 5 2 3
1 5 4 6 2 7 3
5 6 2 1 7 4 3
6 4 3 1 7 2 5
6 5 1 3 4 7 2
5 1 6 2 7 4 3
7 2 4 6 5 3 1
2 7 6 5 1 3 4
1 4 2 6 3 5 7
3 5 7 1 6 2 4
5 2 7 3 4 1 6
4 1 5 6 2 7 3
1 2 3 4 7 6 5
4 3 6 2 5 7 1
6 3 5 1 2 7 4
1 4 2 5 6 7 3
7 4 2 5 3 1 6
1 5 7 2 6 3 4
6 7 4 1 5 3 2
2 4 3 1 5 7 6
2 6 1 3 4 5 7
1 5 3 7 4 6 2
1 5 4 3 7 2 6
2 7 5 3 6 1 4
5 4 6 2 3 1 7
4 2 7 3 6 1 5
6 1 3 2 5 4 7
1 2 3 6 7 4 5
3 6 1 7 2 4 5

1
omfht1
1
1
1
1
1
1
1
1

5
wxqsd1
qhnog2
aeyiq3
kylum4
dtdja5
2 3 1 4 5
5 1 2 3 4
2 4 3 1 5
3 5 1 2 4
4 3 5 2 1
5 2 1 4 3
3 4 1 5 2
3 2 1 4 5
1 2 3 4 5
5 4 1 3 2
4 3 5 2 1
3 1 4 2 5
2 3 1 5 4
2 1 4 3 5
5 2 3 1 4
1 3 2 4 5
2 4 3 1 5
3 2 5 1 4
5 2 4 1 3
1 3 2 5 4
2 1 4 5 3
1 2 3 4 5
3 5 2 1 4
1 3 5 2 4
1 5 4 3 2

11
dkygc1
yrhux2
hdtrn3
qlzmm4
omxqb5
vpejx6
zqkxc7
nvocq8
gixow9
hbnof10
vwkov11
6 7 9 2 1 3 4 11 5 10 8
9 7 2 4 11 8 1 6 3 5 10
3 9 10 7 6 5 8 4 1 11 2
11 4 8 7 3 10 5 9 2 6 1
3 4 8 11 10 6 5 7 9 1 2
8 3 4 11 7 5 10 1 2 9 6
11 6 4 9 3 1 8 2 7 5 10
5 10 4 7 2 6 9 1 11 8 3
7 9 1 4 8 5 11 6 2 10 3
6 9 7 1 4 2 5 10 8 11 3
10 4 1 5 2 11 8 7 3 9 6
2 5 3 6 4 1 11 9 10 8 7
3 10 11 5 8 9 1 7 2 4 6
6 7 3 11 5 9 8 1 4 10 2
4 6 2 7 10 8 3 11 5 9 1
4 9 5 7 8 1 2 11 10 3 6
4 7 6 10 3 8 9 11 2 1 5
5 2 9 4 10 11 7 3 1 6 8
8 9 6 11 10 4 1 3 7 5 2
6 8 7 11 9 5 2 10 4 1 3
7 2 11 4 5 10 8 3 1 6 9
6 9 7 10 4 5 8 1 2 11 3
9 2 5 4 1 10 8 3 7 11 6
9 7 4 1 6 11 10 8 2 3 5
8 5 7 6 9 4 1 11 10 2 3
4 6 7 3 10 11 9 8 2 1 5
11 7 9 6 5 3 10 4 8 1 2
10 9 7 2 11 5 6 4 1 8 3
7 4 10 5 8 3 2 11 9 1 6
9 3 10 2 4 8 1 6 5 7 11
10 7 11 2 9 4 5 3 6 1 8
5 6 9 1 4 7 10 8 2 11 3
5 4 3 8 2 11 6 1 7 9 10
9 8 3 6 1 5 7 2 11 4 10
3 8 11 6 5 1 4 7 10 2 9

11
gqqss1
brfia2
yakqb3
zzcwx4
ewjgc5
hxkay6
evtro7
ryjww8
mkzxs9
msjbp10
fdtsv11
3 9 4 10 7 6 2 8 11 5 1
11 9 2 10 4 8 3 7 1 6 5
8 11 7 10 1 9 3 2 6 5 4
9 1 7 6 5 2 8 3 10 4 11
8 2 6 10 3 4 5 1 7 9 11
6 5 8 7 10 1 3 2 4 11 9
5 9 4 1 7 11 10 8 2 6 3
5 11 2 8 7 4 1 6 10 3 9
3 11 6 1 5 8 2 10 9 7 4
11 4 7 2 8 6 10 3 5 1 9
8 7 2 9 1 5 11 4 6 10 3
4 8 1 3 11 10 5 9 7 6 2
4 7 3 8 6 2 10 9 5 11 1
11 10 6 1 8 7 3 5 4 9 2
5 2 7 9 6 11 8 1 4 3 10
1 11 8 6 3 2 10 4 7 5 9
2 11 10 8 1 5 9 7 4 6 3
2 1 9 11 10 7 3 4 8 5 6
11 6 5 8 7 4 2 9 10 3 1
11 4 6 2 9 8 7 3 10 1 5
10 7 2 3 11 1 6 9 5 4 8
5 4 3 2 6 8 10 11 9 1 7
3 7 6 1 11 5 2 4 8 9 10
8 9 5 7 4 10 2 11 3 6 1
8 4 9 10 7 11 6 5 3 1 2
11 8 5 9 4 10 2 7 3 1 6
6 5 3 7 11 10 1 4 9 8 2
2 3 11 5 6 4 7 9 1 10 8
8 10 2 4 1 3 9 6 5 11 7
11 9 6 10 3 4 2 5 7 1 8
3 11 8 9 6 1 4 10 2 5 7
6 1 10 4 9 8 11 2 3 7 5
8 9 1 2 11 3 10 4 6 7 5
11 6 4 1 10 5 8 3 2 9 7
9 6 2 3 8 4 10 1 5 7 11
6 10 5 7 8 2 11 1 3 9 4
8 7 5 11 10 2 1 9 3 6 4
8 4 3 11 1 6 2 10 7 9 5

15
xhddy1
cphzo2
ivtdy3
otasz4
ieava5
zraiz6
tsfmx7
wqrsc8
yztew9
ydlfi10
aprlb11
bwefe12
kbggi13
snacj14
msogm15
6 10 11 2 12 5 4 3 7 14 9 1 8 15 13
2 9 1 8 13 15 11 14 7 12 4 10 6 3 5
15 11 6 2 12 8 10 1 14 3 13 4 5 9 7
6 1 2 5 15 3 10 14 11 4 12 8 13 9 7
13 12 3 9 11 5 10 15 8 1 4 14 6 2 7
8 11 3 12 13 1 15 9 10 4 2 14 6 5 7
9 7 5 2 3 11 4 12 8 10 1 15 14 13 6
8 10 7 13 12 2 3 14 11 6 1 9 5 4 15
3 5 7 11 1 13 14 4 12 9 15 8 10 2 6
10 8 9 12 2 4 13 7 11 6 5 1 3 14 15
5 7 13 12 4 14 9 10 15 6 11 1 3 2 8
15 8 5 6 9 10 3 14 2 4 12 7 1 11 13
8 13 3 9 5 6 2 15 1 7 14 11 12 10 4
14 11 15 9 10 13 6 5 7 8 12 1 4 3 2
11 15 9 12 1 4 8 6 14 3 5 13 10 2 7
3 5 12 8 9 4 15 10 6 2 1 13 7 11 14
5 13 1 15 6 12 3 4 14 2 7 8 11 9 10
3 13 14 1 11 10 7 15 4 6 2 9 12 8 5
4 9 15 8 14 10 11 1 2 7 12 13 5 6 3
2 1 10 4 9 14 6 8 3 7 5 11 13 12 15
15 10 2 13 11 7 8 6 12 14 3 5 4 1 9
2 1 12 4 14 11 15 3 9 8 10 6 5 13 7
4 8 5 10 15 12 1 14 3 7 9 6 13 2 11
8 12 2 5 6 3 4 7 10 13 11 15 1 9 14
6 7 10 9 8 1 4 12 14 15 3 5 11 2 13
2 10 11 6 5 1 13 3 7 14 12 8 4 9 15
3 15 6 9 13 11 5 8 2 12 7 10 14 1 4
2 5 7 9 8 3 14 13 4 1 12 6 15 11 10
5 10 7 15 14 6 2 12 9 1 4 8 13 3 11
6 2 11 7 1 14 15 10 9 3 12 8 5 13 4
12 5 11 14 3 4 13 1 10 2 15 7 8 6 9

11
cyemv1
yihlm2
bmean3
kwvqm4
jgsmd5
awzvy6
bknex7
jrrrt8
obffa9
kbcmb10
ytenw11
8 5 7 10 11 4 9 6 2 3 1
4 8 11 9 7 2 1 6 5 10 3
11 3 5 10 6 4 1 2 9 8 7
6 2 1 9 3 11 5 7 10 8 4
6 10 4 8 11 3 5 7 9 2 1
9 7 6 4 11 2 10 5 8 3 1
4 3 9 8 2 11 10 6 7 1 5
6 1 8 10 4 2 3 11 9 7 5
5 10 2 4 3 8 9 7 11 6 1
11 9 8 7 2 1 6 10 4 3 5
7 1 6 3 5 10 4 8 9 2 11
6 8 1 10 11 3 7 5 4 2 9
1 10 11 9 4 5 7 6 3 2 8
2 7 4 8 1 6 11 9 5 10 3
1 4 3 2 6 10 9 7 11 5 8
2 9 6 1 5 10 11 7 3 4 8
5 9 4 11 6 7 3 8 10 2 1

8
fhdpg1
uqoma2
hoafx3
wxkri4
qpoqh5
hcqod6
aukbw7
attpk8
4 3 5 2 6 1 7 8
5 4 1 7 3 6 8 2
6 7 5 3 4 2 8 1
3 1 6 2 8 4 5 7
8 4 5 7 6 3 1 2
3 6 4 7 2 1 5 8
2 6 5 3 1 8 7 4
5 1 3 6 8 4 7 2
4 2 3 5 6 7 8 1
4 5 2 7 6 8 3 1
5 1 2 3 7 6 8 4
3 4 5 7 6 2 8 1
4 1 6 8 3 2 7 5
8 3 7 1 4 6 2 5
2 6 3 8 7 5 1 4
1 4 5 8 6 2 7 3

2
xjinl1
fztup2
2 1
2 1
2 1
1 2
2 1
1 2
2 1
2 1
1 2
1 2
1 2
2 1
1 2
1 2
1 2
2 1
1 2
2 1
2 1
1 2
2 1
1 2

3
jzxpz1
srxjg2
mtmia3
1 2 3
3 2 1
3 2 1
1 2 3
1 3 2
2 1 3
3 2 1
2 1 3
3 2 1
2 3 1
2 3 1
3 1 2
3 2 1
1 3 2
3 2 1
1 3 2
3 1 2
3 1 2
3 1 2
1 2 3
2 3 1
2 3 1
2 1 3
3 1 2
3 2 1
1 3 2
1 3 2
3 1 2
3 1 2
1 2 3
3 1 2
2 3 1
3 2 1
2 3 1
3 2 1
2 3 1
2 3 1
2 3 1
1 3 2
2 3 1
3 2 1
2 3 1

8
ullnj1
nfgkw2
fvyax3
erihy4
jfczz5
soieu6
lpxng7
shqyy8
1 7 2 5 8 3 4 6
5 7 4 3 2 1 8 6
8 3 6 7 5 1 2 4
7 1 4 6 8 3 5 2
7 1 2 4 8 6 3 5
5 8 2 7 6 1 4 3
8 1 5 3 4 6 2 7
2 7 6 1 4 8 3 5
8 5 3 4 2 7 6 1
3 8 7 2 6 5 4 1
5 3 4 2 1 6 7 8
5 8 1 3 6 4 7 2
3 7 4 6 1 5 2 8
7 2 5 8 3 4 6 1
3 5 7 6 1 4 2 8
4 3 8 1 2 7 5 6
7 8 2 4 3 6 5 1
4 2 7 1 3 5 6 8
8 7 1 4 6 2 5 3
4 5 6 2 8 7 1 3
7 8 6 5 1 3 2 4
2 4 6 3 8 7 5 1
1 6 8 7 5 3 4 2
7 6 4 2 8 5 1 3
3 8 7 1 2 6 4 5
1 2 7 5 4 6 3 8
6 2 1 8 5 3 7 4
8 7 6 2 5 3 4 1
3 2 8 4 6 1 5 7
8 4 2 3 6 5 7 1
6 4 7 3 2 8 1 5
5 7 1 3 2 4 8 6
6 7 2 4 5 1 8 3
8 7 4 2 5 6 1 3
1 6 2 4 3 7 8 5
1 7 4 8 3 6 2 5
1 7 4 5 6 2 8 3
4 8 2 1 3 7 5 6

8
criew1
idqnf2
dhvbc3
uiypk4
ggjxr5
zpymx6
tqata7
hbqvq8
2 5 4 3 8 6 7 1
5 2 4 7 1 8 3 6
5 6 1 3 8 4 2 7
3 8 6 2 1 7 4 5
7 3 6 4 8 5 1 2
6 3 1 8 2 7 4 5
8 6 2 3 4 1 7 5
8 3 4 2 6 7 5 1
3 7 4 5 2 8 6 1
3 2 4 6 1 5 7 8
5 8 4 2 3 7 6 1
8 1 5 2 7 6 4 3
5 7 2 1 4 6 3 8
2 5 7 4 1 3 8 6
3 7 6 1 5 2 4 8
3 1 4 6 2 8 7 5
3 5 2 1 4 8 6 7
5 2 3 8 6 7 1 4
7 1 4 6 5 8 2 3
1 6 2 4 8 7 3 5
6 1 3 8 2 5 4 7
1 3 5 2 4 6 7 8
8 3 4 7 5 6 1 2
8 6 4 7 3 1 5 2
2 1 4 6 5 3 8 7
3 1 4 7 8 2 6 5
7 4 1 5 2 8 3 6
8 6 3 1 7 4 5 2

8
tmzcg1
slbur2
gudlq3
kdtkl4
chozb5
iwjvi6
iwdbo7
fcxrn8
3 1 2 6 7 4 8 5
2 1 6 8 4 3 7 5
8 5 3 6 7 1 2 4
6 4 7 3 1 2 8 5
3 2 5 6 7 8 1 4
4 1 5 7 3 2 8 6
2 8 3 1 4 5 6 7
4 7 3 2 8 6 1 5
5 7 2 4 3 1 8 6
8 7 6 2 1 5 4 3
7 2 6 4 1 8 3 5
3 7 5 4 6 2 8 1
5 7 8 6 2 3 1 4
1 5 6 4 2 8 3 7
8 3 6 2 4 7 1 5
4 8 6 3 1 7 2 5
8 6 5 3 1 4 7 2
3 4 8 5 1 2 7 6
7 6 4 2 3 8 5 1
4 6 2 8 5 7 3 1
3 4 1 7 2 8 5 6
7 5 1 3 6 2 4 8

9
rvwod1
fyzvd2
vehls3
bniob4
rukdm5
ygsyf6
auskk7
jgtzh8
gzqqs9
2 4 3 8 7 6 1 5 9
4 1 7 3 6 9 8 5 2
4 9 2 7 6 1 3 8 5
9 1 7 8 3 5 2 6 4
1 3 9 5 8 4 7 2 6
4 2 5 1 9 7 3 6 8
6 3 9 4 7 8 1 2 5
3 2 1 8 5 9 6 7 4
5 2 4 9 3 6 7 1 8
7 8 1 4 9 3 5 6 2
6 4 1 3 8 5 2 7 9
6 5 2 1 8 9 3 7 4
1 8 5 7 6 4 3 9 2
2 3 4 5 9 7 1 8 6
7 2 1 5 9 3 4 8 6
4 5 2 6 7 9 1 3 8
2 3 1 7 9 5 4 8 6
5 3 6 7 2 4 1 9 8
4 9 8 1 6 5 3 7 2
2 1 8 3 9 5 4 7 6
8 1 4 5 9 7 2 6 3
1 2 9 3 6 8 7 4 5
4 7 1 5 6 2 8 3 9
8 9 7 6 2 1 5 3 4
1 4 7 9 5 3 8 6 2
1 2 3 5 7 8 6 4 9
4 1 5 8 9 6 7 3 2
9 8 4 6 1 2 7 3 5

5
cosua1
iitlq2
mvotz3
axxid4
xvqzr5
5 3 4 2 1
4 2 5 1 3
1 3 4 2 5
3 5 4 1 2
1 4 3 2 5
2 3 5 4 1
5 3 4 2 1
3 1 4 2 5
5 1 2 3 4
5 1 3 2 4
4 1 5 3 2
4 5 3 2 1
2 4 1 5 3
2 1 5 4 3
1 5 3 4 2
4 2 1 3 5
1 3 2 5 4
3 1 5 4 2
4 3 5 2 1
5 1 2 3 4
3 1 2 4 5
3 2 1 4 5
5 2 1 3 4
5 2 1 3 4
1 5 2 3 4
2 1 4 5 3
3 4 5 2 1
5 1 3 2 4
1 5 3 2 4
5 2 1 3 4
5 3 4 2 1
3 4 2 5 1
2 5 3 1 4
2 4 1 5 3
2 4 3 5 1
5 4 2 1 3
1 2 5 4 3
4 2 5 1 3
1 5 4 3 2
4 5 3 1 2
4 2 1 5 3
1 2 5 4 3
3 4 5 2 1
4 2 1 5 3
2 3 1 5 4
5 1 3 2 4
1 5 2 3 4

13
qmikv1
hfiil2
mtmoz3
esocr4
cudhs5
fexzz6
lcejy7
ifzdm8
qvyls9
zmhxt10
fqbke11
ydvov12
dmomn13
9 3 7 1 12 4 13 10 5 2 6 11 8
9 11 7 13 5 3 1 4 2 8 10 6 12
6 9 5 7 11 13 12 1 8 4 2 3 10
12 4 6 10 11 9 2 3 7 8 13 5 1
12 7 3 2 8 9 4 10 5 13 6 1 11
9 11 12 4 7 5 3 8 6 2 1 13 10
5 13 7 2 9 11 12 8 4 3 1 6 10
6 10 2 12 11 8 7 13 9 5 3 1 4
4 7 6 2 1 13 3 5 11 10 9 12 8
7 2 9 3 13 6 4 11 5 12 10 1 8
11 2 7 6 1 12 8 5 4 13 9 3 10
6 4 8 13 12 10 1 5 7 2 9 11 3
3 11 9 1 5 10 2 7 13 6 8 12 4
9 4 11 7 3 5 10 2 6 13 12 8 1
7 9 10 6 11 3 4 13 2 8 1 12 5
11 6 10 3 1 7 5 2 9 12 13 4 8
1 3 9 13 2 7 4 8 5 10 11 12 6
5 11 1 7 3 4 9 6 8 10 12 2 13
9 6 2 8 1 5 10 11 4 13 12 7 3
3 5 11 8 9 1 13 6 10 12 2 7 4
4 13 6 10 9 2 7 8 1 11 3 12 5
8 1 4 2 5 7 6 9 13 12 11 3 10
3 11 6 4 13 5 12 1 7 2 9 8 10
5 4 11 6 3 13 7 2 8 9 10 12 1
3 5 8 9 6 10 4 2 13 7 11 1 12
13 1 9 11 7 3 10 4 12 8 2 6 5
12 2 3 13 11 5 4 10 9 8 1 6 7
12 4 3 13 9 10 5 1 2 7 6 11 8
7 4 9 12 10 5 1 6 13 8 2 11 3
1 12 7 3 6 10 11 8 4 13 5 9 2
13 7 5 9 2 1 8 4 3 12 10 6 11
13 10 5 12 8 2 11 1 4 7 9 6 3
7 3 6 12 1 11 5 13 9 8 4 2 10
8 12 11 10 6 13 4 9 7 2 3 5 1
2 9 4 13 12 7 1 3 10 6 11 5 8
4 2 6 3 7 5 8 9 10 1 11 12 13
2 10 1 6 4 11 7 12 8 9 13 5 3
11 6 2 9 3 12 8 4 10 7 1 5 13
1 9 6 8 3 13 4 10 12 2 5 11 7
3 10 1 11 2 13 4 7 8 12 5 6 9
12 3 4 2 6 8 1 13 7 9 5 11 10

3
rhdyq1
cdpzo2
yzrki3
2 1 3
1 2 3
3 2 1
2 1 3
1 3 2
1 3 2
3 2 1
1 2 3
3 1 2
3 1 2
3 2 1
1 3 2
3 2 1
3 1 2
2 3 1
1 3 2
1 3 2
1 2 3
1 2 3
2 1 3
2 3 1
1 3 2
2 3 1
2 1 3
3 1 2
3 2 1
3 1 2
3 1 2
3 1 2
2 1 3
2 3 1
1 2 3
1 2 3
1 2 3
1 3 2
1 2 3
1 3 2
1 3 2
1 2 3
2 1 3
1 3 2
3 2 1
2 1 3
3 2 1
1 2 3
2 3 1
2 3 1

15
iwsjb1
uhbjc2
emvfx3
tvzzd4
eyrgj5
arffs6
vsbyk7
znqct8
pyzkw9
vamrn10
fpbkf11
vtsrl12
hwzxl13
ntvsk14
jnfsw15
13 5 1 4 12 11 15 3 9 8 10 7 14 6 2
2 9 1 15 8 14 12 5 7 10 4 13 3 11 6
14 7 12 10 9 4 1 11 3 2 8 5 13 15 6
1 3 10 15 8 2 5 12 11 14 13 4 6 7 9
2 9 13 15 8 12 1 11 10 4 14 3 7 5 6
4 6 13 9 11 12 2 15 8 14 1 5 10 3 7
6 9 2 7 13 1 10 3 14 12 11 5 8 4 15
7 1 2 3 11 5 10 8 9 12 6 13 4 15 14
4 5 13 10 6 14 8 12 7 15 2 1 3 9 11
1 6 8 2 7 15 12 4 10 13 11 9 3 14 5
11 15 14 12 7 8 10 2 4 6 3 5 9 13 1
5 4 12 11 2 10 3 15 13 8 1 6 14 7 9
11 4 13 8 15 2 12 3 6 7 1 9 14 10 5
2 12 15 14 6 5 10 7 13 1 4 3 8 11 9
5 3 9 13 10 15 14 7 1 11 2 8 6 4 12
13 4 6 10 2 11 8 9 7 12 3 1 15 5 14
13 1 6 12 4 5 9 10 3 7 8 14 11 15 2
3 9 2 7 1 15 8 5 4 6 10 14 11 13 12
6 3 1 10 2 4 9 8 12 15 5 14 11 13 7
7 10 2 4 15 1 8 5 3 14 13 12 11 9 6
12 7 1 9 4 13 15 14 6 8 5 11 3 2 10
9 15 3 6 14 7 4 8 1 12 5 2 13 11 10
7 15 9 11 6 14 13 1 10 4 3 5 2 12 8
12 14 4 1 9 13 2 6 5 15 3 10 11 8 7
5 10 8 4 14 13 7 3 11 1 9 6 2 15 12
8 3 7 10 14 4 6 9 13 1 2 11 15 12 5
13 1 8 14 12 11 2 6 9 7 15 4 5 3 10
11 7 5 15 12 4 14 2 9 3 13 6 10 8 1
1 15 5 3 13 9 14 2 12 6 10 7 4 11 8
9 10 13 5 3 15 2 14 6 12 11 1 7 8 4
7 13 6 3 1 5 14 9 4 12 10 15 11 8 2
9 15 4 14 12 6 7 13 1 11 10 5 3 8 2
3 9 14 4 10 6 7 15 8 1 12 13 5 11 2
2 15 5 9 12 8 1 3 13 7 10 11 4 14 6
3 4 14 13 2 7 12 9 11 5 15 10 6 1 8
5 8 1 14 15 13 4 9 2 12 10 6 7 11 3
4 3 6 11 2 13 15 9 14 10 7 5 12 8 1
3 7 12 8 10 15 13 4 6 14 9 1 5 11 2

11
cdxmb1
iyoje2
kdpbc3
tyjyq4
ymlcc5
pmvyv6
rjxoi7
elghv8
nrgsg9
zvjsg10
pdspj11
10 9 8 2 6 1 7 4 3 11 5
7 10 8 4 2 6 5 3 1 11 9
9 4 6 3 8 7 10 5 11 2 1
1 4 3 7 8 10 9 2 11 6 5
7 8 1 11 3 6 2 4 5 9 10
6 1 10 2 11 5 9 3 7 4 8
8 7 11 6 1 9 2 5 4 3 10
4 11 6 7 10 5 2 3 9 8 1
4 9 7 10 6 3 2 5 11 1 8
8 2 7 3 9 4 10 6 1 11 5
1 3 6 8 5 7 11 9 10 4 2
8 10 6 4 1 2 9 3 5 7 11
11 2 7 3 8 9 5 4 6 10 1
2 8 1 7 9 4 10 3 5 11 6
8 9 5 10 2 1 3 11 6 4 7
7 5 3 6 9 1 4 2 10 8 11
10 5 2 6 4 3 1 7 8 11 9
1 10 2 8 3 11 6 5 4 7 9
4 9 8 5 6 10 1 3 7 11 2
2 8 10 3 5 7 9 11 4 6 1
3 5 4 7 11 1 8 6 9 10 2
2 3 6 11 7 9 10 5 1 4 8
1 10 4 6 5 3 2 11 7 8 9
8 3 4 1 9 2 7 10 6 11 5
11 4 7 10 6 3 1 9 8 2 5
8 4 2 6 10 7 11 3 1 5 9
8 2 5 11 3 9 7 1 6 4 10
7 5 2 3 9 6 8 10 11 1 4
11 3 9 1 7 2 4 10 6 5 8
10 6 5 8 1 9 7 4 3 11 2
9 6 11 8 7 3 5 10 1 2 4
8 10 4 2 5 6 1 7 11 3 9
1 9 11 3 10 2 6 5 7 8 4
8 6 2 3 7 5 11 10 9 4 1
11 8 6 2 4 3 7 9 10 1 5
5 1 9 10 7 3 8 11 4 6 2
10 11 4 6 3 2 5 7 1 8 9
3 7 11 2 4 10 1 6 5 9 8
4 8 11 5 2 9 1 10 6 3 7
5 11 8 7 9 6 1 10 2 3 4
4 2 6 5 7 8 11 10 9 3 1
11 2 1 10 3 5 7 4 9 6 8
5 10 1 8 6 4 9 3 2 7 11
4 9 5 10 7 11 8 2 1 3 6
7 2 3 11 10 6 1 4 8 9 5

15
ksnwp1
kezvj2
epigg3
mfieo4
tkjbe5
wzwod6
mnlyu7
ryxwr8
bylqo9
ybuyq10
fdaym11
hnvrk12
girzl13
smbyb14
qkhst15
10 2 15 4 3 12 1 5 11 7 6 14 8 9 13
14 5 2 3 13 9 11 10 8 15 4 12 6 7 1
1 8 4 7 14 2 10 5 11 13 3 9 15 12 6
1 3 13 11 2 10 5 8 12 9 14 7 15 6 4
14 12 4 11 5 3 10 2 8 13 9 6 15 1 7
4 13 12 8 9 14 6 11 15 5 10 2 1 7 3
7 3 14 11 10 8 5 12 6 2 9 1 4 13 15
14 3 15 11 6 9 10 8 2 7 1 5 12 13 4
11 12 3 5 2 15 7 9 10 1 4 6 8 14 13
6 3 5 8 11 1 7 9 4 10 14 2 13 12 15
14 10 6 4 15 3 1 5 9 8 12 11 13 7 2
11 15 6 7 8 3 14 4 2 10 12 5 1 13 9
15 7 11 13 4 14 5 1 3 2 8 9 12 10 6
3 14 13 1 4 8 10 9 7 15 12 2 5 11 6
4 14 9 2 11 8 6 3 13 12 7 1 5 15 10

5
mbbpj1
bprfs2
xclqd3
hlpok4
wxbbx5
4 1 5 3 2
3 1 5 4 2
3 4 5 1 2
1 3 5 2 4
2 5 4 3 1
5 1 3 4 2
2 1 4 3 5
3 4 1 2 5
3 4 5 2 1
3 1 2 4 5
1 2 4 5 3
1 4 3 5 2
5 1 2 3 4
3 1 2 4 5
3 2 1 4 5
1 5 4 3 2
5 1 4 3 2
4 5 1 2 3
5 2 1 4 3
1 3 5 2 4
3 2 1 4 5
5 1 2 3 4
4 5 2 1 3
5 4 2 3 1
5 2 4 1 3
2 4 5 1 3
5 4 2 1 3
3 5 4 1 2
3 1 2 4 5
4 2 5 1 3
5 2 3 4 1
3 5 4 2 1
5 3 2 1 4
4 1 2 5 3
3 4 5 2 1
3 1 5 4 2
5 1 2 4 3
5 2 3 4 1
1 5 2 3 4
4 3 2 5 1
5 1 4 3 2
1 5 2 3 4
4 3 5 2 1
3 4 2 5 1
2 3 5 1 4
4 3 2 5 1
3 1 4 2 5
1 4 3 5 2
2 5 1 3 4

8
jhpbc1
stnjl2
pybdq3
hxszs4
bwbpb5
cdqif6
matrt7
nvksp8
1 3 7 6 4 8 2 5
6 3 4 1 5 2 8 7
5 6 4 7 2 8 3 1
1 8 4 7 3 6 2 5
3 8 4 2 6 5 7 1
6 7 4 1 2 8 3 5
3 2 1 7 8 5 6 4
6 4 2 1 8 5 7 3
1 3 8 7 4 6 5 2
6 2 5 1 7 3 4 8
8 4 5 2 3 7 1 6
2 4 1 6 3 5 8 7
6 5 8 7 3 4 2 1
3 1 5 8 6 4 2 7
6 5 1 8 7 3 2 4
2 5 1 4 8 3 7 6
1 7 4 6 2 3 8 5
1 6 4 3 8 5 7 2
3 7 1 6 2 4 8 5
8 5 2 1 6 4 3 7
3 7 4 8 2 5 1 6
8 2 7 1 3 4 5 6
4 2 7 1 6 3 8 5
2 4 1 6 8 3 7 5
2 3 7 8 1 5 6 4
4 3 1 7 8 6 2 5
3 4 2 5 6 8 1 7
6 8 1 3 4 7 2 5
3 6 8 7 1 5 4 2
6 4 8 3 2 1 7 5
4 1 8 2 5 3 7 6
4 5 3 2 7 6 8 1
7 2 6 8 5 4 3 1
6 2 1 5 7 4 3 8
8 2 3 7 1 4 5 6

11
oyskc1
cmtcy2
nawum3
dfmre4
kptgn5
sjbvi6
cdkpl7
rcakq8
qyupm9
fmxgm10
eknon11
7 1 11 8 4 5 10 9 3 2 6
4 3 6 8 9 10 11 5 1 2 7
11 1 5 2 4 3 7 10 6 8 9
8 6 1 2 4 11 3 5 9 7 10
6 8 5 10 11 9 7 1 2 4 3
1 4 2 5 8 9 10 7 3 11 6
7 11 4 1 3 10 6 9 2 8 5
8 2 4 1 6 11 3 5 9 10 7
9 3 8 1 2 4 11 7 5 10 6
1 4 2 10 7 6 11 3 8 5 9
2 11 7 8 3 6 5 9 10 1 4
1 4 7 5 11 6 2 9 8 10 3
9 2 4 11 1 5 3 6 8 10 7
8 5 7 1 11 4 9 2 6 10 3
11 9 10 4 2 6 5 1 8 7 3
5 10 6 8 9 7 1 3 11 2 4
3 2 6 11 10 4 1 7 8 9 5
6 11 2 1 8 4 9 5 10 7 3
6 10 2 4 1 7 3 9 11 5 8
2 10 1 7 3 8 11 4 6 5 9
4 3 10 9 7 6 8 5 1 2 11
7 5 4 8 3 2 9 6 11 1 10
9 7 4 6 10 3 5 1 11 2 8
5 7 1 9 2 3 11 6 10 8 4
6 5 4 9 7 1 10 11 3 2 8
4 6 2 9 7 3 8 11 10 1 5
3 10 6 8 5 1 11 9 7 4 2
7 3 9 2 11 5 4 1 10 8 6
2 5 9 6 1 11 8 10 7 4 3
5 8 1 2 11 7 6 10 3 9 4
10 11 4 6 2 5 8 9 7 1 3
4 6 8 3 1 11 9 10 2 7 5
3 5 10 4 2 6 9 7 8 11 1

13
fcsnf1
ybzju2
ixfhk3
hayii4
qgmkw5
spoyc6
mqmbd7
areva8
rzrns9
lmdtg10
xzxae11
hcqwx12
xxhwx13
3 7 13 11 2 9 4 5 12 8 1 10 6
12 10 7 4 3 8 13 6 1 5 9 2 11
5 10 11 7 4 3 9 13 2 1 8 12 6
5 13 4 6 8 10 11 7 12 1 9 2 3
3 1 10 5 13 9 12 11 7 4 8 6 2
12 13 11 2 9 7 1 6 10 3 8 5 4
11 6 4 2 13 3 8 9 7 5 10 1 12
8 6 9 1 12 7 2 4 11 10 13 5 3
1 3 10 12 7 13 6 8 4 2 5 11 9
12 9 6 10 8 1 5 7 13 4 2 3 11
7 13 3 1 8 6 5 11 10 2 12 9 4
10 1 4 6 13 9 2 11 8 3 12 5 7
10 1 7 13 3 5 4 8 12 6 11 9 2
1 2 9 13 8 6 4 10 5 3 11 7 12
12 6 4 2 9 5 3 13 10 7 11 1 8
8 10 1 4 13 12 5 6 3 2 7 11 9
7 8 9 5 10 11 12 13 4 6 3 2 1
13 6 12 7 3 10 11 9 2 8 5 1 4
8 6 7 13 12 2 11 4 3 1 9 5 10
2 6 13 7 5 10 8 4 12 3 9 11 1
3 1 6 11 9 7 5 10 4 8 12 13 2
11 8 13 10 7 9 1 3 6 12 4 5 2
11 6 7 9 12 4 1 8 3 2 10 5 13
7 1 9 5 4 11 13 12 8 2 6 10 3
13 7 5 12 9 1 4 10 8 6 2 11 3
1 7 4 6 10 11 13 8 9 5 12 3 2
3 8 9 5 2 11 13 6 7 10 12 1 4
13 4 11 9 3 12 1 5 7 8 6 10 2
9 3 10 5 13 8 1 2 4 12 6 11 7
12 1 3 11 2 5 6 9 13 10 4 8 7

1
ekbbu1
1
1
1
1
1
1

10
kpxsn1
scbve2
wpnrw3
ojwls4
jutii5
ujnqh6
xlfiq7
fyidv8
wjhnf9
tybjj10
3 2 4 8 9 1 7 10 6 5
4 6 2 8 10 9 3 1 7 5
2 4 6 7 9 1 10 8 5 3
6 8 5 7 1 3 2 9 4 10
10 1 7 8 4 9 5 3 2 6
8 2 1 3 5 6 9 10 4 7
10 3 9 2 7 8 4 6 1 5
9 1 4 6 2 5 10 3 8 7
2 6 7 5 8 10 4 9 3 1
8 6 5 4 7 3 10 1 2 9
2 3 5 1 9 4 10 8 7 6
4 3 1 2 10 9 6 7 5 8
5 7 8 2 4 6 9 3 10 1
8 7 3 6 9 2 1 10 4 5
2 10 7 6 1 9 8 4 5 3
9 8 1 6 10 7 2 4 5 3
4 2 7 6 5 3 8 1 10 9
7 1 5 6 9 8 2 10 4 3
3 9 5 7 1 2 8 6 4 10
5 7 3 2 1 4 8 6 10 9
5 4 1 8 2 7 10 3 9 6
2 5 9 3 4 6 1 7 8 10
1 3 10 2 4 6 5 7 9 8
6 5 4 3 1 7 8 2 10 9
7 10 3 8 6 5 4 1 2 9
1 6 5 8 7 9 10 2 3 4
1 5 7 2 9 6 4 3 8 10
6 9 10 8 5 4 2 3 1 7
5 8 6 1 2 9 3 7 4 10
8 9 3 4 5 7 6 2 10 1
8 7 6 2 4 5 3 9 1 10
7 6 9 1 4 10 5 3 2 8
6 2 4 8 1 5 10 9 3 7
1 6 8 10 5 9 4 7 3 2
10 4 2 8 1 6 9 7 5 3
10 2 8 7 6 5 3 9 1 4
3 8 7 2 10 4 1 6 5 9
4 5 10 8 3 2 6 1 7 9
3 10 9 1 4 6 7 2 8 5
2 10 1 5 4 7 6 3 8 9
7 10 6 5 4 1 8 3 9 2
8 3 9 10 7 1 4 6 2 5
5 6 4 10 2 1 3 8 7 9
10 4 1 8 2 6 5 3 7 9
3 8 5 1 7 9 6 2 4 10
4 10 1 3 2 6 8 9 7 5
9 5 1 8 7 10 4 3 6 2
1 9 6 3 10 5 7 2 4 8
5 8 7 1 6 4 3 9 10 2

15
zwriv1
bfppo2
mspft3
nyyhl4
eyxct5
bhsnl6
jujdl7
tadqe8
ugook9
ukcns10
qataf11
lubzq12
mtwai13
uzjaj14
gjchr15
4 10 12 1 3 13 9 2 15 5 7 11 14 6 8
5 6 3 4 11 9 14 7 8 12 2 10 15 13 1
14 3 1 13 2 8 7 15 6 5 4 11 9 12 10
12 7 11 4 5 2 1 13 10 15 6 9 3 14 8
5 6 4 8 7 1 3 15 13 11 10 2 9 14 12
3 13 6 1 8 9 12 14 15 7 2 11 10 4 5
1 2 7 11 9 13 10 6 12 4 5 3 8 14 15
2 6 12 14 4 5 8 13 3 15 9 11 7 1 10
1 2 9 3 8 11 15 12 4 14 7 5 13 6 10
15 6 5 3 2 4 13 1 12 14 7 11 8 10 9
10 14 11 12 7 9 5 13 1 4 15 3 6 8 2
2 4 5 6 10 13 14 15 1 8 11 3 7 9 12
9 12 2 7 4 15 13 6 14 5 10 1 8 11 3
5 14 13 4 8 3 2 15 11 6 10 7 1 9 12
3 9 15 4 14 6 1 5 11 8 12 2 7 10 13
15 9 2 3 5 8 13 6 4 14 1 10 11 7 12
15 10 1 2 5 8 13 11 14 6 4 12 9 7 3
7 8 15 13 6 3 1 9 2 4 14 11 10 5 12
11 2 6 1 5 12 9 10 4 14 15 7 13 3 8
13 1 9 7 2 4 14 12 5 11 10 8 6 3 15
4 6 9 15 14 5 3 12 8 11 7 10 2 13 1
10 3 11 5 4 9 2 1 15 6 8 13 7 12 14
4 11 13 5 6 1 3 15 9 2 10 14 7 8 12
5 11 2 13 12 9 14 7 4 15 6 8 1 3 10
11 1 12 14 7 5 3 2 8 13 6 10 15 9 4
12 9 13 2 10 6 11 1 5 4 3 8 7 15 14
9 8 11 1 12 4 10 6 2 14 3 13 7 5 15

4
ihdwl1
cwefs2
kuvhr3
kyzhx4
4 3 1 2
4 1 2 3
2 4 3 1
4 3 2 1
1 3 2 4
4 2 1 3

7
cqalp1
jpkpv2
byfre3
wyfnp4
dahlw5
zjlkv6
kwmyp7
3 5 1 4 7 6 2
4 1 7 3 6 5 2
4 5 7 6 2 1 3
6 7 4 5 1 3 2
2 7 4 3 1 5 6
5 4 2 6 1 7 3
7 4 2 3 6 5 1
5 1 3 2 6 4 7
1 2 3 6 5 7 4
4 3 7 5 6 2 1
4 1 7 5 3 2 6

9
gmfai1
iqaty2
zhixw3
czlyp4
llfld5
iwdux6
mhikl7
ddadj8
llmzt9
6 3 5 7 8 9 1 2 4
4 1 7 6 8 2 5 3 9
2 7 4 5 6 8 9 1 3
9 5 3 6 4 8 2 1 7
8 4 1 9 6 5 3 2 7
3 5 7 1 4 6 8 2 9
9 5 7 8 3 6 4 1 2
3 4 5 9 7 2 6 1 8
4 7 8 3 1 5 6 2 9
7 8 1 9 2 6 4 5 3
9 1 8 3 2 7 4 5 6
6 4 1 3 9 2 5 8 7
1 3 9 2 6 7 5 4 8
9 7 2 1 3 4 6 8 5
7 8 9 3 2 4 6 5 1
1 3 7 8 9 2 5 4 6

10
yqmgy1
novco2
kjbbx3
shljg4
dkzhl5
oashv6
crppo7
uepix8
yylbh9
ebkti10
5 2 10 6 4 9 3 8 7 1
7 9 8 10 4 3 6 5 1 2
2 6 8 9 5 1 7 3 4 10
10 3 4 9 7 5 8 2 1 6
4 7 8 9 10 5 2 1 3 6
9 10 1 5 7 8 4 3 6 2
3 2 1 6 7 8 4 9 10 5
7 3 9 8 4 5 2 1 6 10
9 7 5 6 4 2 3 1 10 8
7 2 4 3 6 10 9 8 1 5
4 8 1 6 9 7 3 2 5 10
7 9 4 3 5 6 8 2 10 1
10 5 7 8 9 4 2 6 1 3
9 2 7 4 3 6 8 5 10 1
10 3 1 6 4 8 7 5 2 9
4 5 7 3 10 9 1 8 6 2
5 4 9 10 6 2 7 8 3 1
5 4 10 7 1 6 9 3 2 8
1 9 6 4 7 3 8 2 10 5
8 3 6 4 1 9 7 10 2 5
2 10 3 1 5 9 8 6 4 7
9 10 5 4 6 7 3 2 1 8
10 9 1 7 4 8 6 5 2 3
3 9 2 4 7 10 8 5 1 6
9 10 5 3 4 1 7 6 2 8
8 10 4 2 1 7 9 3 5 6
8 10 4 2 1 5 3 6 9 7
4 9 7 3 5 6 2 1 8 10
10 3 8 6 9 5 4 1 7 2
9 8 5 4 7 3 1 6 10 2
4 7 6 10 1 2 8 9 5 3

12
yqlge1
fgqft2
eqhvb3
umutt4
yprdg5
cqdrp6
emxzk7
npxfv8
rjije9
plvkc10
yophu11
hgxux12
11 7 1 6 9 2 3 5 8 4 12 10
6 12 2 10 4 8 1 11 3 9 7 5
1 7 4 9 2 3 11 5 12 8 10 6
7 1 4 10 11 12 6 5 2 9 3 8
1 12 6 4 8 10 7 3 9 11 5 2
2 3 12 1 4 6 10 11 9 5 8 7
3 12 11 4 2 10 7 6 8 9 1 5
10 7 1 11 4 9 8 12 5 3 6 2
6 8 1 2 11 5 10 9 4 12 7 3
7 10 12 6 4 11 2 3 5 9 8 1
1 2 10 11 3 8 6 9 7 4 5 12
4 3 11 5 8 12 6 7 1 2 10 9
1 4 9 10 8 7 5 11 2 12 3 6
5 10 3 9 1 2 4 12 7 11 8 6
12 11 8 1 6 4 9 3 5 10 2 7
7 11 9 1 10 5 6 12 8 4 3 2
6 12 9 7 2 11 8 1 5 4 3 10
9 8 5 2 1 10 6 12 11 4 7 3
1 6 7 5 2 4 11 9 12 10 8 3

4
mkpev1
hpxee2
ovuce3
ykkbb4
2 4 1 3
1 4 3 2
4 1 2 3
1 4 2 3
4 3 1 2
2 3 4 1
1 3 2 4
2 4 1 3
1 2 3 4
3 1 4 2
4 1 2 3
4 1 2 3
3 1 4 2
3 1 2 4
2 4 3 1
1 2 4 3
4 1 3 2
4 1 2 3
1 4 3 2
4 2 1 3
2 4 1 3
4 2 1 3
3 2 1 4
1 3 2 4
3 2 4 1
2 1 3 4
1 4 3 2
4 2 3 1
1 2 4 3
1 3 2 4
4 2 1 3
2 4 3 1
4 1 2 3
3 1 4 2
1 2 3 4
3 2 1 4
3 1 2 4

1
llyxf1
1
1
1
1
1
1
1
1
1
1
1
1
1
1
1

13
llvpy1
rxefg2
vxwye3
rjrwj4
lzkhq5
rybqt6
lfqyk7
bqalc8
tfbdc9
nkban10
hpwfa11
muotf12
fegan13
12 2 13 4 1 9 6 7 5 10 8 11 3
3 1 8 10 7 12 2 4 5 13 11 6 9
5 3 9 1 2 8 11 6 4 12 7 13 10
3 4 11 1 6 7 8 5 12 10 2 13 9
12 6 10 3 9 5 7 13 11 1 8 4 2
1 8 11 2 3 4 7 10 6 5 12 9 13
12 3 4 8 9 7 2 6 13 5 1 11 10
10 13 11 1 3 12 8 6 2 7 4 9 5
12 11 10 5 3 8 9 4 13 7 1 2 6
9 4 7 1 10 13 11 2 8 12 3 5 6
9 11 7 3 10 2 4 6 5 13 1 8 12
9 8 2 5 11 6 12 7 13 3 1 10 4
7 1 4 3 13 9 8 6 2 11 12 10 5
10 11 6 4 8 1 3 5 12 7 13 9 2
3 10 12 8 6 9 4 7 5 2 1 11 13
2 1 11 13 4 10 12 6 8 5 9 7 3
9 1 11 3 13 8 10 5 7 2 4 12 6
2 9 11 10 3 6 5 12 8 13 7 1 4
2 10 9 13 7 8 4 12 1 5 3 6 11
4 11 6 9 1 8 2 3 12 10 5 13 7
9 3 6 4 7 8 13 1 5 2 10 11 12
6 9 4 11 1 12 3 13 2 5 8 7 10
8 1 12 3 5 2 4 9 13 10 11 6 7
6 9 1 5 4 7 10 8 12 13 3 11 2
1 11 9 4 13 12 2 8 10 3 6 7 5

5
evzbb1
tetvq2
svvuy3
wxyji4
qgcwu5
4 3 5 2 1
3 1 5 2 4
3 5 2 1 4
4 2 1 3 5
1 5 4 3 2
5 3 2 4 1
3 5 1 2 4

10
anirs1
ehjrw2
bnswp3
veyqv4
pkkgs5
minue6
dbcrr7
dozrm8
tkrzs9
toyky10
9 3 7 5 1 8 4 10 6 2
5 3 6 7 4 1 9 10 8 2
9 10 4 3 2 6 8 5 7 1
9 10 1 3 2 6 7 4 5 8
9 7 1 5 2 8 6 3 4 10
10 9 3 5 8 1 4 6 2 7
6 2 3 7 5 8 4 9 1 10
4 5 6 7 10 3 1 9 8 2
4 3 2 10 6 5 9 8 7 1
1 6 2 3 8 4 5 7 10 9
1 6 4 5 7 10 8 9 2 3
7 3 9 2 1 6 10 4 8 5
7 8 1 10 5 3 4 9 6 2
7 4 1 3 8 6 10 9 5 2
8 6 5 7 2 9 1 3 4 10
8 5 1 2 3 9 7 10 4 6
4 6 10 5 9 8 3 2 7 1
10 3 2 4 1 6 9 7 8 5
5 1 8 3 2 10 7 4 6 9
1 2 4 9 8 10 3 7 6 5
7 10 6 4 9 8 2 5 3 1

13
nbqac1
adeen2
ydntv3
swsor4
qrqrd5
vfiem6
gniko7
fngbd8
cuzbs9
zoxxp10
iocrj11
jrclc12
djqjg13
1 7 10 4 11 8 12 2 6 5 3 9 13
11 1 4 13 9 2 6 10 5 7 12 8 3
2 13 9 10 8 12 3 4 1 6 11 7 5
9 6 13 2 11 4 10 8 5 12 1 7 3
12 8 6 10 2 1 7 9 11 13 4 3 5
5 4 6 8 13 11 3 9 7 2 1 10 12
4 1 10 3 8 2 13 6 5 7 9 11 12
4 11 3 13 1 5 10 7 8 6 12 9 2
3 12 13 7 4 8 2 10 5 11 6 1 9
13 2 11 8 7 9 4 1 3 12 6 10 5
1 13 3 6 9 5 2 8 11 12 7 10 4
7 2 3 8 5 9 4 12 1 11 10 13 6
11 3 9 13 10 2 5 1 7 4 6 12 8
9 5 1 2 10 4 13 6 8 11 3 7 12
6 4 13 11 3 12 9 2 10 7 5 1 8
2 4 5 7 13 3 1 9 10 11 8 6 12
12 2 1 5 4 13 6 3 11 7 9 10 8
12 9 13 5 4 3 11 10 1 7 2 8 6
13 1 6 8 3 9 7 12 4 11 2 5 10
9 6 4 11 1 8 3 12 5 10 13 2 7
11 13 2 7 4 8 6 9 5 10 3 1 12
9 6 3 8 5 1 2 7 13 12 11 10 4
13 1 8 9 2 3 4 12 11 6 7 10 5
10 13 11 9 12 2 4 8 6 1 5 3 7
7 4 6 2 9 10 11 13 8 12 3 5 1
13 11 5 1 12 7 4 10 9 2 6 3 8
5 1 13 12 10 11 9 8 4 2 6 3 7
13 3 8 12 5 10 7 9 4 6 11 2 1

3
swjjk1
ededx2
hsulo3
3 1 2
3 1 2
3 1 2
2 1 3
2 3 1
3 2 1
1 3 2
1 2 3
2 1 3
2 1 3
1 2 3
1 3 2
3 2 1
1 2 3
3 2 1
3 2 1
1 2 3
1 3 2
3 1 2
2 3 1
2 3 1
2 3 1
3 1 2
2 3 1
3 1 2
2 3 1
1 2 3
2 1 3
2 1 3
3 1 2
3 1 2
2 1 3
2 3 1
3 1 2
2 1 3
2 3 1
2 1 3
1 3 2
3 2 1
2 3 1
2 3 1
2 3 1

13
oknlc1
ypfqy2
rgmyl3
aikwc4
wredx5
xnawy6
zlops7
ibmpk8
fxpzg9
hfhzv10
bcpfm11
pycmb12
dnyvb13
11 9 13 3 4 8 1 10 2 12 5 7 6
2 1 5 6 4 13 11 12 9 8 10 7 3
12 3 7 5 11 2 10 13 9 1 8 4 6
5 11 13 4 10 6 1 3 2 9 12 8 7
6 2 11 1 7 8 5 12 4 9 10 13 3
9 7 8 11 6 2 10 5 13 12 4 3 1
12 11 3 4 5 6 10 9 1 2 13 8 7
6 11 13 9 2 1 4 8 3 12 10 5 7
7 10 1 13 9 3 5 12 11 4 6 2 8
5 2 7 10 3 13 6 9 11 8 1 4 12
12 8 3 7 6 2 1 5 10 13 4 9 11
9 1 2 6 5 7 10 12 3 4 11 8 13
1 11 7 4 3 13 2 9 10 8 5 6 12
8 13 1 5 4 12 6 10 2 7 11 3 9
13 8 12 11 1 6 3 10 4 9 2 7 5
7 13 5 1 12 10 3 2 6 11 9 4 8
13 2 7 6 10 5 9 3 4 1 8 12 11
10 6 1 5 12 7 4 11 2 3 9 13 8
1 10 4 9 6 7 11 12 2 3 8 13 5
11 12 10 2 6 9 4 3 5 8 13 1 7
6 12 4 13 9 7 5 10 11 1 3 2 8
12 4 9 1 13 10 11 3 8 7 6 5 2
11 7 10 4 13 8 3 5 12 2 6 1 9
5 12 4 6 9 1 2 7 13 11 3 10 8
4 11 13 1 6 3 12 8 2 10 9 5 7
3 11 7 13 1 10 2 12 6 8 5 4 9
2 13 4 6 8 10 1 5 9 12 11 3 7
12 11 6 7 4 2 8 1 3 5 10 13 9
10 5 1 12 8 9 7 4 2 3 13 6 11
9 13 4 10 2 5 8 7 6 12 3 11 1
4 13 9 11 2 5 12 3 10 1 7 6 8
1 3 10 7 5 4 12 8 9 2 6 13 11
3 13 12 2 1 5 8 6 7 11 4 9 10
3 1 12 10 4 5 11 6 8 9 13 2 7
13 3 8 2 1 11 12 10 9 4 7 6 5
1 12 11 9 13 4 8 10 5 6 3 2 7
6 13 5 1 2 11 8 4 9 3 7 10 12
13 7 8 11 4 2 10 5 6 1 12 9 3
7 2 3 9 4 13 5 11 8 6 10 12 1
13 11 3 7 10 6 4 1 2 5 12 9 8
8 7 9 11 12 6 13 1 2 3 10 5 4
7 13 10 4 9 1 5 6 8 12 11 3 2
9 7 2 13 5 12 10 11 1 3 8 4 6
4 10 13 8 3 6 11 7 9 2 5 1 12
1 9 11 8 13 7 12 2 10 6 4 3 5
8 10 2 4 12 9 13 3 7 1 11 6 5
11 7 12 6 8 5 2 1 10 13 9 3 4

3
ylfmg1
stdug2
uonqz3
3 2 1
2 1 3
3 2 1
3 1 2
3 1 2
2 1 3
3 1 2
1 2 3
3 2 1
1 3 2
2 3 1
1 2 3
3 1 2
3 1 2
3 1 2
1 3 2
2 3 1
3 2 1
3 2 1
2 1 3
2 3 1
2 3 1
3 2 1
2 3 1
1 3 2
3 1 2
1 2 3
1 2 3
1 2 3
3 1 2
1 3 2
2 3 1
1 3 2
1 3 2
3 1 2
2 3 1
2 1 3
1 2 3
2 3 1
1 3 2
2 1 3
3 2 1
1 2 3

12
trbhp1
trfaw2
ycxvl3
gxfdu4
lxwht5
fbinc6
elrxo7
allab8
uhclb9
twjcf10
dxeun11
sqrez12
10 1 5 7 11 2 4 3 8 12 6 9
1 2 7 10 4 9 5 8 12 3 11 6
8 7 1 2 10 4 12 6 11 9 5 3
3 5 12 10 6 7 2 9 4 11 8 1
10 12 8 4 2 5 9 11 1 6 7 3
6 12 11 10 8 2 7 9 3 1 5 4
10 6 12 1 3 4 5 8 11 7 9 2
6 4 11 8 12 2 1 5 9 3 7 10
8 12 4 10 11 3 5 9 2 6 7 1
10 3 12 5 2 9 1 4 7 6 11 8
3 4 9 11 10 6 1 8 2 12 5 7
6 12 4 3 11 10 2 9 1 8 7 5
1 2 5 9 12 7 8 3 4 11 6 10
4 3 6 11 1 8 10 2 12 5 9 7
2 10 6 8 5 9 1 12 11 3 7 4
5 8 9 2 1 3 10 12 4 6 11 7
9 3 5 8 2 4 10 7 1 6 11 12
5 3 2 10 11 1 4 8 6 12 7 9
4 5 10 2 9 8 3 1 6 12 11 7
12 9 1 6 8 7 10 3 5 11 4 2
11 6 7 3 1 10 2 4 5 8 9 12
1 5 12 6 3 7 4 9 2 8 10 11
5 3 10 4 2 1 9 12 6 7 8 11
3 6 5 9 10 4 12 7 8 11 1 2
3 8 6 5 11 10 4 7 1 9 12 2
1 2 5 11 7 6 4 9 8 10 3 12
12 8 11 3 9 1 10 6 5 7 4 2
3 12 6 1 2 10 11 9 4 7 8 5
11 7 1 2 12 4 5 6 9 10 3 8
5 1 2 4 6 10 12 9 7 11 3 8
8 5 7 11 2 4 1 6 3 12 10 9
3 6 11 9 5 12 4 8 10 2 7 1
2 10 4 3 1 8 12 11 7 9 6 5
9 4 10 8 7 5 12 6 11 1 3 2
3 10 8 11 2 5 7 4 9 12 1 6
11 9 12 8 4 1 10 5 3 2 6 7
2 10 1 7 6 8 5 11 12 3 9 4
2 6 10 3 8 4 12 11 1 9 7 5
4 12 10 3 11 9 5 7 8 2 1 6
3 8 1 9 6 7 5 2 11 4 10 12

15
pruwx1
abotf2
ycbvb3
pvdei4
kurac5
hpjke6
hrcri7
usvtn8
egqfm9
lyuyy10
itbrf11
qivlj12
cckzu13
sylkw14
zsjjq15
3 2 6 7 9 15 13 14 5 12 8 1 11 4 10
2 9 5 10 3 4 1 13 7 11 15 8 6 14 12
8 7 6 3 12 13 15 11 1 14 10 2 9 4 5
1 5 4 3 2 6 15 12 7 11 13 14 10 9 8
14 5 11 15 7 3 12 9 13 8 6 2 1 4 10
2 14 11 1 8 9 3 15 5 13 10 4 7 12 6
9 4 12 3 2 11 6 7 5 1 14 13 15 10 8
7 3 10 13 14 8 9 6 12 15 2 5 1 11 4
10 3 11 8 2 5 15 7 14 12 13 6 4 9 1
13 9 1 11 15 8 5 6 7 12 14 2 10 3 4
11 5 7 12 14 2 9 10 3 8 13 4 1 6 15
12 1 15 13 5 3 6 10 8 7 11 14 4 9 2
6 9 1 14 15 12 13 8 11 2 4 10 7 3 5
15 14 8 1 12 3 4 7 5 2 13 11 6 10 9
3 9 2 12 14 7 5 15 1 8 11 13 6 10 4
13 5 1 8 2 12 6 14 10 9 4 7 11 3 15

9
vivxw1
wdkbn2
ezuwg3
vwooq4
bdegk5
zhdbg6
ttzec7
fyifi8
vcjfx9
3 6 2 8 5 1 7 9 4
7 3 8 5 1 6 2 9 4
7 3 5 1 8 6 9 4 2
5 6 4 7 1 8 3 9 2
2 8 7 6 9 1 3 5 4
8 3 1 4 7 6 9 5 2
5 8 9 3 4 2 6 7 1
1 6 8 2 3 4 9 7 5
1 3 9 2 7 6 8 4 5
3 1 7 8 2 6 5 4 9
7 8 3 1 6 5 4 9 2
8 5 1 3 7 9 2 4 6
5 9 3 4 2 1 8 7 6
4 3 5 9 2 7 6 8 1
4 7 2 6 3 1 8 5 9
8 1 4 7 2 3 5 6 9
1 4 5 8 2 9 7 6 3
1 6 7 3 2 5 4 8 9
7 4 9 2 6 5 1 3 8
8 2 5 1 6 4 9 7 3
1 3 6 8 2 9 7 4 5
7 4 6 3 2 9 1 8 5
9 1 6 8 7 4 5 3 2
2 7 3 4 8 9 5 1 6
6 8 1 7 5 2 3 9 4
9 5 4 8 6 3 1 2 7
4 6 3 2 9 8 5 1 7
4 2 3 8 5 9 1 7 6
7 1 8 5 2 6 4 3 9
1 4 3 6 8 5 7 9 2
2 6 5 8 1 3 9 7 4
5 8 2 1 3 4 9 7 6
7 5 1 8 2 3 6 9 4
1 7 4 5 6 3 8 2 9
9 1 4 6 3 5 2 8 7
3 4 6 9 7 8 2 1 5
5 7 4 8 2 1 6 9 3
1 2 9 4 6 5 7 3 8
7 6 3 1 8 4 5 9 2

10
tvegw1
ulytw2
sxhfw3
aigiz4
fbkfl5
nccvg6
bedhc7
zueup8
wmtxu9
ttqzl10
8 2 9 7 6 5 1 10 4 3
1 10 5 7 6 9 3 8 2 4
2 4 10 5 9 6 3 7 1 8
5 6 8 7 9 3 4 1 10 2
10 6 9 2 7 8 1 5 4 3
10 5 2 1 4 6 9 8 7 3
5 4 6 1 8 2 7 3 10 9
3 9 1 7 8 6 4 2 5 10
8 1 3 9 4 7 10 2 6 5
3 9 8 7 1 6 5 10 4 2
4 10 6 1 2 5 9 8 3 7
3 5 2 9 7 8 10 1 6 4
10 6 5 9 1 3 8 2 4 7
8 7 4 1 5 2 3 9 10 6
3 4 8 9 5 2 7 10 1 6
1 2 5 6 4 8 3 7 10 9
6 9 1 8 5 3 10 4 2 7
10 8 3 6 4 9 1 7 2 5
4 9 10 1 8 6 7 3 2 5
4 3 5 8 10 6 9 7 1 2
2 5 3 1 8 7 9 4 6 10
9 2 6 10 1 8 3 7 5 4
8 1 3 4 5 6 7 2 10 9
4 6 8 1 3 7 5 9 10 2
2 10 8 7 6 9 5 1 3 4
1 2 4 8 6 3 9 7 10 5
1 10 5 9 8 6 3 2 4 7
7 9 5 4 2 3 6 1 10 8
10 8 5 7 1 3 4 2 6 9
7 8 5 1 4 2 10 6 9 3
4 1 3 8 9 10 6 2 5 7
1 3 9 5 2 8 4 10 7 6
1 5 4 7 2 6 9 3 8 10
4 10 9 8 7 1 3 6 5 2
3 5 7 10 1 6 4 2 8 9
8 10 7 9 5 6 4 3 1 2
5 6 8 3 1 9 2 10 7 4
3 7 9 10 2 1 8 5 6 4
2 8 9 4 6 7 1 10 5 3
